\relax 
\providecommand\hyper@newdestlabel[2]{}
\catcode `:\active 
\catcode `;\active 
\catcode `!\active 
\catcode `?\active 
\providecommand\HyperFirstAtBeginDocument{\AtBeginDocument}
\HyperFirstAtBeginDocument{\ifx\hyper@anchor\@undefined
\global\let\oldcontentsline\contentsline
\gdef\contentsline#1#2#3#4{\oldcontentsline{#1}{#2}{#3}}
\global\let\oldnewlabel\newlabel
\gdef\newlabel#1#2{\newlabelxx{#1}#2}
\gdef\newlabelxx#1#2#3#4#5#6{\oldnewlabel{#1}{{#2}{#3}}}
\AtEndDocument{\ifx\hyper@anchor\@undefined
\let\contentsline\oldcontentsline
\let\newlabel\oldnewlabel
\fi}
\fi}
\global\let\hyper@last\relax 
\gdef\HyperFirstAtBeginDocument#1{#1}
\providecommand\HyField@AuxAddToFields[1]{}
\providecommand\HyField@AuxAddToCoFields[2]{}
\babel@aux{french}{}
\newlabel{index::doc}{{}{1}{}{section*.2}{}}
\@writefile{toc}{\contentsline {chapter}{\numberline {1}Glossaire}{1}{chapter.1}\protected@file@percent }
\@writefile{lof}{\addvspace {10\p@ }}
\@writefile{lot}{\addvspace {10\p@ }}
\newlabel{Modules/glossaire_extrait:glossaire}{{1}{1}{Glossaire}{chapter.1}{}}
\newlabel{Modules/glossaire_extrait::doc}{{1}{1}{Glossaire}{chapter.1}{}}
\newlabel{Modules/glossaire_extrait:term-...}{{1}{1}{…\index {...@\spxentry {...}|spxpagem}\phantomsection }{section*.3}{}}
\newlabel{Modules/glossaire_extrait:term-0}{{1}{1}{\textgreater {}\textgreater {}\textgreater {}\index {\textgreater {}\textgreater {}\textgreater {}@\spxentry {\textgreater {}\textgreater {}\textgreater {}}|spxpagem}\phantomsection }{section*.4}{}}
\newlabel{Modules/glossaire_extrait:term-alias-de-type}{{1}{1}{alias de type\index {alias de type@\spxentry {alias de type}|spxpagem}\phantomsection }{section*.5}{}}
\newlabel{Modules/glossaire_extrait:term-annotation}{{1}{1}{annotation\index {annotation@\spxentry {annotation}|spxpagem}\phantomsection }{section*.6}{}}
\newlabel{Modules/glossaire_extrait:term-annotation-de-fonction}{{1}{1}{annotation de fonction\index {annotation de fonction@\spxentry {annotation de fonction}|spxpagem}\phantomsection }{section*.7}{}}
\newlabel{Modules/glossaire_extrait:term-annotation-de-type}{{1}{1}{annotation de type\index {annotation de type@\spxentry {annotation de type}|spxpagem}\phantomsection }{section*.8}{}}
\newlabel{Modules/glossaire_extrait:term-annotation-de-variable}{{1}{2}{annotation de variable\index {annotation de variable@\spxentry {annotation de variable}|spxpagem}\phantomsection }{section*.9}{}}
\newlabel{Modules/glossaire_extrait:term-argument}{{1}{2}{argument\index {argument@\spxentry {argument}|spxpagem}\phantomsection }{section*.10}{}}
\newlabel{Modules/glossaire_extrait:term-argument-nomme}{{1}{2}{argument nommé\index {argument nommé@\spxentry {argument nommé}|spxpagem}\phantomsection }{section*.11}{}}
\newlabel{Modules/glossaire_extrait:term-attribut}{{1}{2}{attribut\index {attribut@\spxentry {attribut}|spxpagem}\phantomsection }{section*.12}{}}
\newlabel{Modules/glossaire_extrait:term-BDFL}{{1}{2}{\sphinxstyleemphasis {BDFL}\index {BDFL@\spxentry {BDFL}|spxpagem}\phantomsection }{section*.13}{}}
\newlabel{Modules/glossaire_extrait:term-chaine-entre-triple-guillemets}{{1}{2}{chaîne entre triple guillemets\index {chaîne entre triple guillemets@\spxentry {chaîne entre triple guillemets}|spxpagem}\phantomsection }{section*.14}{}}
\newlabel{Modules/glossaire_extrait:term-classe}{{1}{2}{classe\index {classe@\spxentry {classe}|spxpagem}\phantomsection }{section*.15}{}}
\newlabel{Modules/glossaire_extrait:term-code-intermediaire-bytecode}{{1}{2}{code intermédiaire (\sphinxstyleemphasis {bytecode})\index {code intermédiaire (bytecode)@\spxentry {code intermédiaire}\spxextra {bytecode}|spxpagem}\phantomsection }{section*.16}{}}
\newlabel{Modules/glossaire_extrait:term-coercition}{{1}{2}{coercition\index {coercition@\spxentry {coercition}|spxpagem}\phantomsection }{section*.17}{}}
\newlabel{Modules/glossaire_extrait:term-CPython}{{1}{3}{CPython\index {CPython@\spxentry {CPython}|spxpagem}\phantomsection }{section*.18}{}}
\newlabel{Modules/glossaire_extrait:term-dictionnaire}{{1}{3}{dictionnaire\index {dictionnaire@\spxentry {dictionnaire}|spxpagem}\phantomsection }{section*.19}{}}
\newlabel{Modules/glossaire_extrait:term-dictionnaire-en-comprehension}{{1}{3}{dictionnaire en compréhension\index {dictionnaire en compréhension@\spxentry {dictionnaire en compréhension}|spxpagem}\phantomsection }{section*.20}{}}
\newlabel{Modules/glossaire_extrait:term-division-entiere}{{1}{3}{division entière\index {division entière@\spxentry {division entière}|spxpagem}\phantomsection }{section*.21}{}}
\newlabel{Modules/glossaire_extrait:term-docstring-chaine-de-documentation}{{1}{3}{\sphinxstyleemphasis {docstring} (chaîne de documentation)\index {docstring (chaîne de documentation)@\spxentry {docstring}\spxextra {chaîne de documentation}|spxpagem}\phantomsection }{section*.22}{}}
\newlabel{Modules/glossaire_extrait:term-EAFP}{{1}{3}{EAFP\index {EAFP@\spxentry {EAFP}|spxpagem}\phantomsection }{section*.23}{}}
\newlabel{Modules/glossaire_extrait:term-encodage-de-texte}{{1}{3}{encodage de texte\index {encodage de texte@\spxentry {encodage de texte}|spxpagem}\phantomsection }{section*.24}{}}
\newlabel{Modules/glossaire_extrait:term-ensemble-en-comprehension}{{1}{3}{ensemble en compréhension\index {ensemble en compréhension@\spxentry {ensemble en compréhension}|spxpagem}\phantomsection }{section*.25}{}}
\newlabel{Modules/glossaire_extrait:term-espace-de-nommage}{{1}{3}{espace de nommage\index {espace de nommage@\spxentry {espace de nommage}|spxpagem}\phantomsection }{section*.26}{}}
\newlabel{Modules/glossaire_extrait:term-expression}{{1}{3}{expression\index {expression@\spxentry {expression}|spxpagem}\phantomsection }{section*.27}{}}
\newlabel{Modules/glossaire_extrait:term-f-string}{{1}{3}{f\sphinxhyphen {}string\index {f\sphinxhyphen {}string@\spxentry {f\sphinxhyphen {}string}|spxpagem}\phantomsection }{section*.28}{}}
\newlabel{Modules/glossaire_extrait:term-fichier-texte}{{1}{3}{fichier texte\index {fichier texte@\spxentry {fichier texte}|spxpagem}\phantomsection }{section*.29}{}}
\newlabel{Modules/glossaire_extrait:term-fonction}{{1}{3}{fonction\index {fonction@\spxentry {fonction}|spxpagem}\phantomsection }{section*.30}{}}
\newlabel{Modules/glossaire_extrait:term-hachable}{{1}{3}{hachable\index {hachable@\spxentry {hachable}|spxpagem}\phantomsection }{section*.31}{}}
\newlabel{Modules/glossaire_extrait:term-immuable}{{1}{4}{immuable\index {immuable@\spxentry {immuable}|spxpagem}\phantomsection }{section*.32}{}}
\newlabel{Modules/glossaire_extrait:term-importer}{{1}{4}{importer\index {importer@\spxentry {importer}|spxpagem}\phantomsection }{section*.33}{}}
\newlabel{Modules/glossaire_extrait:term-instruction}{{1}{4}{instruction\index {instruction@\spxentry {instruction}|spxpagem}\phantomsection }{section*.34}{}}
\newlabel{Modules/glossaire_extrait:term-interactif}{{1}{4}{interactif\index {interactif@\spxentry {interactif}|spxpagem}\phantomsection }{section*.35}{}}
\newlabel{Modules/glossaire_extrait:term-interprete}{{1}{4}{interprété\index {interprété@\spxentry {interprété}|spxpagem}\phantomsection }{section*.36}{}}
\newlabel{Modules/glossaire_extrait:term-iterable}{{1}{4}{itérable\index {itérable@\spxentry {itérable}|spxpagem}\phantomsection }{section*.37}{}}
\newlabel{Modules/glossaire_extrait:term-iterateur}{{1}{4}{itérateur\index {itérateur@\spxentry {itérateur}|spxpagem}\phantomsection }{section*.38}{}}
\newlabel{Modules/glossaire_extrait:term-lambda}{{1}{4}{lambda\index {lambda@\spxentry {lambda}|spxpagem}\phantomsection }{section*.39}{}}
\newlabel{Modules/glossaire_extrait:term-LBYL}{{1}{4}{LBYL\index {LBYL@\spxentry {LBYL}|spxpagem}\phantomsection }{section*.40}{}}
\newlabel{Modules/glossaire_extrait:term-Le-zen-de-Python}{{1}{4}{Le zen de Python\index {Le zen de Python@\spxentry {Le zen de Python}|spxpagem}\phantomsection }{section*.41}{}}
\newlabel{Modules/glossaire_extrait:term-list}{{1}{4}{\sphinxstyleemphasis {list}\index {list@\spxentry {list}|spxpagem}\phantomsection }{section*.42}{}}
\newlabel{Modules/glossaire_extrait:term-liste-en-comprehension-ou-liste-en-intention}{{1}{4}{liste en compréhension (ou liste en intention)\index {liste en compréhension (ou liste en intention)@\spxentry {liste en compréhension}\spxextra {ou liste en intention}|spxpagem}\phantomsection }{section*.43}{}}
\newlabel{Modules/glossaire_extrait:term-methode}{{1}{4}{méthode\index {méthode@\spxentry {méthode}|spxpagem}\phantomsection }{section*.44}{}}
\newlabel{Modules/glossaire_extrait:term-module}{{1}{5}{module\index {module@\spxentry {module}|spxpagem}\phantomsection }{section*.45}{}}
\newlabel{Modules/glossaire_extrait:term-muable}{{1}{5}{muable\index {muable@\spxentry {muable}|spxpagem}\phantomsection }{section*.46}{}}
\newlabel{Modules/glossaire_extrait:term-nombre-complexe}{{1}{5}{nombre complexe\index {nombre complexe@\spxentry {nombre complexe}|spxpagem}\phantomsection }{section*.47}{}}
\newlabel{Modules/glossaire_extrait:term-objet}{{1}{5}{objet\index {objet@\spxentry {objet}|spxpagem}\phantomsection }{section*.48}{}}
\newlabel{Modules/glossaire_extrait:term-objet-fichier}{{1}{5}{objet fichier\index {objet fichier@\spxentry {objet fichier}|spxpagem}\phantomsection }{section*.49}{}}
\newlabel{Modules/glossaire_extrait:term-paquet}{{1}{5}{paquet\index {paquet@\spxentry {paquet}|spxpagem}\phantomsection }{section*.50}{}}
\newlabel{Modules/glossaire_extrait:term-parametre}{{1}{5}{paramètre\index {paramètre@\spxentry {paramètre}|spxpagem}\phantomsection }{section*.51}{}}
\newlabel{Modules/glossaire_extrait:term-PEP}{{1}{5}{PEP\index {PEP@\spxentry {PEP}|spxpagem}\phantomsection }{section*.52}{}}
\newlabel{Modules/glossaire_extrait:term-portee-imbriquee}{{1}{6}{portée imbriquée\index {portée imbriquée@\spxentry {portée imbriquée}|spxpagem}\phantomsection }{section*.53}{}}
\newlabel{Modules/glossaire_extrait:term-Pythonique}{{1}{6}{\sphinxstyleemphasis {Pythonique}\index {Pythonique@\spxentry {Pythonique}|spxpagem}\phantomsection }{section*.54}{}}
\newlabel{Modules/glossaire_extrait:term-ramasse-miettes}{{1}{6}{ramasse\sphinxhyphen {}miettes\index {ramasse\sphinxhyphen {}miettes@\spxentry {ramasse\sphinxhyphen {}miettes}|spxpagem}\phantomsection }{section*.55}{}}
\newlabel{Modules/glossaire_extrait:term-sequence}{{1}{6}{séquence\index {séquence@\spxentry {séquence}|spxpagem}\phantomsection }{section*.56}{}}
\newlabel{Modules/glossaire_extrait:term-tranche}{{1}{6}{tranche\index {tranche@\spxentry {tranche}|spxpagem}\phantomsection }{section*.57}{}}
\newlabel{Modules/glossaire_extrait:term-type}{{1}{6}{type\index {type@\spxentry {type}|spxpagem}\phantomsection }{section*.58}{}}
\newlabel{Modules/glossaire_extrait:term-vue-de-dictionnaire}{{1}{6}{vue de dictionnaire\index {vue de dictionnaire@\spxentry {vue de dictionnaire}|spxpagem}\phantomsection }{section*.59}{}}
\@writefile{toc}{\contentsline {chapter}{\numberline {2}Indices and tables}{7}{chapter.2}\protected@file@percent }
\@writefile{lof}{\addvspace {10\p@ }}
\@writefile{lot}{\addvspace {10\p@ }}
\newlabel{index:indices-and-tables}{{2}{7}{Indices and tables}{chapter.2}{}}
\@writefile{toc}{\contentsline {chapter}{Index}{9}{section*.60}\protected@file@percent }
