#FIG 3.1
Portrait
Center
Inches
1200 2
6 300 375 1125 750
2 4 0 1 -1 7 0 0 -1 0.000 0 0 7 0 0 5
	 1125 750 1125 375 300 375 300 750 1125 750
4 0 -1 0 0 0 10 0.0000 4 105 375 525 600 Client\001
-6
6 300 1425 1125 1800
2 4 0 1 -1 7 0 0 -1 0.000 0 0 7 0 0 5
	 1125 1800 1125 1425 300 1425 300 1800 1125 1800
4 0 -1 0 0 0 10 0.0000 4 105 375 525 1650 Client\001
-6
6 3150 675 3750 975
4 0 -1 0 0 0 10 0.0000 4 75 420 3150 750 serveur\001
4 0 -1 0 0 0 10 0.0000 4 135 555 3150 930 applicatif\001
-6
6 4275 675 4725 975
4 0 -1 0 0 0 10 0.0000 4 75 420 4275 750 serveur\001
4 0 -1 0 0 0 10 0.0000 4 105 405 4275 930 SGBD\001
-6
6 4350 1425 4800 1950
1 1 0 1 -1 7 0 0 -1 0.000 1 0.0000 4575 1500 225 75 4575 1500 4800 1575
1 1 0 1 -1 7 0 0 -1 0.000 1 0.0000 4575 1875 225 75 4575 1875 4800 1950
2 1 0 1 -1 7 0 0 -1 0.000 0 0 -1 0 0 2
	 4350 1500 4350 1875
2 1 0 1 -1 7 0 0 -1 0.000 0 0 -1 0 0 2
	 4800 1500 4800 1875
-6
6 2025 1500 2475 1875
4 0 -1 0 0 0 10 0.0000 4 135 345 2025 1650 Pages\001
4 0 -1 0 0 0 10 0.0000 4 105 420 2025 1830 HTML\001
-6
2 4 0 1 -1 7 0 0 -1 0.000 0 0 7 0 0 5
	 5100 2025 5100 375 1800 375 1800 2025 5100 2025
2 4 0 1 -1 7 0 0 -1 0.000 0 0 7 0 0 5
	 2700 1050 2700 600 1875 600 1875 1050 2700 1050
2 4 0 1 -1 7 0 0 -1 0.000 0 0 7 0 0 5
	 4950 1050 4950 600 4125 600 4125 1050 4950 1050
2 4 0 1 -1 7 0 0 -1 0.000 0 0 7 0 0 5
	 3825 1050 3825 600 3000 600 3000 1050 3825 1050
2 1 0 1 -1 7 0 0 -1 0.000 0 0 -1 1 1 2
	1 1 1.00 60.00 120.00
	1 1 1.00 60.00 120.00
	 2700 825 3000 825
2 1 0 1 -1 7 0 0 -1 0.000 0 0 -1 1 1 2
	1 1 1.00 60.00 120.00
	1 1 1.00 60.00 120.00
	 3825 825 4125 825
2 1 0 1 -1 7 0 0 -1 0.000 0 0 7 1 1 2
	1 1 1.00 60.00 120.00
	1 1 1.00 60.00 120.00
	 4500 1050 4500 1425
2 1 0 1 -1 7 0 0 -1 0.000 0 0 7 0 0 2
	 1275 375 1275 1800
2 1 0 1 -1 7 0 0 -1 0.000 0 0 7 0 0 2
	 1575 375 1575 1800
2 1 0 1 -1 7 0 0 -1 0.000 0 0 -1 0 0 3
	 1050 750 1125 1125 975 1425
2 1 0 1 -1 7 0 0 -1 0.000 0 0 -1 0 0 2
	 1125 1125 1275 1125
2 1 0 1 -1 7 0 0 -1 0.000 0 0 -1 0 0 4
	 1575 1125 1725 1125 1650 825 1875 825
2 1 0 1 -1 7 0 0 -1 0.000 0 0 7 1 1 2
	1 1 1.00 60.00 120.00
	1 1 1.00 60.00 120.00
	 2250 1050 2250 1500
4 0 -1 0 0 0 10 0.0000 4 15 135 675 1125 ...\001
4 0 -1 0 0 0 10 0.0000 4 135 315 2100 825 httpd\001
4 0 -1 0 0 0 10 1.5708 4 75 360 1500 1200 reseau\001
4 0 -1 0 0 0 10 0.0000 4 105 210 4500 1725 BD\001
