%!PS-Adobe-2.0
%%Title: archi-rsp.fig
%%Creator: fig2dev Version 3.1 Patchlevel 0
%%CreationDate: Wed Dec 11 17:32:22 1996
%%For: rigaux@vespucci.cnam.fr (Philippe Rigaux)
%%Orientation: Portrait
%%BoundingBox: 134 253 477 538
%%Pages: 1
%%BeginSetup
%%IncludeFeature: *PageSize Letter
%%EndSetup
%%EndComments
/$F2psDict 200 dict def
$F2psDict begin
$F2psDict /mtrx matrix put
/col-1 {} def
/col0 {0.000 0.000 0.000 srgb} bind def
/col1 {0.000 0.000 1.000 srgb} bind def
/col2 {0.000 1.000 0.000 srgb} bind def
/col3 {0.000 1.000 1.000 srgb} bind def
/col4 {1.000 0.000 0.000 srgb} bind def
/col5 {1.000 0.000 1.000 srgb} bind def
/col6 {1.000 1.000 0.000 srgb} bind def
/col7 {1.000 1.000 1.000 srgb} bind def
/col8 {0.000 0.000 0.560 srgb} bind def
/col9 {0.000 0.000 0.690 srgb} bind def
/col10 {0.000 0.000 0.820 srgb} bind def
/col11 {0.530 0.810 1.000 srgb} bind def
/col12 {0.000 0.560 0.000 srgb} bind def
/col13 {0.000 0.690 0.000 srgb} bind def
/col14 {0.000 0.820 0.000 srgb} bind def
/col15 {0.000 0.560 0.560 srgb} bind def
/col16 {0.000 0.690 0.690 srgb} bind def
/col17 {0.000 0.820 0.820 srgb} bind def
/col18 {0.560 0.000 0.000 srgb} bind def
/col19 {0.690 0.000 0.000 srgb} bind def
/col20 {0.820 0.000 0.000 srgb} bind def
/col21 {0.560 0.000 0.560 srgb} bind def
/col22 {0.690 0.000 0.690 srgb} bind def
/col23 {0.820 0.000 0.820 srgb} bind def
/col24 {0.500 0.190 0.000 srgb} bind def
/col25 {0.630 0.250 0.000 srgb} bind def
/col26 {0.750 0.380 0.000 srgb} bind def
/col27 {1.000 0.500 0.500 srgb} bind def
/col28 {1.000 0.630 0.630 srgb} bind def
/col29 {1.000 0.750 0.750 srgb} bind def
/col30 {1.000 0.880 0.880 srgb} bind def
/col31 {1.000 0.840 0.000 srgb} bind def

end
save
107.5 564.5 translate
1 -1 scale

/clp {closepath} bind def
/ef {eofill} bind def
/gr {grestore} bind def
/gs {gsave} bind def
/l {lineto} bind def
/m {moveto} bind def
/n {newpath} bind def
/s {stroke} bind def
/slc {setlinecap} bind def
/slj {setlinejoin} bind def
/slw {setlinewidth} bind def
/srgb {setrgbcolor} bind def
/rot {rotate} bind def
/sc {scale} bind def
/tr {translate} bind def
/tnt {dup dup currentrgbcolor
  4 -2 roll dup 1 exch sub 3 -1 roll mul add
  4 -2 roll dup 1 exch sub 3 -1 roll mul add
  4 -2 roll dup 1 exch sub 3 -1 roll mul add srgb}
  bind def
/shd {dup dup currentrgbcolor 4 -2 roll mul 4 -2 roll mul
  4 -2 roll mul srgb} bind def
/reencdict 12 dict def /ReEncode { reencdict begin
/newcodesandnames exch def /newfontname exch def /basefontname exch def
/basefontdict basefontname findfont def /newfont basefontdict maxlength dict def
basefontdict { exch dup /FID ne { dup /Encoding eq
{ exch dup length array copy newfont 3 1 roll put }
{ exch newfont 3 1 roll put } ifelse } { pop pop } ifelse } forall
newfont /FontName newfontname put newcodesandnames aload pop
128 1 255 { newfont /Encoding get exch /.notdef put } for
newcodesandnames length 2 idiv { newfont /Encoding get 3 1 roll put } repeat
newfontname newfont definefont pop end } def
/isovec [
8#200 /grave 8#201 /acute 8#202 /circumflex 8#203 /tilde
8#204 /macron 8#205 /breve 8#206 /dotaccent 8#207 /dieresis
8#210 /ring 8#211 /cedilla 8#212 /hungarumlaut 8#213 /ogonek 8#214 /caron
8#220 /dotlessi 8#230 /oe 8#231 /OE
8#240 /space 8#241 /exclamdown 8#242 /cent 8#243 /sterling
8#244 /currency 8#245 /yen 8#246 /brokenbar 8#247 /section 8#250 /dieresis
8#251 /copyright 8#252 /ordfeminine 8#253 /guillemotleft 8#254 /logicalnot
8#255 /endash 8#256 /registered 8#257 /macron 8#260 /degree 8#261 /plusminus
8#262 /twosuperior 8#263 /threesuperior 8#264 /acute 8#265 /mu 8#266 /paragraph
8#267 /periodcentered 8#270 /cedilla 8#271 /onesuperior 8#272 /ordmasculine
8#273 /guillemotright 8#274 /onequarter 8#275 /onehalf
8#276 /threequarters 8#277 /questiondown 8#300 /Agrave 8#301 /Aacute
8#302 /Acircumflex 8#303 /Atilde 8#304 /Adieresis 8#305 /Aring
8#306 /AE 8#307 /Ccedilla 8#310 /Egrave 8#311 /Eacute
8#312 /Ecircumflex 8#313 /Edieresis 8#314 /Igrave 8#315 /Iacute
8#316 /Icircumflex 8#317 /Idieresis 8#320 /Eth 8#321 /Ntilde 8#322 /Ograve
8#323 /Oacute 8#324 /Ocircumflex 8#325 /Otilde 8#326 /Odieresis 8#327 /multiply
8#330 /Oslash 8#331 /Ugrave 8#332 /Uacute 8#333 /Ucircumflex
8#334 /Udieresis 8#335 /Yacute 8#336 /Thorn 8#337 /germandbls 8#340 /agrave
8#341 /aacute 8#342 /acircumflex 8#343 /atilde 8#344 /adieresis 8#345 /aring
8#346 /ae 8#347 /ccedilla 8#350 /egrave 8#351 /eacute
8#352 /ecircumflex 8#353 /edieresis 8#354 /igrave 8#355 /iacute
8#356 /icircumflex 8#357 /idieresis 8#360 /eth 8#361 /ntilde 8#362 /ograve
8#363 /oacute 8#364 /ocircumflex 8#365 /otilde 8#366 /odieresis 8#367 /divide
8#370 /oslash 8#371 /ugrave 8#372 /uacute 8#373 /ucircumflex
8#374 /udieresis 8#375 /yacute 8#376 /thorn 8#377 /ydieresis] def
/Times-Roman /Times-Roman-iso isovec ReEncode
/Times-Roman /Times-Roman-iso isovec ReEncode
/Times-Italic /Times-Italic-iso isovec ReEncode
 /DrawEllipse {
	/endangle exch def
	/startangle exch def
	/yrad exch def
	/xrad exch def
	/y exch def
	/x exch def
	/savematrix mtrx currentmatrix def
	x y tr xrad yrad sc 0 0 1 startangle endangle arc
	closepath
	savematrix setmatrix
	} def

/$F2psBegin {$F2psDict begin /$F2psEnteredState save def} def
/$F2psEnd {$F2psEnteredState restore end} def
%%EndProlog

$F2psBegin
10 setmiterlimit
 0.06000 0.06000 sc
/Times-Roman-iso findfont 180.00 scalefont setfont
3151 1876 m
gs 1 -1 sc (Repartiteur \() col-1 show gr
/Times-Roman-iso findfont 180.00 scalefont setfont
4876 1876 m
gs 1 -1 sc (\)) col-1 show gr
/Times-Italic-iso findfont 180.00 scalefont setfont
4126 1876 m
gs 1 -1 sc (Scheduler) col-1 show gr
7.500 slw
% Polyline
n 5701 1351 m 5701 976 l  2551 976 l  2551 1351 l  clp  gs col-1 s gr 
% Polyline
n 5701 2776 m 5701 2401 l  2551 2401 l  2551 2776 l  clp  gs col-1 s gr 
% Polyline
n 5701 3526 m 5701 3151 l  2551 3151 l  2551 3526 l  clp  gs col-1 s gr 
% Polyline
n 5701 2026 m 5701 1651 l  2551 1651 l  2551 2026 l  clp  gs col-1 s gr 
% Polyline
n 2281 826 m 2176 826 2176 2071 105 arcto 4 {pop} repeat 2176 2176 6046 2176 105 arcto 4 {pop} repeat 6151 2176 6151 931 105 arcto 4 {pop} repeat 6151 826 2281 826 105 arcto 4 {pop} repeat clp  gs col-1 s gr 
% Polyline
n 2281 2251 m 2176 2251 2176 3571 105 arcto 4 {pop} repeat 2176 3676 6046 3676 105 arcto 4 {pop} repeat 6151 3676 6151 2356 105 arcto 4 {pop} repeat 6151 2251 2281 2251 105 arcto 4 {pop} repeat clp  gs col-1 s gr 
/Times-Roman-iso findfont 180.00 scalefont setfont
3001 1201 m
gs 1 -1 sc (Gestionnaire des transactions) col-1 show gr
/Times-Roman-iso findfont 180.00 scalefont setfont
3001 2626 m
gs 1 -1 sc (Gestionnaire des r\351cuperations) col-1 show gr
/Times-Roman-iso findfont 180.00 scalefont setfont
3526 3376 m
gs 1 -1 sc (M\351moire cache) col-1 show gr
/Times-Roman-iso findfont 180.00 scalefont setfont
451 1576 m
gs 1 -1 sc (MODULE) col-1 show gr
/Times-Roman-iso findfont 180.00 scalefont setfont
451 1861 m
gs 1 -1 sc (TRANSACTIONNEL) col-1 show gr
/Times-Roman-iso findfont 180.00 scalefont setfont
451 3001 m
gs 1 -1 sc (GESTIONNAIRE ) col-1 show gr
/Times-Roman-iso findfont 180.00 scalefont setfont
451 3286 m
gs 1 -1 sc (DE DONNEES) col-1 show gr
% Ellipse
n 4126 4276 525 150 0 360 DrawEllipse gs col-1 s gr

% Ellipse
n 4126 5026 525 150 0 360 DrawEllipse gs col-1 s gr

% Polyline
n 3601 4276 m 3601 5101 l  gs col-1 s gr 
% Polyline
n 4651 4276 m 4651 5026 l  gs col-1 s gr 
% Polyline
n 3451 676 m 3601 976 l  gs col-1 s gr 
n 3574.17 838.48 m 3601.00 976.00 l 3507.09 872.02 l gs col-1 s gr
% Polyline
n 3826 3526 m 3826 4651 l  gs col-1 s gr 
n 3863.50 4516.00 m 3826.00 4651.00 l 3788.50 4516.00 l gs col-1 s gr
% Polyline
n 4201 3526 m 4201 4651 l  gs col-1 s gr 
n 4163.50 3661.00 m 4201.00 3526.00 l 4238.50 3661.00 l gs col-1 s gr
% Polyline
n 4201 2776 m 4201 3151 l  gs col-1 s gr 
n 4163.50 2911.00 m 4201.00 2776.00 l 4238.50 2911.00 l gs col-1 s gr
% Polyline
n 4126 2026 m 4126 2401 l  gs col-1 s gr 
n 4088.50 2161.00 m 4126.00 2026.00 l 4163.50 2161.00 l gs col-1 s gr
% Polyline
n 4126 1351 m 4126 1651 l  gs col-1 s gr 
n 4088.50 1486.00 m 4126.00 1351.00 l 4163.50 1486.00 l gs col-1 s gr
% Polyline
n 3601 1351 m 3601 1651 l  gs col-1 s gr 
n 3638.50 1516.00 m 3601.00 1651.00 l 3563.50 1516.00 l gs col-1 s gr
% Polyline
n 3601 2026 m 3601 2401 l  gs col-1 s gr 
n 3638.50 2266.00 m 3601.00 2401.00 l 3563.50 2266.00 l gs col-1 s gr
% Polyline
n 3601 2776 m 3601 3151 l  gs col-1 s gr 
n 3638.50 3016.00 m 3601.00 3151.00 l 3563.50 3016.00 l gs col-1 s gr
% Interp Spline
n 5176 601 m
	4826.00 656.88 4676.00 694.38 4576 751 curveto
	4524.55 780.13 4468.30 836.38 4351 976 curveto
 gs col-1 s gr

n 4466.55 896.76 m 4351.00 976.00 l 4409.13 848.51 l gs col-1 s gr
% Interp Spline
n 2326 601 m
	2675.99 656.88 2825.99 694.38 2926 751 curveto
	2977.45 780.13 3033.70 836.38 3151 976 curveto
 gs col-1 s gr

n 3092.87 848.51 m 3151.00 976.00 l 3035.45 896.76 l gs col-1 s gr
/Times-Roman-iso findfont 150.00 scalefont setfont
1575 525 m
gs 1 -1 sc (Transaction 1) col-1 show gr
/Times-Roman-iso findfont 150.00 scalefont setfont
3000 525 m
gs 1 -1 sc (Transaction 2) col-1 show gr
/Times-Roman-iso findfont 150.00 scalefont setfont
5025 525 m
gs 1 -1 sc (Transaction n) col-1 show gr
/Times-Roman-iso findfont 180.00 scalefont setfont
4801 4726 m
gs 1 -1 sc (Disque) col-1 show gr
showpage
%%Page: 1 1
$F2psEnd
restore
