%!PS-Adobe-2.0 EPSF-2.0
%%Title: archi-jdbc.fig
%%Creator: fig2dev Version 3.1 Patchlevel 2
%%CreationDate: Fri Dec  3 14:40:37 1999
%%For: rigaux@vespucci (Philippe Rigaux)
%Magnification: 1.00
%%Orientation: Portrait
%%BoundingBox: 0 0 304 102
%%Pages: 0
%%BeginSetup
%%IncludeFeature: *PageSize A4
%%EndSetup
%%EndComments
/$F2psDict 200 dict def
$F2psDict begin
$F2psDict /mtrx matrix put
/col-1 {0 setgray} bind def
/col0 {0.000 0.000 0.000 srgb} bind def
/col1 {0.000 0.000 1.000 srgb} bind def
/col2 {0.000 1.000 0.000 srgb} bind def
/col3 {0.000 1.000 1.000 srgb} bind def
/col4 {1.000 0.000 0.000 srgb} bind def
/col5 {1.000 0.000 1.000 srgb} bind def
/col6 {1.000 1.000 0.000 srgb} bind def
/col7 {1.000 1.000 1.000 srgb} bind def
/col8 {0.000 0.000 0.560 srgb} bind def
/col9 {0.000 0.000 0.690 srgb} bind def
/col10 {0.000 0.000 0.820 srgb} bind def
/col11 {0.530 0.810 1.000 srgb} bind def
/col12 {0.000 0.560 0.000 srgb} bind def
/col13 {0.000 0.690 0.000 srgb} bind def
/col14 {0.000 0.820 0.000 srgb} bind def
/col15 {0.000 0.560 0.560 srgb} bind def
/col16 {0.000 0.690 0.690 srgb} bind def
/col17 {0.000 0.820 0.820 srgb} bind def
/col18 {0.560 0.000 0.000 srgb} bind def
/col19 {0.690 0.000 0.000 srgb} bind def
/col20 {0.820 0.000 0.000 srgb} bind def
/col21 {0.560 0.000 0.560 srgb} bind def
/col22 {0.690 0.000 0.690 srgb} bind def
/col23 {0.820 0.000 0.820 srgb} bind def
/col24 {0.500 0.190 0.000 srgb} bind def
/col25 {0.630 0.250 0.000 srgb} bind def
/col26 {0.750 0.380 0.000 srgb} bind def
/col27 {1.000 0.500 0.500 srgb} bind def
/col28 {1.000 0.630 0.630 srgb} bind def
/col29 {1.000 0.750 0.750 srgb} bind def
/col30 {1.000 0.880 0.880 srgb} bind def
/col31 {1.000 0.840 0.000 srgb} bind def

end
save
-3.0 123.0 translate
1 -1 scale

/cp {closepath} bind def
/ef {eofill} bind def
/gr {grestore} bind def
/gs {gsave} bind def
/sa {save} bind def
/rs {restore} bind def
/l {lineto} bind def
/m {moveto} bind def
/rm {rmoveto} bind def
/n {newpath} bind def
/s {stroke} bind def
/sh {show} bind def
/slc {setlinecap} bind def
/slj {setlinejoin} bind def
/slw {setlinewidth} bind def
/srgb {setrgbcolor} bind def
/rot {rotate} bind def
/sc {scale} bind def
/sd {setdash} bind def
/ff {findfont} bind def
/sf {setfont} bind def
/scf {scalefont} bind def
/sw {stringwidth} bind def
/tr {translate} bind def
/tnt {dup dup currentrgbcolor
  4 -2 roll dup 1 exch sub 3 -1 roll mul add
  4 -2 roll dup 1 exch sub 3 -1 roll mul add
  4 -2 roll dup 1 exch sub 3 -1 roll mul add srgb}
  bind def
/shd {dup dup currentrgbcolor 4 -2 roll mul 4 -2 roll mul
  4 -2 roll mul srgb} bind def
 /DrawEllipse {
	/endangle exch def
	/startangle exch def
	/yrad exch def
	/xrad exch def
	/y exch def
	/x exch def
	/savematrix mtrx currentmatrix def
	x y tr xrad yrad sc 0 0 1 startangle endangle arc
	closepath
	savematrix setmatrix
	} def

/$F2psBegin {$F2psDict begin /$F2psEnteredState save def} def
/$F2psEnd {$F2psEnteredState restore end} def
%%EndProlog

$F2psBegin
10 setmiterlimit
n 0 842 m 0 0 l 595 0 l 595 842 l cp clip
 0.06000 0.06000 sc
/Times-Roman ff 150.00 scf sf
3150 1425 m
gs 1 -1 sc (serveur) col-1 sh gr
/Times-Roman ff 150.00 scf sf
3150 1605 m
gs 1 -1 sc (SGBD) col-1 sh gr
7.500 slw
% Ellipse
n 4575 1350 225 75 0 360 DrawEllipse gs col-1 s gr

% Ellipse
n 4575 1725 225 75 0 360 DrawEllipse gs col-1 s gr

% Polyline
n 4350 1350 m 4350 1725 l gs col-1 s gr 
% Polyline
n 4800 1350 m 4800 1725 l gs col-1 s gr 
/Times-Roman ff 150.00 scf sf
4350 600 m
gs 1 -1 sc (Pages) col-1 sh gr
/Times-Roman ff 150.00 scf sf
4350 780 m
gs 1 -1 sc (HTML) col-1 sh gr
/Times-Roman ff 150.00 scf sf
825 1275 m
gs 1 -1 sc (Acces) col-1 sh gr
/Times-Roman ff 150.00 scf sf
825 1455 m
gs 1 -1 sc (BD) col-1 sh gr
% Polyline
n 180 600 m 75 600 75 1470 105 arcto 4 {pop} repeat
  75 1575 1170 1575 105 arcto 4 {pop} repeat
  1275 1575 1275 705 105 arcto 4 {pop} repeat
  1275 600 180 600 105 arcto 4 {pop} repeat
 cp gs col-1 s gr 
% Polyline
n 855 1125 m 750 1125 750 1470 105 arcto 4 {pop} repeat
  750 1575 1170 1575 105 arcto 4 {pop} repeat
  1275 1575 1275 1230 105 arcto 4 {pop} repeat
  1275 1125 855 1125 105 arcto 4 {pop} repeat
 cp gs col-1 s gr 
/Times-Roman ff 150.00 scf sf
450 975 m
gs 1 -1 sc (Client) col-1 sh gr
% Polyline
n 2955 450 m 2850 450 2850 795 105 arcto 4 {pop} repeat
  2850 900 3570 900 105 arcto 4 {pop} repeat
  3675 900 3675 555 105 arcto 4 {pop} repeat
  3675 450 2955 450 105 arcto 4 {pop} repeat
 cp gs col-1 s gr 
% Polyline
n 3030 1275 m 2925 1275 2925 1620 105 arcto 4 {pop} repeat
  2925 1725 3645 1725 105 arcto 4 {pop} repeat
  3750 1725 3750 1380 105 arcto 4 {pop} repeat
  3750 1275 3030 1275 105 arcto 4 {pop} repeat
 cp gs col-1 s gr 
% Polyline
gs  clippath
4128 645 m 4248 675 l 4128 705 l 4290 705 l 4290 645 l  cp clip
3822 705 m 3702 675 l 3822 645 l 3660 645 l 3660 705 l  cp clip
n 3675 675 m 4275 675 l gs col-1 s gr gr

% arrowhead
n 3822 705 m 3702 675 l 3822 645 l 3822 675 l 3822 705 l  cp gs 0.00 setgray ef gr  col-1 s
% arrowhead
n 4128 645 m 4248 675 l 4128 705 l 4128 675 l 4128 645 l  cp gs 0.00 setgray ef gr  col-1 s
% Polyline
gs  clippath
4203 1470 m 4323 1500 l 4203 1530 l 4365 1530 l 4365 1470 l  cp clip
3897 1530 m 3777 1500 l 3897 1470 l 3735 1470 l 3735 1530 l  cp clip
n 3750 1500 m 4350 1500 l gs col-1 s gr gr

% arrowhead
n 3897 1530 m 3777 1500 l 3897 1470 l 3897 1500 l 3897 1530 l  cp gs 0.00 setgray ef gr  col-1 s
% arrowhead
n 4203 1470 m 4323 1500 l 4203 1530 l 4203 1500 l 4203 1470 l  cp gs 0.00 setgray ef gr  col-1 s
% Polyline
n 2880 375 m 2775 375 2775 1920 105 arcto 4 {pop} repeat
  2775 2025 4995 2025 105 arcto 4 {pop} repeat
  5100 2025 5100 480 105 arcto 4 {pop} repeat
  5100 375 2880 375 105 arcto 4 {pop} repeat
 cp gs col-1 s gr 
% Polyline
n 2250 375 m 2250 1875 l gs col-1 s gr 
% Polyline
n 1800 375 m 1800 1875 l gs col-1 s gr 
% Polyline
n 1275 750 m 1800 750 l gs col-1 s gr 
% Polyline
n 2250 750 m 2850 750 l gs col-1 s gr 
% Polyline
n 1275 1425 m 1800 1425 l gs col-1 s gr 
% Polyline
n 2250 1425 m 2925 1425 l gs col-1 s gr 
/Times-Roman ff 150.00 scf sf
3150 675 m
gs 1 -1 sc (httpd) col-1 sh gr
/Times-Roman ff 150.00 scf sf
4500 1575 m
gs 1 -1 sc (BD) col-1 sh gr
/Times-Roman ff 150.00 scf sf
2025 1200 m
gs 1 -1 sc  90.0 rot (reseau) col-1 sh gr
$F2psEnd
rs
