#FIG 3.2
Landscape
Center
Metric
A4      
100.00
Single
-2
1200 2
2 2 0 1 0 7 100 0 -1 0.000 0 0 -1 0 0 5
	 450 315 4500 315 4500 630 450 630 450 315
2 1 0 1 0 7 100 0 -1 0.000 0 0 -1 0 0 2
	 900 315 900 630
2 1 0 1 0 7 100 0 -1 0.000 0 0 -1 0 0 2
	 1350 315 1350 630
2 1 0 1 0 7 100 0 -1 0.000 0 0 -1 0 0 2
	 2700 315 2700 630
2 1 0 1 0 7 100 0 -1 0.000 0 0 -1 0 0 2
	 4050 315 4050 630
2 2 0 1 0 7 100 0 15 0.000 0 0 7 0 0 5
	 3150 315 3600 315 3600 630 3150 630 3150 315
2 1 0 1 0 7 100 0 15 0.000 0 0 7 1 0 2
	1 1 1.00 60.00 120.00
	 450 675 450 630
2 1 0 1 0 7 50 0 -1 0.000 0 0 7 1 0 2
	1 1 1.00 60.00 120.00
	 2340 135 2880 315
2 1 0 1 0 7 50 0 -1 0.000 0 0 -1 1 0 2
	1 1 1.00 60.00 120.00
	 1710 90 1170 315
2 1 0 1 0 7 50 0 -1 0.000 0 0 -1 0 0 1
	 1215 315
2 1 0 1 0 7 50 0 -1 0.000 0 0 -1 0 0 2
	 3150 720 2835 1170
2 1 0 1 0 7 50 0 -1 0.000 0 0 -1 0 0 2
	 3600 720 3915 1170
2 2 0 1 0 7 50 0 -1 0.000 0 0 -1 0 0 5
	 2835 1260 3960 1260 3960 1575 2835 1575 2835 1260
2 2 0 1 0 7 50 0 15 0.000 0 0 -1 0 0 5
	 2835 1260 2925 1260 2925 1575 2835 1575 2835 1260
2 2 0 1 0 7 50 0 0 0.000 0 0 -1 0 0 5
	 3825 1260 3960 1260 3960 1575 3825 1575 3825 1260
2 1 0 1 0 7 100 0 -1 0.000 0 0 -1 0 0 2
	 3060 1260 3060 1575
2 1 0 1 0 7 100 0 -1 0.000 0 0 -1 0 0 2
	 3195 1260 3195 1575
2 1 0 1 0 7 100 0 -1 0.000 0 0 -1 0 0 2
	 3690 1260 3690 1575
2 1 0 1 0 7 100 0 -1 0.000 0 0 -1 0 0 2
	 3555 1260 3555 1575
4 0 0 100 0 0 10 0.0000 4 105 630 360 945 Fichier F1\001
4 0 0 50 0 0 12 0.0000 4 15 135 1935 495 ...\001
4 0 0 50 0 0 10 0.0000 4 105 345 1845 180 Blocs\001
4 0 0 50 0 0 10 0.0000 4 135 1020 2925 1215 Enregistrements\001
4 0 0 50 0 0 10 0.0000 4 150 735 1980 1485 En-t\352te bloc\001
4 0 0 50 0 0 10 0.0000 4 105 150 3150 270 12\001
4 0 0 50 0 0 12 0.0000 4 15 135 3330 1440 ...\001
4 0 0 50 0 0 10 0.0000 4 105 150 3555 1710 46\001
