#FIG 3.2
Landscape
Center
Metric
A4      
100.00
Single
-2
1200 2
2 2 0 1 0 7 100 0 -1 0.000 0 0 -1 0 0 5
	 270 360 1395 360 1395 1935 270 1935 270 360
2 2 0 1 0 7 100 0 16 0.000 0 0 -1 0 0 5
	 270 360 1395 360 1395 585 270 585 270 360
2 2 0 1 0 7 100 0 16 0.000 0 0 -1 0 0 5
	 1710 360 1890 360 1890 540 1710 540 1710 360
2 2 0 1 0 7 100 0 0 0.000 0 0 7 0 0 5
	 1710 630 1890 630 1890 810 1710 810 1710 630
2 2 0 1 0 7 100 0 0 0.000 0 0 -1 0 0 5
	 270 585 1395 585 1395 720 270 720 270 585
2 2 0 1 0 7 100 0 11 0.000 0 0 7 0 0 5
	 1710 900 1890 900 1890 1080 1710 1080 1710 900
2 2 0 1 0 7 100 0 11 0.000 0 0 -1 0 0 5
	 270 720 1395 720 1395 810 270 810 270 720
2 2 0 1 0 7 100 0 19 0.000 0 0 -1 0 0 5
	 270 1125 1395 1125 1395 1935 270 1935 270 1125
2 2 0 1 0 7 100 0 19 0.000 0 0 7 0 0 5
	 1710 1485 1890 1485 1890 1665 1710 1665 1710 1485
2 2 0 1 0 7 100 0 -1 0.000 0 0 7 0 0 5
	 1710 1215 1890 1215 1890 1395 1710 1395 1710 1215
4 0 0 100 0 0 10 0.0000 4 105 720 540 315 Bloc Oracle\001
4 0 0 100 0 0 10 0.0000 4 135 1800 2025 1080 Adresses des enregistrements\001
4 0 0 100 0 0 10 0.0000 4 135 1020 2025 1665 Enregistrements\001
4 0 0 100 0 0 10 0.0000 4 135 735 2025 1395 Espace libre\001
4 0 0 100 0 0 10 0.0000 4 150 1830 2025 765 Tables repr\351sent\351es dans le bloc\001
4 0 0 100 0 0 10 0.0000 4 150 2460 2025 495 En-t\352te (adresse du bloc, type du segment)\001
