%!PS-Adobe-2.0 EPSF-2.0
%%Title: blocenr2.eps
%%Creator: fig2dev Version 3.2.3 Patchlevel 
%%CreationDate: Fri May  4 13:38:34 2001
%%For: rigaux@cartier (Philippe Rigaux)
%%BoundingBox: 0 0 258 110
%%Magnification: 1.0000
%%EndComments
/$F2psDict 200 dict def
$F2psDict begin
$F2psDict /mtrx matrix put
/col-1 {0 setgray} bind def
/col0 {0.000 0.000 0.000 srgb} bind def
/col1 {0.000 0.000 1.000 srgb} bind def
/col2 {0.000 1.000 0.000 srgb} bind def
/col3 {0.000 1.000 1.000 srgb} bind def
/col4 {1.000 0.000 0.000 srgb} bind def
/col5 {1.000 0.000 1.000 srgb} bind def
/col6 {1.000 1.000 0.000 srgb} bind def
/col7 {1.000 1.000 1.000 srgb} bind def
/col8 {0.000 0.000 0.560 srgb} bind def
/col9 {0.000 0.000 0.690 srgb} bind def
/col10 {0.000 0.000 0.820 srgb} bind def
/col11 {0.530 0.810 1.000 srgb} bind def
/col12 {0.000 0.560 0.000 srgb} bind def
/col13 {0.000 0.690 0.000 srgb} bind def
/col14 {0.000 0.820 0.000 srgb} bind def
/col15 {0.000 0.560 0.560 srgb} bind def
/col16 {0.000 0.690 0.690 srgb} bind def
/col17 {0.000 0.820 0.820 srgb} bind def
/col18 {0.560 0.000 0.000 srgb} bind def
/col19 {0.690 0.000 0.000 srgb} bind def
/col20 {0.820 0.000 0.000 srgb} bind def
/col21 {0.560 0.000 0.560 srgb} bind def
/col22 {0.690 0.000 0.690 srgb} bind def
/col23 {0.820 0.000 0.820 srgb} bind def
/col24 {0.500 0.190 0.000 srgb} bind def
/col25 {0.630 0.250 0.000 srgb} bind def
/col26 {0.750 0.380 0.000 srgb} bind def
/col27 {1.000 0.500 0.500 srgb} bind def
/col28 {1.000 0.630 0.630 srgb} bind def
/col29 {1.000 0.750 0.750 srgb} bind def
/col30 {1.000 0.880 0.880 srgb} bind def
/col31 {1.000 0.840 0.000 srgb} bind def

end
save
newpath 0 110 moveto 0 0 lineto 258 0 lineto 258 110 lineto closepath clip newpath
-27.0 120.0 translate
1 -1 scale

/cp {closepath} bind def
/ef {eofill} bind def
/gr {grestore} bind def
/gs {gsave} bind def
/sa {save} bind def
/rs {restore} bind def
/l {lineto} bind def
/m {moveto} bind def
/rm {rmoveto} bind def
/n {newpath} bind def
/s {stroke} bind def
/sh {show} bind def
/slc {setlinecap} bind def
/slj {setlinejoin} bind def
/slw {setlinewidth} bind def
/srgb {setrgbcolor} bind def
/rot {rotate} bind def
/sc {scale} bind def
/sd {setdash} bind def
/ff {findfont} bind def
/sf {setfont} bind def
/scf {scalefont} bind def
/sw {stringwidth} bind def
/tr {translate} bind def
/tnt {dup dup currentrgbcolor
  4 -2 roll dup 1 exch sub 3 -1 roll mul add
  4 -2 roll dup 1 exch sub 3 -1 roll mul add
  4 -2 roll dup 1 exch sub 3 -1 roll mul add srgb}
  bind def
/shd {dup dup currentrgbcolor 4 -2 roll mul 4 -2 roll mul
  4 -2 roll mul srgb} bind def
/$F2psBegin {$F2psDict begin /$F2psEnteredState save def} def
/$F2psEnd {$F2psEnteredState restore end} def

$F2psBegin
%%Page: 1 1
10 setmiterlimit
 0.06299 0.06299 sc
% Polyline
7.500 slw
n 450 315 m 4500 315 l 4500 630 l 450 630 l
 cp gs col0 s gr 
% Polyline
n 900 315 m
 900 630 l gs col0 s gr 
% Polyline
n 1350 315 m
 1350 630 l gs col0 s gr 
% Polyline
n 2700 315 m
 2700 630 l gs col0 s gr 
% Polyline
n 4050 315 m
 4050 630 l gs col0 s gr 
% Polyline
n 3150 315 m 3600 315 l 3600 630 l 3150 630 l
 cp gs col7 0.75 shd ef gr gs col0 s gr 
% Polyline
n 3060 1260 m
 3060 1575 l gs col0 s gr 
% Polyline
n 3195 1260 m
 3195 1575 l gs col0 s gr 
% Polyline
n 3690 1260 m
 3690 1575 l gs col0 s gr 
% Polyline
n 3555 1260 m
 3555 1575 l gs col0 s gr 
/Times-Roman ff 150.00 scf sf
720 1035 m
gs 1 -1 sc (Adresse) col0 sh gr
/Times-Roman ff 150.00 scf sf
720 1230 m
gs 1 -1 sc (logique) col0 sh gr
/Times-Roman ff 150.00 scf sf
1350 1035 m
gs 1 -1 sc (Adresse) col0 sh gr
/Times-Roman ff 150.00 scf sf
1350 1230 m
gs 1 -1 sc (physique) col0 sh gr
% Polyline
n 630 855 m 1890 855 l 1890 1665 l 630 1665 l
 cp gs col0 s gr 
% Polyline
n 1260 855 m
 1260 1665 l gs col0 s gr 
% Polyline
n 630 1305 m
 1890 1305 l gs col0 s gr 
/Times-Roman ff 150.00 scf sf
1395 1575 m
gs 1 -1 sc (F1.12.46) col0 sh gr
/Times-Roman ff 150.00 scf sf
765 1575 m
gs 1 -1 sc (#90887) col0 sh gr
% Polyline
n 1211 315 m 1219 315 l gs col0 s gr
% Polyline
n 3150 720 m
 2835 1170 l gs col0 s gr 
% Polyline
n 3600 720 m
 3915 1170 l gs col0 s gr 
% Polyline
n 2835 1260 m 3960 1260 l 3960 1575 l 2835 1575 l
 cp gs col0 s gr 
% Polyline
n 2835 1260 m 2925 1260 l 2925 1575 l 2835 1575 l
 cp gs col7 0.75 shd ef gr gs col0 s gr 
% Polyline
n 3825 1260 m 3960 1260 l 3960 1575 l 3825 1575 l
 cp gs col7 0.00 shd ef gr gs col0 s gr 
% Polyline
gs  clippath
3675 1560 m 3615 1560 l 3615 1711 l 3645 1591 l 3675 1711 l cp
eoclip
n 1575 1665 m 1575 1890 l 3645 1890 l
 3645 1575 l gs col0 s gr gr

% arrowhead
n 3675 1711 m 3645 1591 l 3615 1711 l 3675 1711 l  cp gs 0.00 setgray ef gr  col0 s
/Times-Roman ff 180.00 scf sf
1935 495 m
gs 1 -1 sc (...) col0 sh gr
/Times-Roman ff 180.00 scf sf
3330 1440 m
gs 1 -1 sc (...) col0 sh gr
/Times-Roman ff 150.00 scf sf
3285 270 m
gs 1 -1 sc (12) col0 sh gr
/Times-Roman ff 150.00 scf sf
450 270 m
gs 1 -1 sc (F1) col0 sh gr
/Times-Roman ff 150.00 scf sf
3555 1215 m
gs 1 -1 sc (46) col0 sh gr
$F2psEnd
rs
