#FIG 3.2  Produced by xfig version 3.2.5-alpha5
Portrait
Center
Inches
Letter  
100.00
Single
-2
1200 2
1 3 1 1 -1 7 0 0 0 4.000 1 0.0000 2100 601 24 24 2100 601 2123 608
1 3 1 1 -1 7 0 0 0 4.000 1 0.0000 1351 1051 24 24 1351 1051 1374 1058
1 3 1 1 -1 7 0 0 0 4.000 1 0.0000 4800 601 24 24 4800 601 4823 608
1 3 1 1 -1 7 0 0 0 4.000 1 0.0000 4051 1051 24 24 4051 1051 4074 1058
2 2 1 1 -1 7 0 0 -1 4.000 0 0 0 0 0 5
	 1051 1051 1351 1051 1351 1276 1051 1276 1051 1051
2 2 1 1 -1 7 0 0 -1 4.000 0 0 0 0 0 5
	 1576 601 2101 601 2101 976 1576 976 1576 601
2 2 0 1 -1 7 0 0 -1 0.000 0 0 0 0 0 5
	 150 226 2551 226 2551 1875 150 1875 150 226
2 2 0 1 0 7 1 0 10 0.000 0 0 7 0 0 5
	 450 1350 750 1350 750 1725 450 1725 450 1350
2 2 0 1 0 7 1 0 10 0.000 0 0 7 0 0 5
	 225 450 600 450 600 750 225 750 225 450
2 2 0 1 0 7 1 0 10 0.000 0 0 7 0 0 5
	 1201 826 1726 826 1726 1126 1201 1126 1201 826
2 2 0 1 0 7 1 0 10 0.000 0 0 7 0 0 5
	 1725 1650 2325 1650 2325 1500 1725 1500 1725 1650
2 2 0 1 -1 7 0 0 -1 0.000 0 0 0 0 0 5
	 2850 226 5251 226 5251 1875 2850 1875 2850 226
2 2 0 1 0 7 1 0 10 0.000 0 0 7 0 0 5
	 3150 1350 3450 1350 3450 1725 3150 1725 3150 1350
2 2 0 1 0 7 1 0 10 0.000 0 0 7 0 0 5
	 2925 450 3300 450 3300 750 2925 750 2925 450
2 2 0 1 0 7 1 0 10 0.000 0 0 7 0 0 5
	 3901 826 4426 826 4426 1126 3901 1126 3901 826
2 2 0 1 0 7 1 0 10 0.000 0 0 7 0 0 5
	 4425 1650 5025 1650 5025 1500 4425 1500 4425 1650
2 1 1 1 -1 7 0 0 0 4.000 0 0 7 1 1 2
	0 0 1.00 60.00 120.00
	0 0 1.00 60.00 120.00
	 4426 1200 4951 1200
2 2 1 1 -1 7 0 0 -1 4.000 0 0 0 0 0 5
	 3900 457 4942 457 4942 1125 3900 1125 3900 457
2 1 1 1 -1 7 0 0 0 4.000 0 0 7 1 1 2
	0 0 1.00 60.00 120.00
	0 0 1.00 60.00 120.00
	 3825 451 3825 826
4 0 0 50 -1 0 10 0.0000 4 135 795 750 2175 Un fenÍtrage\001
4 0 0 50 -1 0 10 0.0000 4 165 1245 3450 2175 Le point\351 \351quivalent\001
4 0 0 50 -1 0 10 0.0000 4 105 195 1425 1350 w1\001
4 0 0 50 -1 0 10 0.0000 4 105 195 1800 900 w2\001
4 0 0 50 -1 0 10 0.0000 4 105 120 1275 750 N\001
4 0 0 50 -1 0 10 0.0000 4 105 240 1725 525 Wx\001
4 0 0 50 -1 0 10 0.0000 4 135 225 2175 825 Wy\001
4 0 0 50 -1 0 10 0.0000 4 105 90 4650 600 P\001
4 0 0 50 -1 0 10 0.0000 4 105 240 4650 1350 Wx\001
4 0 0 50 -1 0 10 0.0000 4 135 225 3525 675 Wy\001
