#FIG 3.2
Portrait
Center
Inches
Letter  
100.00
Single
-2
1200 2
2 2 0 1 -1 7 0 0 -1 0.000 0 0 0 0 0 5
	 675 300 1650 300 1650 1050 675 1050 675 300
2 2 0 1 -1 7 0 0 -1 0.000 0 0 0 0 0 5
	 2025 300 3075 300 3075 1050 2025 1050 2025 300
2 2 0 1 -1 7 0 0 -1 0.000 0 0 0 0 0 5
	 3525 300 4575 300 4575 1050 3525 1050 3525 300
2 2 0 1 -1 7 0 0 -1 0.000 0 0 0 0 0 5
	 4950 300 6000 300 6000 1050 4950 1050 4950 300
4 0 -1 0 0 0 10 0.0000 4 105 150 750 825 13\001
4 0 -1 0 0 0 10 0.0000 4 105 150 2100 825 14\001
4 0 -1 0 0 0 10 0.0000 4 15 135 3600 750 ...\001
4 0 -1 0 0 0 10 0.0000 4 15 135 5025 750 ...\001
4 0 -1 0 0 0 10 0.0000 4 15 135 1050 825 ...\001
4 0 -1 0 0 0 10 0.0000 4 15 135 2400 825 ...\001
4 0 0 100 0 0 10 0.0000 6 135 390 975 1275 Page 1\001
4 0 0 100 0 0 10 0.0000 6 135 390 2325 1275 Page 2\001
4 0 0 100 0 0 10 0.0000 6 135 390 3750 1275 Page 3\001
4 0 0 100 0 0 10 0.0000 6 135 390 5250 1275 Page 4\001
4 0 0 100 0 0 10 0.0000 6 105 75 750 525 1\001
4 0 0 100 0 0 10 0.0000 6 105 75 1050 525 5\001
4 0 0 100 0 0 10 0.0000 6 105 75 1350 525 9\001
4 0 0 100 0 0 10 0.0000 6 105 75 2175 525 2\001
4 0 0 100 0 0 10 0.0000 6 105 75 2475 525 6\001
4 0 0 100 0 0 10 0.0000 6 105 150 2775 525 10\001
4 0 0 100 0 0 10 0.0000 6 105 75 3675 525 3\001
4 0 0 100 0 0 10 0.0000 6 105 75 3975 525 7\001
4 0 0 100 0 0 10 0.0000 6 105 150 4275 525 11\001
4 0 0 100 0 0 10 0.0000 6 105 75 5100 525 4\001
4 0 0 100 0 0 10 0.0000 6 105 75 5400 525 8\001
4 0 0 100 0 0 10 0.0000 6 105 150 5700 525 12\001
