#FIG 3.2
Portrait
Center
Inches
A4      
100.00
Single
-2
1200 2
1 1 0 1 -1 7 0 0 -1 0.000 1 0.0000 1500 1050 1050 600 1500 1050 2550 1650
1 1 0 1 -1 7 0 0 -1 0.000 1 0.0000 4500 975 1050 600 4500 975 5550 1575
2 1 0 1 0 7 100 0 -1 0.000 0 0 -1 0 0 2
	 2025 825 4050 675
2 1 0 1 0 7 100 0 -1 0.000 0 0 -1 0 0 2
	 2025 1350 4050 1350
2 1 0 1 0 7 100 0 -1 0.000 0 0 -1 1 0 2
	1 1 1.00 60.00 120.00
	 2925 375 2925 600
2 1 0 1 0 7 100 0 -1 0.000 0 0 -1 1 0 2
	1 1 1.00 60.00 120.00
	 1500 300 1500 525
2 1 0 1 0 7 100 0 -1 0.000 0 0 -1 1 0 2
	1 1 1.00 60.00 120.00
	 4425 300 4425 525
2 1 0 1 0 7 100 0 -1 0.000 0 0 -1 0 0 2
	 2025 900 4050 900
2 2 0 1 0 7 50 0 0 0.000 0 0 -1 0 0 5
	 1950 825 2025 825 2025 900 1950 900 1950 825
2 2 0 1 0 7 50 0 0 0.000 0 0 -1 0 0 5
	 1950 600 2025 600 2025 675 1950 675 1950 600
2 2 0 1 0 7 50 0 0 0.000 0 0 -1 0 0 5
	 1950 1050 2025 1050 2025 1125 1950 1125 1950 1050
2 2 0 1 0 7 50 0 0 0.000 0 0 -1 0 0 5
	 1950 1275 2025 1275 2025 1350 1950 1350 1950 1275
2 2 0 1 0 7 50 0 0 0.000 0 0 -1 0 0 5
	 4050 600 4125 600 4125 675 4050 675 4050 600
2 2 0 1 0 7 50 0 0 0.000 0 0 -1 0 0 5
	 4050 1275 4125 1275 4125 1350 4050 1350 4050 1275
2 2 0 1 0 7 50 0 0 0.000 0 0 -1 0 0 5
	 4050 900 4125 900 4125 975 4050 975 4050 900
4 0 0 100 0 0 10 0.0000 4 105 585 4200 225 Les films\001
4 0 0 100 0 0 10 0.0000 4 105 675 1050 225 Les acteurs\001
4 0 0 100 0 0 10 0.0000 4 105 960 2475 225 Les liens "Joue"\001
4 0 0 100 0 0 10 0.0000 4 150 810 4200 675 Ennemi d'\351tat\001
4 0 0 100 0 0 10 0.0000 4 105 720 975 675 Tom Cruise\001
4 0 0 100 0 0 10 0.0000 4 105 900 975 900 Gene Hackman\001
4 0 0 100 0 0 10 0.0000 4 105 990 975 1125 Clint Eastwood\001
4 0 0 100 0 0 10 0.0000 4 135 990 975 1350 Jacques Dutronc\001
4 0 0 100 0 0 10 0.0000 4 135 615 4200 1350 Van Gogh\001
4 0 0 100 0 0 10 0.0000 4 135 765 4200 975 Impitoyable\001
