%!PS-Adobe-2.0 EPSF-2.0
%%Title: histograms.eps
%%Creator: fig2dev Version 3.2.3 Patchlevel 
%%CreationDate: Mon May 13 23:16:16 2002
%%For: rigaux@cartier (Philippe Rigaux)
%%BoundingBox: 0 0 288 90
%%Magnification: 1.0000
%%EndComments
/$F2psDict 200 dict def
$F2psDict begin
$F2psDict /mtrx matrix put
/col-1 {0 setgray} bind def
/col0 {0.000 0.000 0.000 srgb} bind def
/col1 {0.000 0.000 1.000 srgb} bind def
/col2 {0.000 1.000 0.000 srgb} bind def
/col3 {0.000 1.000 1.000 srgb} bind def
/col4 {1.000 0.000 0.000 srgb} bind def
/col5 {1.000 0.000 1.000 srgb} bind def
/col6 {1.000 1.000 0.000 srgb} bind def
/col7 {1.000 1.000 1.000 srgb} bind def
/col8 {0.000 0.000 0.560 srgb} bind def
/col9 {0.000 0.000 0.690 srgb} bind def
/col10 {0.000 0.000 0.820 srgb} bind def
/col11 {0.530 0.810 1.000 srgb} bind def
/col12 {0.000 0.560 0.000 srgb} bind def
/col13 {0.000 0.690 0.000 srgb} bind def
/col14 {0.000 0.820 0.000 srgb} bind def
/col15 {0.000 0.560 0.560 srgb} bind def
/col16 {0.000 0.690 0.690 srgb} bind def
/col17 {0.000 0.820 0.820 srgb} bind def
/col18 {0.560 0.000 0.000 srgb} bind def
/col19 {0.690 0.000 0.000 srgb} bind def
/col20 {0.820 0.000 0.000 srgb} bind def
/col21 {0.560 0.000 0.560 srgb} bind def
/col22 {0.690 0.000 0.690 srgb} bind def
/col23 {0.820 0.000 0.820 srgb} bind def
/col24 {0.500 0.190 0.000 srgb} bind def
/col25 {0.630 0.250 0.000 srgb} bind def
/col26 {0.750 0.380 0.000 srgb} bind def
/col27 {1.000 0.500 0.500 srgb} bind def
/col28 {1.000 0.630 0.630 srgb} bind def
/col29 {1.000 0.750 0.750 srgb} bind def
/col30 {1.000 0.880 0.880 srgb} bind def
/col31 {1.000 0.840 0.000 srgb} bind def

end
save
newpath 0 90 moveto 0 0 lineto 288 0 lineto 288 90 lineto closepath clip newpath
-16.0 97.0 translate
1 -1 scale

/cp {closepath} bind def
/ef {eofill} bind def
/gr {grestore} bind def
/gs {gsave} bind def
/sa {save} bind def
/rs {restore} bind def
/l {lineto} bind def
/m {moveto} bind def
/rm {rmoveto} bind def
/n {newpath} bind def
/s {stroke} bind def
/sh {show} bind def
/slc {setlinecap} bind def
/slj {setlinejoin} bind def
/slw {setlinewidth} bind def
/srgb {setrgbcolor} bind def
/rot {rotate} bind def
/sc {scale} bind def
/sd {setdash} bind def
/ff {findfont} bind def
/sf {setfont} bind def
/scf {scalefont} bind def
/sw {stringwidth} bind def
/tr {translate} bind def
/tnt {dup dup currentrgbcolor
  4 -2 roll dup 1 exch sub 3 -1 roll mul add
  4 -2 roll dup 1 exch sub 3 -1 roll mul add
  4 -2 roll dup 1 exch sub 3 -1 roll mul add srgb}
  bind def
/shd {dup dup currentrgbcolor 4 -2 roll mul 4 -2 roll mul
  4 -2 roll mul srgb} bind def
/$F2psBegin {$F2psDict begin /$F2psEnteredState save def} def
/$F2psEnd {$F2psEnteredState restore end} def

$F2psBegin
%%Page: 1 1
10 setmiterlimit
 0.06299 0.06299 sc
% Polyline
7.500 slw
n 2610 1080 m
 4770 1080 l gs col0 s gr 
% Polyline
n 2790 675 m 3240 675 l 3240 1080 l 2790 1080 l
 cp gs col0 s gr 
% Polyline
n 3915 675 m 4185 675 l 4185 1080 l 3915 1080 l
 cp gs col0 s gr 
% Polyline
n 4185 675 m 4680 675 l 4680 1080 l 4185 1080 l
 cp gs col0 s gr 
% Polyline
n 3510 675 m 3915 675 l 3915 1080 l 3510 1080 l
 cp gs col0 s gr 
% Polyline
n 3240 675 m 3510 675 l 3510 1080 l 3240 1080 l
 cp gs col0 s gr 
/Times-Roman ff 150.00 scf sf
2745 1215 m
gs 1 -1 sc (0) col0 sh gr
/Times-Roman ff 150.00 scf sf
4590 1215 m
gs 1 -1 sc (100) col0 sh gr
/Times-Roman ff 150.00 scf sf
3150 1215 m
gs 1 -1 sc (42) col0 sh gr
/Times-Roman ff 150.00 scf sf
2970 945 m
gs 1 -1 sc (20) col0 sh gr
/Times-Roman ff 150.00 scf sf
3330 945 m
gs 1 -1 sc (20) col0 sh gr
/Times-Roman ff 150.00 scf sf
3600 945 m
gs 1 -1 sc (20) col0 sh gr
/Times-Roman ff 150.00 scf sf
4005 945 m
gs 1 -1 sc (20) col0 sh gr
/Times-Roman ff 150.00 scf sf
4365 945 m
gs 1 -1 sc (20) col0 sh gr
/Times-Roman ff 150.00 scf sf
3420 1215 m
gs 1 -1 sc (61) col0 sh gr
/Times-Roman ff 150.00 scf sf
3825 1215 m
gs 1 -1 sc (70) col0 sh gr
/Times-Roman ff 150.00 scf sf
2880 1485 m
gs 1 -1 sc (\(b\) Histogramme en largeur) col0 sh gr
/Times-Roman ff 150.00 scf sf
4140 1215 m
gs 1 -1 sc (90) col0 sh gr
% Polyline
n 270 1080 m
 2430 1080 l gs col0 s gr 
% Polyline
n 450 675 m 630 675 l 630 1080 l 450 1080 l
 cp gs col0 s gr 
% Polyline
n 630 945 m 810 945 l 810 1080 l 630 1080 l
 cp gs col0 s gr 
% Polyline
n 810 495 m 990 495 l 990 1080 l 810 1080 l
 cp gs col0 s gr 
% Polyline
n 990 315 m 1170 315 l 1170 1080 l 990 1080 l
 cp gs col0 s gr 
% Polyline
n 1170 990 m 1350 990 l 1350 1080 l 1170 1080 l
 cp gs col0 s gr 
% Polyline
n 1350 135 m 1530 135 l 1530 1080 l 1350 1080 l
 cp gs col0 s gr 
% Polyline
n 1530 765 m 1710 765 l 1710 1080 l 1530 1080 l
 cp gs col0 s gr 
% Polyline
n 1710 585 m 1890 585 l 1890 1080 l 1710 1080 l
 cp gs col0 s gr 
% Polyline
n 1890 405 m 2070 405 l 2070 1080 l 1890 1080 l
 cp gs col0 s gr 
% Polyline
n 2070 765 m 2250 765 l 2250 1080 l 2070 1080 l
 cp gs col0 s gr 
/Times-Roman ff 150.00 scf sf
540 1215 m
gs 1 -1 sc (10) col0 sh gr
/Times-Roman ff 150.00 scf sf
405 1215 m
gs 1 -1 sc (0) col0 sh gr
/Times-Roman ff 150.00 scf sf
765 1215 m
gs 1 -1 sc (20) col0 sh gr
/Times-Roman ff 150.00 scf sf
945 1215 m
gs 1 -1 sc (30) col0 sh gr
/Times-Roman ff 150.00 scf sf
1125 1215 m
gs 1 -1 sc (40) col0 sh gr
/Times-Roman ff 150.00 scf sf
1305 1215 m
gs 1 -1 sc (50) col0 sh gr
/Times-Roman ff 150.00 scf sf
1485 1215 m
gs 1 -1 sc (60) col0 sh gr
/Times-Roman ff 150.00 scf sf
1665 1215 m
gs 1 -1 sc (70) col0 sh gr
/Times-Roman ff 150.00 scf sf
1845 1215 m
gs 1 -1 sc (80) col0 sh gr
/Times-Roman ff 150.00 scf sf
2025 1215 m
gs 1 -1 sc (90) col0 sh gr
/Times-Roman ff 150.00 scf sf
2205 1215 m
gs 1 -1 sc (100) col0 sh gr
/Times-Roman ff 150.00 scf sf
1755 540 m
gs 1 -1 sc (8) col0 sh gr
/Times-Roman ff 150.00 scf sf
540 1485 m
gs 1 -1 sc (\(a\) Histogramme en hauteur) col0 sh gr
/Times-Roman ff 150.00 scf sf
1890 360 m
gs 1 -1 sc (12) col0 sh gr
$F2psEnd
rs
