#FIG 3.2
Portrait
Center
Inches
A4      
100.00
Single
-2
1200 2
6 4350 1275 6000 2175
2 1 0 1 0 7 50 0 -1 0.000 0 0 -1 0 0 2
	 5325 1275 5325 1500
2 1 0 1 0 7 50 0 -1 0.000 0 0 -1 0 0 2
	 5700 1275 5700 1500
2 1 0 1 0 7 50 0 -1 0.000 0 0 -1 0 0 2
	 5325 1500 5325 1725
2 1 0 1 0 7 50 0 -1 0.000 0 0 -1 0 0 2
	 5700 1500 5700 1725
2 1 0 1 0 7 50 0 -1 0.000 0 0 -1 0 0 2
	 5325 1725 5325 1950
2 1 0 1 0 7 50 0 -1 0.000 0 0 -1 0 0 2
	 5700 1725 5700 1950
2 1 0 1 0 7 50 0 -1 0.000 0 0 -1 0 0 2
	 5325 1950 5325 2175
2 1 0 1 0 7 50 0 -1 0.000 0 0 -1 0 0 2
	 5700 1950 5700 2175
2 2 0 1 0 7 50 0 -1 0.000 0 0 -1 0 0 5
	 4350 1275 6000 1275 6000 1500 4350 1500 4350 1275
2 2 0 1 0 7 50 0 -1 0.000 0 0 -1 0 0 5
	 4350 1500 6000 1500 6000 1725 4350 1725 4350 1500
2 2 0 1 0 7 50 0 -1 0.000 0 0 -1 0 0 5
	 4350 1725 6000 1725 6000 1950 4350 1950 4350 1725
2 2 0 1 0 7 50 0 -1 0.000 0 0 -1 0 0 5
	 4350 1950 6000 1950 6000 2175 4350 2175 4350 1950
4 0 0 50 0 0 10 0.0000 4 15 135 5850 1425 ...\001
4 0 0 50 0 0 10 0.0000 4 15 135 5850 1650 ...\001
4 0 0 50 0 0 10 0.0000 4 15 135 5850 1875 ...\001
4 0 0 50 0 0 10 0.0000 4 15 135 5850 2100 ...\001
4 0 0 50 0 0 10 0.0000 4 105 1065 4500 1425 Smoke            1995\001
4 0 0 50 0 0 10 0.0000 4 105 1125 4500 1650 Twin Peaks    1990\001
4 0 0 50 0 0 10 0.0000 4 135 1140 4500 1875 Undergroun   1995\001
4 0 0 50 0 0 10 0.0000 4 135 1125 4500 2100 Vertigo           1958\001
-6
6 375 1275 2025 2175
2 1 0 1 0 7 50 0 -1 0.000 0 0 -1 0 0 2
	 1350 1950 1350 2175
2 1 0 1 0 7 50 0 -1 0.000 0 0 -1 0 0 2
	 1725 1950 1725 2175
2 1 0 1 0 7 50 0 -1 0.000 0 0 -1 0 0 2
	 1350 1725 1350 1950
2 1 0 1 0 7 50 0 -1 0.000 0 0 -1 0 0 2
	 1725 1725 1725 1950
2 1 0 1 0 7 50 0 -1 0.000 0 0 -1 0 0 2
	 1350 1500 1350 1725
2 1 0 1 0 7 50 0 -1 0.000 0 0 -1 0 0 2
	 1725 1500 1725 1725
2 1 0 1 0 7 50 0 -1 0.000 0 0 -1 0 0 2
	 1350 1275 1350 1500
2 1 0 1 0 7 50 0 -1 0.000 0 0 -1 0 0 2
	 1725 1275 1725 1500
2 2 0 1 0 7 50 0 -1 0.000 0 0 -1 0 0 5
	 375 1950 2025 1950 2025 2175 375 2175 375 1950
2 2 0 1 0 7 50 0 -1 0.000 0 0 -1 0 0 5
	 375 1275 2025 1275 2025 1500 375 1500 375 1275
2 2 0 1 0 7 50 0 -1 0.000 0 0 -1 0 0 5
	 375 1500 2025 1500 2025 1725 375 1725 375 1500
2 2 0 1 0 7 50 0 -1 0.000 0 0 -1 0 0 5
	 375 1725 2025 1725 2025 1950 375 1950 375 1725
4 0 0 50 0 0 11 0.0000 4 15 135 1776 1425 ...\001
4 0 0 50 0 0 10 0.0000 4 15 135 1875 2100 ...\001
4 0 0 50 0 0 10 0.0000 4 15 135 1875 1875 ...\001
4 0 0 50 0 0 10 0.0000 4 15 135 1875 1650 ...\001
4 0 0 50 0 0 10 0.0000 4 15 135 1875 1425 ...\001
4 0 0 50 0 0 10 0.0000 4 105 1155 525 1425 Annie Hall     1977\001
4 0 0 50 0 0 10 0.0000 4 105 1080 525 1650 Brazil             1984\001
4 0 0 50 0 0 10 0.0000 4 105 1125 525 1875 Casablanca     1942\001
4 0 0 50 0 0 10 0.0000 4 135 1140 525 2100 Easy Rider      1969\001
-6
6 1500 2250 3150 3150
2 1 0 1 0 7 50 0 -1 0.000 0 0 -1 0 0 2
	 2475 2475 2475 2700
2 1 0 1 0 7 50 0 -1 0.000 0 0 -1 0 0 2
	 2475 2250 2475 2475
2 1 0 1 0 7 50 0 -1 0.000 0 0 -1 0 0 2
	 2850 2250 2850 2475
2 1 0 1 0 7 50 0 -1 0.000 0 0 -1 0 0 2
	 2850 2475 2850 2700
2 1 0 1 0 7 50 0 -1 0.000 0 0 -1 0 0 2
	 2475 2700 2475 2925
2 1 0 1 0 7 50 0 -1 0.000 0 0 -1 0 0 2
	 2850 2700 2850 2925
2 1 0 1 0 7 50 0 -1 0.000 0 0 -1 0 0 2
	 2475 2925 2475 3150
2 1 0 1 0 7 50 0 -1 0.000 0 0 -1 0 0 2
	 2850 2925 2850 3150
2 2 0 1 0 7 50 0 -1 0.000 0 0 -1 0 0 5
	 1500 2250 3150 2250 3150 2475 1500 2475 1500 2250
2 2 0 1 0 7 50 0 -1 0.000 0 0 -1 0 0 5
	 1500 2475 3150 2475 3150 2700 1500 2700 1500 2475
2 2 0 1 0 7 50 0 -1 0.000 0 0 -1 0 0 5
	 1500 2700 3150 2700 3150 2925 1500 2925 1500 2700
2 2 0 1 0 7 50 0 -1 0.000 0 0 -1 0 0 5
	 1500 2925 3150 2925 3150 3150 1500 3150 1500 2925
4 0 0 50 0 0 10 0.0000 4 15 30 2400 2400  \001
4 0 0 50 0 0 10 0.0000 4 15 135 3000 2400 ...\001
4 0 0 50 0 0 10 0.0000 4 15 135 3000 2625 ...\001
4 0 0 50 0 0 10 0.0000 4 15 135 3000 2850 ...\001
4 0 0 50 0 0 10 0.0000 4 15 30 2325 3150  \001
4 0 0 50 0 0 10 0.0000 4 15 135 3000 3075 ...\001
4 0 0 50 0 0 10 0.0000 4 135 1140 1650 2400 Greystoke       1984\001
4 0 0 50 0 0 10 0.0000 4 105 1155 1650 2625 Jurassic Park  1992\001
4 0 0 50 0 0 10 0.0000 4 135 1185 1650 2850 Impitoyable    1992\001
4 0 0 50 0 0 10 0.0000 4 105 1125 1650 3075 Manhattan     1979\001
-6
6 3675 2250 5325 3150
2 1 0 1 0 7 50 0 -1 0.000 0 0 -1 0 0 2
	 4650 2250 4650 2475
2 1 0 1 0 7 50 0 -1 0.000 0 0 -1 0 0 2
	 5025 2250 5025 2475
2 1 0 1 0 7 50 0 -1 0.000 0 0 -1 0 0 2
	 4650 2475 4650 2700
2 1 0 1 0 7 50 0 -1 0.000 0 0 -1 0 0 2
	 5025 2475 5025 2700
2 1 0 1 0 7 50 0 -1 0.000 0 0 -1 0 0 2
	 4650 2700 4650 2925
2 1 0 1 0 7 50 0 -1 0.000 0 0 -1 0 0 2
	 5025 2700 5025 2925
2 1 0 1 0 7 50 0 -1 0.000 0 0 -1 0 0 2
	 4650 2925 4650 3150
2 1 0 1 0 7 50 0 -1 0.000 0 0 -1 0 0 2
	 5025 2925 5025 3150
2 2 0 1 0 7 50 0 -1 0.000 0 0 -1 0 0 5
	 3675 2250 5325 2250 5325 2475 3675 2475 3675 2250
2 2 0 1 0 7 50 0 -1 0.000 0 0 -1 0 0 5
	 3675 2475 5325 2475 5325 2700 3675 2700 3675 2475
2 2 0 1 0 7 50 0 -1 0.000 0 0 -1 0 0 5
	 3675 2700 5325 2700 5325 2925 3675 2925 3675 2700
2 2 0 1 0 7 50 0 -1 0.000 0 0 -1 0 0 5
	 3675 2925 5325 2925 5325 3150 3675 3150 3675 2925
4 0 0 50 0 0 10 0.0000 4 15 135 5175 2400 ...\001
4 0 0 50 0 0 10 0.0000 4 15 135 5175 2625 ...\001
4 0 0 50 0 0 10 0.0000 4 15 135 5175 2850 ...\001
4 0 0 50 0 0 10 0.0000 4 15 135 5175 3075 ...\001
4 0 0 50 0 0 10 0.0000 4 135 1260 3750 2400 Metropolis        1926\001
4 0 0 50 0 0 10 0.0000 4 135 1185 3750 2625 Psychose           1960\001
4 0 0 50 0 0 10 0.0000 4 135 1275 3750 2850 Reservoir Dogs 1992\001
4 0 0 50 0 0 10 0.0000 4 135 1155 3750 3075 Shining             1980\001
-6
2 1 0 1 0 7 100 0 20 0.000 0 0 7 1 0 5
	1 1 1.00 60.00 120.00
	 525 675 525 1125 3450 1125 3450 2400 3675 2400
2 1 0 1 0 7 100 0 -1 0.000 0 0 7 1 0 5
	1 1 1.00 60.00 120.00
	 900 675 900 1200 2475 1200 2475 1875 2025 1875
2 1 0 1 0 7 100 0 -1 0.000 0 0 7 1 0 5
	1 1 1.00 60.00 120.00
	 1275 675 1275 1050 3900 1050 3900 2100 4350 2100
2 1 0 1 0 7 100 0 -1 0.000 0 0 -1 1 0 5
	1 1 1.00 60.00 120.00
	 1650 675 1650 975 3300 975 3300 2625 3675 2625
2 1 0 1 0 7 100 0 -1 0.000 0 0 -1 1 0 3
	1 1 1.00 60.00 120.00
	 3750 675 3750 1650 2025 1650
2 1 0 1 0 7 100 0 -1 0.000 0 0 -1 1 0 3
	1 1 1.00 60.00 120.00
	 2250 675 2250 2100 2025 2100
2 1 0 1 0 7 100 0 -1 0.000 0 0 -1 1 0 3
	1 1 1.00 60.00 120.00
	 2625 675 2625 1425 2025 1425
2 4 0 0 0 7 300 0 20 0.000 0 0 7 0 0 5
	 6150 3225 6150 225 225 225 225 3225 6150 3225
2 2 0 1 0 7 50 0 -1 0.000 0 0 -1 0 0 5
	 375 600 6150 600 6150 825 375 825 375 600
2 2 0 1 0 7 50 0 -1 0.000 0 0 -1 0 0 5
	 375 375 6150 375 6150 600 375 600 375 375
4 0 0 50 0 0 10 0.0000 4 105 300 375 525 1926\001
4 0 0 50 0 0 10 0.0000 4 105 300 750 525 1942\001
4 0 0 50 0 0 10 0.0000 4 105 300 1125 525 1958\001
4 0 0 50 0 0 10 0.0000 4 105 300 1500 525 1960\001
4 0 0 50 0 0 10 0.0000 4 105 300 1875 525 1969\001
4 0 0 50 0 0 10 0.0000 4 105 300 2250 525 1977\001
4 0 0 50 0 0 10 0.0000 4 105 300 2625 525 1979\001
4 0 0 50 0 0 10 0.0000 4 105 300 3000 525 1980\001
4 0 0 50 0 0 10 0.0000 4 105 300 3375 525 1984\001
4 0 0 50 0 0 10 0.0000 4 105 300 3750 525 1984\001
4 0 0 50 0 0 10 0.0000 4 105 300 4125 525 1990\001
4 0 0 50 0 0 10 0.0000 4 105 300 5850 525 1995\001
4 0 0 50 0 0 10 0.0000 4 105 300 5475 525 1995\001
4 0 0 50 0 0 10 0.0000 4 105 300 5175 525 1992\001
4 0 0 50 0 0 10 0.0000 4 105 300 4500 525 1992\001
4 0 0 50 0 0 10 0.0000 4 105 300 4875 525 1992\001
