#FIG 3.2
Portrait
Center
Inches
A4      
100.00
Single
-2
1200 2
6 525 675 1275 4275
6 525 675 1275 900
2 1 0 1 0 7 50 0 -1 0.000 0 0 -1 0 0 2
	 975 675 975 900
2 2 0 1 0 7 50 0 -1 0.000 0 0 -1 0 0 5
	 525 675 1275 675 1275 900 525 900 525 675
-6
6 525 900 1275 1125
2 1 0 1 0 7 50 0 -1 0.000 0 0 -1 0 0 2
	 975 900 975 1125
2 2 0 1 0 7 50 0 -1 0.000 0 0 -1 0 0 5
	 525 900 1275 900 1275 1125 525 1125 525 900
-6
6 525 1125 1275 1350
2 1 0 1 0 7 50 0 -1 0.000 0 0 -1 0 0 2
	 975 1125 975 1350
2 2 0 1 0 7 50 0 -1 0.000 0 0 -1 0 0 5
	 525 1125 1275 1125 1275 1350 525 1350 525 1125
-6
6 525 1350 1275 1575
2 1 0 1 0 7 50 0 -1 0.000 0 0 -1 0 0 2
	 975 1350 975 1575
2 2 0 1 0 7 50 0 -1 0.000 0 0 -1 0 0 5
	 525 1350 1275 1350 1275 1575 525 1575 525 1350
-6
6 525 1575 1275 1800
2 1 0 1 0 7 50 0 -1 0.000 0 0 -1 0 0 2
	 975 1575 975 1800
2 2 0 1 0 7 50 0 -1 0.000 0 0 -1 0 0 5
	 525 1575 1275 1575 1275 1800 525 1800 525 1575
-6
6 525 1800 1275 2025
2 1 0 1 0 7 50 0 -1 0.000 0 0 -1 0 0 2
	 975 1800 975 2025
2 2 0 1 0 7 50 0 -1 0.000 0 0 -1 0 0 5
	 525 1800 1275 1800 1275 2025 525 2025 525 1800
-6
6 525 2025 1275 2250
2 1 0 1 0 7 50 0 -1 0.000 0 0 -1 0 0 2
	 975 2025 975 2250
2 2 0 1 0 7 50 0 -1 0.000 0 0 -1 0 0 5
	 525 2025 1275 2025 1275 2250 525 2250 525 2025
-6
6 525 2250 1275 2475
2 1 0 1 0 7 50 0 -1 0.000 0 0 -1 0 0 2
	 975 2250 975 2475
2 2 0 1 0 7 50 0 -1 0.000 0 0 -1 0 0 5
	 525 2250 1275 2250 1275 2475 525 2475 525 2250
-6
6 525 2475 1275 2700
2 1 0 1 0 7 50 0 -1 0.000 0 0 -1 0 0 2
	 975 2475 975 2700
2 2 0 1 0 7 50 0 -1 0.000 0 0 -1 0 0 5
	 525 2475 1275 2475 1275 2700 525 2700 525 2475
-6
6 525 2700 1275 2925
2 1 0 1 0 7 50 0 -1 0.000 0 0 -1 0 0 2
	 975 2700 975 2925
2 2 0 1 0 7 50 0 -1 0.000 0 0 -1 0 0 5
	 525 2700 1275 2700 1275 2925 525 2925 525 2700
-6
6 525 2925 1275 3150
2 1 0 1 0 7 50 0 -1 0.000 0 0 -1 0 0 2
	 975 2925 975 3150
2 2 0 1 0 7 50 0 -1 0.000 0 0 -1 0 0 5
	 525 2925 1275 2925 1275 3150 525 3150 525 2925
-6
6 525 3150 1275 3375
2 1 0 1 0 7 50 0 -1 0.000 0 0 -1 0 0 2
	 975 3150 975 3375
2 2 0 1 0 7 50 0 -1 0.000 0 0 -1 0 0 5
	 525 3150 1275 3150 1275 3375 525 3375 525 3150
-6
6 525 3375 1275 3600
2 1 0 1 0 7 50 0 -1 0.000 0 0 -1 0 0 2
	 975 3375 975 3600
2 2 0 1 0 7 50 0 -1 0.000 0 0 -1 0 0 5
	 525 3375 1275 3375 1275 3600 525 3600 525 3375
-6
6 525 3600 1275 3825
2 1 0 1 0 7 50 0 -1 0.000 0 0 -1 0 0 2
	 975 3600 975 3825
2 2 0 1 0 7 50 0 -1 0.000 0 0 -1 0 0 5
	 525 3600 1275 3600 1275 3825 525 3825 525 3600
-6
6 525 3825 1275 4050
2 1 0 1 0 7 50 0 -1 0.000 0 0 -1 0 0 2
	 975 3825 975 4050
2 2 0 1 0 7 50 0 -1 0.000 0 0 -1 0 0 5
	 525 3825 1275 3825 1275 4050 525 4050 525 3825
-6
6 525 4050 1275 4275
2 1 0 1 0 7 50 0 -1 0.000 0 0 -1 0 0 2
	 975 4050 975 4275
2 2 0 1 0 7 50 0 -1 0.000 0 0 -1 0 0 5
	 525 4050 1275 4050 1275 4275 525 4275 525 4050
-6
4 0 0 50 0 0 10 0.0000 4 105 300 600 825 1926\001
4 0 0 50 0 0 10 0.0000 4 105 300 600 1050 1942\001
4 0 0 50 0 0 10 0.0000 4 105 300 600 1275 1958\001
4 0 0 50 0 0 10 0.0000 4 105 300 600 1500 1960\001
4 0 0 50 0 0 10 0.0000 4 105 300 600 1725 1969\001
4 0 0 50 0 0 10 0.0000 4 105 300 600 1950 1977\001
4 0 0 50 0 0 10 0.0000 4 105 300 600 2175 1979\001
4 0 0 50 0 0 10 0.0000 4 105 300 600 2400 1980\001
4 0 0 50 0 0 10 0.0000 4 105 300 600 2625 1984\001
4 0 0 50 0 0 10 0.0000 4 105 300 600 2850 1984\001
4 0 0 50 0 0 10 0.0000 4 105 300 600 3075 1990\001
4 0 0 50 0 0 10 0.0000 4 105 300 600 3300 1992\001
4 0 0 50 0 0 10 0.0000 4 105 300 600 3525 1992\001
4 0 0 50 0 0 10 0.0000 4 105 300 600 3975 1995\001
4 0 0 50 0 0 10 0.0000 4 105 300 600 3750 1992\001
4 0 0 50 0 0 10 0.0000 4 105 300 600 4200 1995\001
-6
2 1 0 1 0 7 50 0 -1 0.000 0 0 -1 0 0 2
	 3300 3525 3300 3750
2 1 0 1 0 7 50 0 -1 0.000 0 0 -1 0 0 2
	 3675 3525 3675 3750
2 1 0 1 0 7 50 0 -1 0.000 0 0 -1 0 0 2
	 3300 1650 3300 1875
2 1 0 1 0 7 50 0 -1 0.000 0 0 -1 0 0 2
	 3300 1425 3300 1650
2 1 0 1 0 7 50 0 -1 0.000 0 0 -1 0 0 2
	 3675 1425 3675 1650
2 1 0 1 0 7 50 0 -1 0.000 0 0 -1 0 0 2
	 3675 1650 3675 1875
2 1 0 1 0 7 50 0 -1 0.000 0 0 -1 0 0 2
	 3300 1875 3300 2100
2 1 0 1 0 7 50 0 -1 0.000 0 0 -1 0 0 2
	 3675 1875 3675 2100
2 1 0 1 0 7 50 0 -1 0.000 0 0 -1 0 0 2
	 3300 1050 3300 1275
2 1 0 1 0 7 50 0 -1 0.000 0 0 -1 0 0 2
	 3675 1050 3675 1275
2 1 0 1 0 7 50 0 -1 0.000 0 0 -1 0 0 2
	 3300 825 3300 1050
2 1 0 1 0 7 50 0 -1 0.000 0 0 -1 0 0 2
	 3675 825 3675 1050
2 1 0 1 0 7 50 0 -1 0.000 0 0 -1 0 0 2
	 3300 600 3300 825
2 1 0 1 0 7 50 0 -1 0.000 0 0 -1 0 0 2
	 3675 600 3675 825
2 1 0 1 0 7 50 0 -1 0.000 0 0 -1 0 0 2
	 3300 375 3300 600
2 1 0 1 0 7 50 0 -1 0.000 0 0 -1 0 0 2
	 3675 375 3675 600
2 1 0 1 0 7 50 0 -1 0.000 0 0 -1 0 0 2
	 3300 2100 3300 2325
2 1 0 1 0 7 50 0 -1 0.000 0 0 -1 0 0 2
	 3675 2100 3675 2325
2 1 0 1 0 7 50 0 -1 0.000 0 0 -1 0 0 2
	 3300 2475 3300 2700
2 1 0 1 0 7 50 0 -1 0.000 0 0 -1 0 0 2
	 3675 2475 3675 2700
2 1 0 1 0 7 50 0 -1 0.000 0 0 -1 0 0 2
	 3300 2700 3300 2925
2 1 0 1 0 7 50 0 -1 0.000 0 0 -1 0 0 2
	 3675 2700 3675 2925
2 1 0 1 0 7 50 0 -1 0.000 0 0 -1 0 0 2
	 3300 2925 3300 3150
2 1 0 1 0 7 50 0 -1 0.000 0 0 -1 0 0 2
	 3675 2925 3675 3150
2 1 0 1 0 7 50 0 -1 0.000 0 0 -1 0 0 2
	 3300 3150 3300 3375
2 1 0 1 0 7 50 0 -1 0.000 0 0 -1 0 0 2
	 3675 3150 3675 3375
2 1 0 1 0 7 50 0 -1 0.000 0 0 -1 0 0 2
	 3300 3750 3300 3975
2 1 0 1 0 7 50 0 -1 0.000 0 0 -1 0 0 2
	 3675 3750 3675 3975
2 1 0 1 0 7 50 0 -1 0.000 0 0 -1 0 0 2
	 3300 3975 3300 4200
2 1 0 1 0 7 50 0 -1 0.000 0 0 -1 0 0 2
	 3675 3975 3675 4200
2 1 0 1 0 7 50 0 -1 0.000 0 0 -1 0 0 2
	 3300 4200 3300 4425
2 1 0 1 0 7 50 0 -1 0.000 0 0 -1 0 0 2
	 3675 4200 3675 4425
2 2 0 1 0 7 50 0 -1 0.000 0 0 -1 0 0 5
	 2325 1050 3975 1050 3975 1275 2325 1275 2325 1050
2 2 0 1 0 7 50 0 -1 0.000 0 0 -1 0 0 5
	 2325 375 3975 375 3975 600 2325 600 2325 375
2 2 0 1 0 7 50 0 -1 0.000 0 0 -1 0 0 5
	 2325 600 3975 600 3975 825 2325 825 2325 600
2 2 0 1 0 7 50 0 -1 0.000 0 0 -1 0 0 5
	 2325 825 3975 825 3975 1050 2325 1050 2325 825
2 2 0 1 0 7 50 0 -1 0.000 0 0 -1 0 0 5
	 2325 1425 3975 1425 3975 1650 2325 1650 2325 1425
2 2 0 1 0 7 50 0 -1 0.000 0 0 -1 0 0 5
	 2325 1650 3975 1650 3975 1875 2325 1875 2325 1650
2 2 0 1 0 7 50 0 -1 0.000 0 0 -1 0 0 5
	 2325 1875 3975 1875 3975 2100 2325 2100 2325 1875
2 2 0 1 0 7 50 0 -1 0.000 0 0 -1 0 0 5
	 2325 2100 3975 2100 3975 2325 2325 2325 2325 2100
2 2 0 1 0 7 50 0 -1 0.000 0 0 -1 0 0 5
	 2325 2475 3975 2475 3975 2700 2325 2700 2325 2475
2 2 0 1 0 7 50 0 -1 0.000 0 0 -1 0 0 5
	 2325 2700 3975 2700 3975 2925 2325 2925 2325 2700
2 2 0 1 0 7 50 0 -1 0.000 0 0 -1 0 0 5
	 2325 2925 3975 2925 3975 3150 2325 3150 2325 2925
2 2 0 1 0 7 50 0 -1 0.000 0 0 -1 0 0 5
	 2325 3150 3975 3150 3975 3375 2325 3375 2325 3150
2 2 0 1 0 7 50 0 -1 0.000 0 0 -1 0 0 5
	 2325 3525 3975 3525 3975 3750 2325 3750 2325 3525
2 2 0 1 0 7 50 0 -1 0.000 0 0 -1 0 0 5
	 2325 3750 3975 3750 3975 3975 2325 3975 2325 3750
2 2 0 1 0 7 50 0 -1 0.000 0 0 -1 0 0 5
	 2325 3975 3975 3975 3975 4200 2325 4200 2325 3975
2 2 0 1 0 7 50 0 -1 0.000 0 0 -1 0 0 5
	 2325 4200 3975 4200 3975 4425 2325 4425 2325 4200
2 1 0 1 0 7 50 0 -1 0.000 0 0 -1 1 0 2
	1 1 1.00 60.00 120.00
	 1125 825 2325 2625
2 1 0 1 0 7 50 0 -1 0.000 0 0 -1 1 0 2
	1 1 1.00 60.00 120.00
	 1125 975 2325 975
2 1 0 1 0 7 50 0 -1 0.000 0 0 -1 1 0 2
	1 1 1.00 60.00 120.00
	 1125 1200 2325 4350
2 1 0 1 0 7 50 0 -1 0.000 0 0 -1 1 0 2
	1 1 1.00 60.00 120.00
	 1125 1500 2325 2850
2 1 0 1 0 7 50 0 -1 0.000 0 0 -1 1 0 2
	1 1 1.00 60.00 120.00
	 1125 1725 2325 1200
2 1 0 1 0 7 50 0 -1 0.000 0 0 -1 1 0 2
	1 1 1.00 60.00 120.00
	 1125 1875 2325 525
2 1 0 1 0 7 50 0 -1 0.000 0 0 -1 1 0 2
	1 1 1.00 60.00 120.00
	 1125 2175 2325 2175
2 1 0 1 0 7 50 0 -1 0.000 0 0 -1 1 0 2
	1 1 1.00 60.00 120.00
	 1125 2325 2325 3300
2 1 0 1 0 7 50 0 -1 0.000 0 0 -1 1 0 2
	1 1 1.00 60.00 120.00
	 1125 2550 2325 675
2 1 0 1 0 7 50 0 -1 0.000 0 0 -1 1 0 2
	1 1 1.00 60.00 120.00
	 1125 2850 2325 1500
2 1 0 1 0 7 50 0 -1 0.000 0 0 -1 1 0 2
	1 1 1.00 60.00 120.00
	 1125 3075 2325 3900
2 1 0 1 0 7 50 0 -1 0.000 0 0 -1 1 0 2
	1 1 1.00 60.00 120.00
	 1050 3225 2325 1725
2 1 0 1 0 7 50 0 -1 0.000 0 0 -1 1 0 2
	1 1 1.00 60.00 120.00
	 1125 3450 2325 1950
2 1 0 1 0 7 50 0 -1 0.000 0 0 -1 1 0 2
	1 1 1.00 60.00 120.00
	 1125 3675 2325 3075
2 1 0 1 0 7 50 0 -1 0.000 0 0 -1 1 0 2
	1 1 1.00 60.00 120.00
	 1125 3900 2325 3600
2 1 0 1 0 7 50 0 -1 0.000 0 0 -1 1 0 2
	1 1 1.00 60.00 120.00
	 1125 4125 2325 4125
4 0 0 50 0 0 11 0.0000 4 15 135 3726 525 ...\001
4 0 0 50 0 0 10 0.0000 4 15 135 3825 3675 ...\001
4 0 0 50 0 0 10 0.0000 4 15 30 3225 1575  \001
4 0 0 50 0 0 10 0.0000 4 15 135 3825 1575 ...\001
4 0 0 50 0 0 10 0.0000 4 15 135 3825 1800 ...\001
4 0 0 50 0 0 10 0.0000 4 15 135 3825 2025 ...\001
4 0 0 50 0 0 10 0.0000 4 15 30 3150 2325  \001
4 0 0 50 0 0 10 0.0000 4 15 135 3825 1200 ...\001
4 0 0 50 0 0 10 0.0000 4 15 135 3825 975 ...\001
4 0 0 50 0 0 10 0.0000 4 15 135 3825 750 ...\001
4 0 0 50 0 0 10 0.0000 4 15 135 3825 525 ...\001
4 0 0 50 0 0 10 0.0000 4 15 135 3825 2250 ...\001
4 0 0 50 0 0 10 0.0000 4 15 135 3825 2625 ...\001
4 0 0 50 0 0 10 0.0000 4 15 135 3825 2850 ...\001
4 0 0 50 0 0 10 0.0000 4 15 135 3825 3075 ...\001
4 0 0 50 0 0 10 0.0000 4 15 135 3825 3300 ...\001
4 0 0 50 0 0 10 0.0000 4 15 135 3825 3900 ...\001
4 0 0 50 0 0 10 0.0000 4 15 135 3825 4125 ...\001
4 0 0 50 0 0 10 0.0000 4 15 135 3825 4350 ...\001
4 0 0 50 0 0 10 0.0000 4 105 1155 2475 525 Annie Hall     1977\001
4 0 0 50 0 0 10 0.0000 4 105 1080 2475 750 Brazil             1984\001
4 0 0 50 0 0 10 0.0000 4 105 1125 2475 975 Casablanca     1942\001
4 0 0 50 0 0 10 0.0000 4 135 1140 2475 1200 Easy Rider      1969\001
4 0 0 50 0 0 10 0.0000 4 135 1140 2475 1575 Greystoke       1984\001
4 0 0 50 0 0 10 0.0000 4 105 1155 2475 1800 Jurassic Park  1992\001
4 0 0 50 0 0 10 0.0000 4 135 1185 2475 2025 Impitoyable    1992\001
4 0 0 50 0 0 10 0.0000 4 105 1125 2475 2250 Manhattan     1979\001
4 0 0 50 0 0 10 0.0000 4 135 1260 2400 2625 Metropolis        1926\001
4 0 0 50 0 0 10 0.0000 4 135 1185 2400 2850 Psychose           1960\001
4 0 0 50 0 0 10 0.0000 4 135 1275 2400 3075 Reservoir Dogs 1992\001
4 0 0 50 0 0 10 0.0000 4 135 1155 2400 3300 Shining             1980\001
4 0 0 50 0 0 10 0.0000 4 105 1065 2475 3675 Smoke            1995\001
4 0 0 50 0 0 10 0.0000 4 105 1125 2475 3900 Twin Peaks    1990\001
4 0 0 50 0 0 10 0.0000 4 135 1140 2475 4125 Undergroun   1995\001
4 0 0 50 0 0 10 0.0000 4 135 1125 2475 4350 Vertigo           1958\001
