%!PS-Adobe-2.0 EPSF-2.0
%%Title: idxmultiniv2.eps
%%Creator: fig2dev Version 3.2.3 Patchlevel 
%%CreationDate: Fri Mar 15 10:42:27 2002
%%For: rigaux@cartier (Philippe Rigaux)
%%BoundingBox: 0 0 353 208
%%Magnification: 1.0000
%%EndComments
/$F2psDict 200 dict def
$F2psDict begin
$F2psDict /mtrx matrix put
/col-1 {0 setgray} bind def
/col0 {0.000 0.000 0.000 srgb} bind def
/col1 {0.000 0.000 1.000 srgb} bind def
/col2 {0.000 1.000 0.000 srgb} bind def
/col3 {0.000 1.000 1.000 srgb} bind def
/col4 {1.000 0.000 0.000 srgb} bind def
/col5 {1.000 0.000 1.000 srgb} bind def
/col6 {1.000 1.000 0.000 srgb} bind def
/col7 {1.000 1.000 1.000 srgb} bind def
/col8 {0.000 0.000 0.560 srgb} bind def
/col9 {0.000 0.000 0.690 srgb} bind def
/col10 {0.000 0.000 0.820 srgb} bind def
/col11 {0.530 0.810 1.000 srgb} bind def
/col12 {0.000 0.560 0.000 srgb} bind def
/col13 {0.000 0.690 0.000 srgb} bind def
/col14 {0.000 0.820 0.000 srgb} bind def
/col15 {0.000 0.560 0.560 srgb} bind def
/col16 {0.000 0.690 0.690 srgb} bind def
/col17 {0.000 0.820 0.820 srgb} bind def
/col18 {0.560 0.000 0.000 srgb} bind def
/col19 {0.690 0.000 0.000 srgb} bind def
/col20 {0.820 0.000 0.000 srgb} bind def
/col21 {0.560 0.000 0.560 srgb} bind def
/col22 {0.690 0.000 0.690 srgb} bind def
/col23 {0.820 0.000 0.820 srgb} bind def
/col24 {0.500 0.190 0.000 srgb} bind def
/col25 {0.630 0.250 0.000 srgb} bind def
/col26 {0.750 0.380 0.000 srgb} bind def
/col27 {1.000 0.500 0.500 srgb} bind def
/col28 {1.000 0.630 0.630 srgb} bind def
/col29 {1.000 0.750 0.750 srgb} bind def
/col30 {1.000 0.880 0.880 srgb} bind def
/col31 {1.000 0.840 0.000 srgb} bind def

end
save
newpath 0 208 moveto 0 0 lineto 353 0 lineto 353 208 lineto closepath clip newpath
-17.0 221.0 translate
1 -1 scale

/cp {closepath} bind def
/ef {eofill} bind def
/gr {grestore} bind def
/gs {gsave} bind def
/sa {save} bind def
/rs {restore} bind def
/l {lineto} bind def
/m {moveto} bind def
/rm {rmoveto} bind def
/n {newpath} bind def
/s {stroke} bind def
/sh {show} bind def
/slc {setlinecap} bind def
/slj {setlinejoin} bind def
/slw {setlinewidth} bind def
/srgb {setrgbcolor} bind def
/rot {rotate} bind def
/sc {scale} bind def
/sd {setdash} bind def
/ff {findfont} bind def
/sf {setfont} bind def
/scf {scalefont} bind def
/sw {stringwidth} bind def
/tr {translate} bind def
/tnt {dup dup currentrgbcolor
  4 -2 roll dup 1 exch sub 3 -1 roll mul add
  4 -2 roll dup 1 exch sub 3 -1 roll mul add
  4 -2 roll dup 1 exch sub 3 -1 roll mul add srgb}
  bind def
/shd {dup dup currentrgbcolor 4 -2 roll mul 4 -2 roll mul
  4 -2 roll mul srgb} bind def
/$F2psBegin {$F2psDict begin /$F2psEnteredState save def} def
/$F2psEnd {$F2psEnteredState restore end} def

$F2psBegin
%%Page: 1 1
10 setmiterlimit
 0.06000 0.06000 sc
% Polyline
30.000 slw
n 4800 900 m
 4800 1125 l gs col0 s gr 
% Polyline
0.000 slw
n 405 225 m 300 225 300 3570 105 arcto 4 {pop} repeat
  300 3675 6045 3675 105 arcto 4 {pop} repeat
  6150 3675 6150 330 105 arcto 4 {pop} repeat
  6150 225 405 225 105 arcto 4 {pop} repeat
 cp gs col7 1.00 shd ef gr 
% Polyline
7.500 slw
gs  clippath
1920 915 m 1980 915 l 1980 764 l 1950 884 l 1920 764 l cp
eoclip
n 2775 450 m 2775 750 l 1950 750 l
 1950 900 l gs col0 s gr gr

% arrowhead
n 1920 764 m 1950 884 l 1980 764 l 1920 764 l  cp gs 0.00 setgray ef gr  col0 s
% Polyline
gs  clippath
570 915 m 630 915 l 630 764 l 600 884 l 570 764 l cp
eoclip
n 2400 450 m 2400 675 l 600 675 l
 600 900 l gs col0 s gr gr

% arrowhead
n 570 764 m 600 884 l 630 764 l 570 764 l  cp gs 0.00 setgray ef gr  col0 s
% Polyline
n 2175 300 m 3825 300 l 3825 525 l 2175 525 l
 cp gs col0 s gr 
% Polyline
gs  clippath
3345 915 m 3405 915 l 3405 764 l 3375 884 l 3345 764 l cp
eoclip
n 3225 450 m 3225 675 l 3375 675 l
 3375 900 l gs col0 s gr gr

% arrowhead
n 3345 764 m 3375 884 l 3405 764 l 3345 764 l  cp gs 0.00 setgray ef gr  col0 s
% Polyline
gs  clippath
4395 915 m 4455 915 l 4455 764 l 4425 884 l 4395 764 l cp
eoclip
n 3600 450 m 3600 600 l 4425 600 l
 4425 900 l gs col0 s gr gr

% arrowhead
n 4395 764 m 4425 884 l 4455 764 l 4395 764 l  cp gs 0.00 setgray ef gr  col0 s
% Polyline
gs  clippath
3690 2880 m 3690 2820 l 3539 2820 l 3659 2850 l 3539 2880 l cp
eoclip
n 525 1200 m 525 1575 l 3450 1575 l 3450 2850 l
 3675 2850 l gs col7 1.00 shd ef gr gs col0 s gr gr

% arrowhead
n 3539 2880 m 3659 2850 l 3539 2820 l 3539 2880 l  cp gs 0.00 setgray ef gr  col0 s
% Polyline
gs  clippath
2010 2295 m 2010 2355 l 2161 2355 l 2041 2325 l 2161 2295 l cp
eoclip
n 825 1200 m 825 1650 l 2475 1650 l 2475 2325 l
 2025 2325 l gs col0 s gr gr

% arrowhead
n 2161 2295 m 2041 2325 l 2161 2355 l 2161 2295 l  cp gs 0.00 setgray ef gr  col0 s
% Polyline
gs  clippath
4365 2580 m 4365 2520 l 4214 2520 l 4334 2550 l 4214 2580 l cp
eoclip
n 1275 1200 m 1275 1500 l 3900 1500 l 3900 2550 l
 4350 2550 l gs col0 s gr gr

% arrowhead
n 4214 2580 m 4334 2550 l 4214 2520 l 4214 2580 l  cp gs 0.00 setgray ef gr  col0 s
% Polyline
gs  clippath
3690 3105 m 3690 3045 l 3539 3045 l 3659 3075 l 3539 3105 l cp
eoclip
n 1575 1200 m 1575 1425 l 3300 1425 l 3300 3075 l
 3675 3075 l gs col0 s gr gr

% arrowhead
n 3539 3105 m 3659 3075 l 3539 3045 l 3539 3105 l  cp gs 0.00 setgray ef gr  col0 s
% Polyline
gs  clippath
2010 2070 m 2010 2130 l 2161 2130 l 2041 2100 l 2161 2070 l cp
eoclip
n 3750 1200 m 3750 2100 l
 2025 2100 l gs col0 s gr gr

% arrowhead
n 2161 2070 m 2041 2100 l 2161 2130 l 2161 2070 l  cp gs 0.00 setgray ef gr  col0 s
% Polyline
gs  clippath
2010 2520 m 2010 2580 l 2161 2580 l 2041 2550 l 2161 2520 l cp
eoclip
n 2250 1200 m 2250 2550 l
 2025 2550 l gs col0 s gr gr

% arrowhead
n 2161 2520 m 2041 2550 l 2161 2580 l 2161 2520 l  cp gs 0.00 setgray ef gr  col0 s
% Polyline
gs  clippath
2010 1845 m 2010 1905 l 2161 1905 l 2041 1875 l 2161 1845 l cp
eoclip
n 2400 1125 m 2400 1875 l
 2025 1875 l gs col0 s gr gr

% arrowhead
n 2161 1845 m 2041 1875 l 2161 1905 l 2161 1845 l  cp gs 0.00 setgray ef gr  col0 s
% Polyline
n 5325 1725 m
 5325 1950 l gs col0 s gr 
% Polyline
n 5700 1725 m
 5700 1950 l gs col0 s gr 
% Polyline
n 5325 1950 m
 5325 2175 l gs col0 s gr 
% Polyline
n 5700 1950 m
 5700 2175 l gs col0 s gr 
% Polyline
n 5325 2175 m
 5325 2400 l gs col0 s gr 
% Polyline
n 5700 2175 m
 5700 2400 l gs col0 s gr 
% Polyline
n 5325 2400 m
 5325 2625 l gs col0 s gr 
% Polyline
n 5700 2400 m
 5700 2625 l gs col0 s gr 
% Polyline
n 4350 1725 m 6000 1725 l 6000 1950 l 4350 1950 l
 cp gs col0 s gr 
% Polyline
n 4350 1950 m 6000 1950 l 6000 2175 l 4350 2175 l
 cp gs col0 s gr 
% Polyline
n 4350 2175 m 6000 2175 l 6000 2400 l 4350 2400 l
 cp gs col0 s gr 
% Polyline
n 4350 2400 m 6000 2400 l 6000 2625 l 4350 2625 l
 cp gs col0 s gr 
/Times-Roman ff 150.00 scf sf
5850 1875 m
gs 1 -1 sc (...) col0 sh gr
/Times-Roman ff 150.00 scf sf
5850 2100 m
gs 1 -1 sc (...) col0 sh gr
/Times-Roman ff 150.00 scf sf
5850 2325 m
gs 1 -1 sc (...) col0 sh gr
/Times-Roman ff 150.00 scf sf
5850 2550 m
gs 1 -1 sc (...) col0 sh gr
/Times-Roman ff 150.00 scf sf
4500 1875 m
gs 1 -1 sc (Smoke            1995) col0 sh gr
/Times-Roman ff 150.00 scf sf
4500 2100 m
gs 1 -1 sc (Twin Peaks    1990) col0 sh gr
/Times-Roman ff 150.00 scf sf
4500 2325 m
gs 1 -1 sc (Undergroun   1995) col0 sh gr
/Times-Roman ff 150.00 scf sf
4500 2550 m
gs 1 -1 sc (Vertigo           1958) col0 sh gr
% Polyline
n 1350 2400 m
 1350 2625 l gs col0 s gr 
% Polyline
n 1725 2400 m
 1725 2625 l gs col0 s gr 
% Polyline
n 1350 2175 m
 1350 2400 l gs col0 s gr 
% Polyline
n 1725 2175 m
 1725 2400 l gs col0 s gr 
% Polyline
n 1350 1950 m
 1350 2175 l gs col0 s gr 
% Polyline
n 1725 1950 m
 1725 2175 l gs col0 s gr 
% Polyline
n 1350 1725 m
 1350 1950 l gs col0 s gr 
% Polyline
n 1725 1725 m
 1725 1950 l gs col0 s gr 
% Polyline
n 375 2400 m 2025 2400 l 2025 2625 l 375 2625 l
 cp gs col0 s gr 
% Polyline
n 375 1725 m 2025 1725 l 2025 1950 l 375 1950 l
 cp gs col0 s gr 
% Polyline
n 375 1950 m 2025 1950 l 2025 2175 l 375 2175 l
 cp gs col0 s gr 
% Polyline
n 375 2175 m 2025 2175 l 2025 2400 l 375 2400 l
 cp gs col0 s gr 
/Times-Roman ff 165.00 scf sf
1776 1875 m
gs 1 -1 sc (...) col0 sh gr
/Times-Roman ff 150.00 scf sf
1875 2550 m
gs 1 -1 sc (...) col0 sh gr
/Times-Roman ff 150.00 scf sf
1875 2325 m
gs 1 -1 sc (...) col0 sh gr
/Times-Roman ff 150.00 scf sf
1875 2100 m
gs 1 -1 sc (...) col0 sh gr
/Times-Roman ff 150.00 scf sf
1875 1875 m
gs 1 -1 sc (...) col0 sh gr
/Times-Roman ff 150.00 scf sf
525 1875 m
gs 1 -1 sc (Annie Hall     1977) col0 sh gr
/Times-Roman ff 150.00 scf sf
525 2100 m
gs 1 -1 sc (Brazil             1984) col0 sh gr
/Times-Roman ff 150.00 scf sf
525 2325 m
gs 1 -1 sc (Casablanca     1942) col0 sh gr
/Times-Roman ff 150.00 scf sf
525 2550 m
gs 1 -1 sc (Easy Rider      1969) col0 sh gr
% Polyline
n 2475 2925 m
 2475 3150 l gs col0 s gr 
% Polyline
n 2475 2700 m
 2475 2925 l gs col0 s gr 
% Polyline
n 2850 2700 m
 2850 2925 l gs col0 s gr 
% Polyline
n 2850 2925 m
 2850 3150 l gs col0 s gr 
% Polyline
n 2475 3150 m
 2475 3375 l gs col0 s gr 
% Polyline
n 2850 3150 m
 2850 3375 l gs col0 s gr 
% Polyline
n 2475 3375 m
 2475 3600 l gs col0 s gr 
% Polyline
n 2850 3375 m
 2850 3600 l gs col0 s gr 
% Polyline
n 1500 2700 m 3150 2700 l 3150 2925 l 1500 2925 l
 cp gs col0 s gr 
% Polyline
n 1500 2925 m 3150 2925 l 3150 3150 l 1500 3150 l
 cp gs col0 s gr 
% Polyline
n 1500 3150 m 3150 3150 l 3150 3375 l 1500 3375 l
 cp gs col0 s gr 
% Polyline
n 1500 3375 m 3150 3375 l 3150 3600 l 1500 3600 l
 cp gs col0 s gr 
/Times-Roman ff 150.00 scf sf
2400 2850 m
gs 1 -1 sc ( ) col0 sh gr
/Times-Roman ff 150.00 scf sf
3000 2850 m
gs 1 -1 sc (...) col0 sh gr
/Times-Roman ff 150.00 scf sf
3000 3075 m
gs 1 -1 sc (...) col0 sh gr
/Times-Roman ff 150.00 scf sf
3000 3300 m
gs 1 -1 sc (...) col0 sh gr
/Times-Roman ff 150.00 scf sf
2325 3600 m
gs 1 -1 sc ( ) col0 sh gr
/Times-Roman ff 150.00 scf sf
3000 3525 m
gs 1 -1 sc (...) col0 sh gr
/Times-Roman ff 150.00 scf sf
1650 2850 m
gs 1 -1 sc (Greystoke       1984) col0 sh gr
/Times-Roman ff 150.00 scf sf
1650 3075 m
gs 1 -1 sc (Jurassic Park  1992) col0 sh gr
/Times-Roman ff 150.00 scf sf
1650 3300 m
gs 1 -1 sc (Impitoyable    1992) col0 sh gr
/Times-Roman ff 150.00 scf sf
1650 3525 m
gs 1 -1 sc (Manhattan     1979) col0 sh gr
% Polyline
n 4650 2700 m
 4650 2925 l gs col0 s gr 
% Polyline
n 5025 2700 m
 5025 2925 l gs col0 s gr 
% Polyline
n 4650 2925 m
 4650 3150 l gs col0 s gr 
% Polyline
n 5025 2925 m
 5025 3150 l gs col0 s gr 
% Polyline
n 4650 3150 m
 4650 3375 l gs col0 s gr 
% Polyline
n 5025 3150 m
 5025 3375 l gs col0 s gr 
% Polyline
n 4650 3375 m
 4650 3600 l gs col0 s gr 
% Polyline
n 5025 3375 m
 5025 3600 l gs col0 s gr 
% Polyline
n 3675 2700 m 5325 2700 l 5325 2925 l 3675 2925 l
 cp gs col0 s gr 
% Polyline
n 3675 2925 m 5325 2925 l 5325 3150 l 3675 3150 l
 cp gs col0 s gr 
% Polyline
n 3675 3150 m 5325 3150 l 5325 3375 l 3675 3375 l
 cp gs col0 s gr 
% Polyline
n 3675 3375 m 5325 3375 l 5325 3600 l 3675 3600 l
 cp gs col0 s gr 
/Times-Roman ff 150.00 scf sf
5175 2850 m
gs 1 -1 sc (...) col0 sh gr
/Times-Roman ff 150.00 scf sf
5175 3075 m
gs 1 -1 sc (...) col0 sh gr
/Times-Roman ff 150.00 scf sf
5175 3300 m
gs 1 -1 sc (...) col0 sh gr
/Times-Roman ff 150.00 scf sf
5175 3525 m
gs 1 -1 sc (...) col0 sh gr
/Times-Roman ff 150.00 scf sf
3750 2850 m
gs 1 -1 sc (Metropolis        1926) col0 sh gr
/Times-Roman ff 150.00 scf sf
3750 3075 m
gs 1 -1 sc (Psychose           1960) col0 sh gr
/Times-Roman ff 150.00 scf sf
3750 3300 m
gs 1 -1 sc (Reservoir Dogs 1992) col0 sh gr
/Times-Roman ff 150.00 scf sf
3750 3525 m
gs 1 -1 sc (Shining             1980) col0 sh gr
% Polyline
n 2250 1200 m 2025 1200 l
 2025 1125 l gs col0 s gr 
% Polyline
n 300 1125 m 6150 1125 l 6150 1275 l 300 1275 l
 cp gs col0 s gr 
% Polyline
n 300 900 m 6150 900 l 6150 1125 l 300 1125 l
 cp gs col0 s gr 
/Times-Roman ff 150.00 scf sf
5100 1050 m
gs 1 -1 sc (1992) col0 sh gr
/Times-Roman ff 150.00 scf sf
3075 450 m
gs 1 -1 sc (1984) col0 sh gr
/Times-Roman ff 150.00 scf sf
2625 450 m
gs 1 -1 sc (1969) col0 sh gr
/Times-Roman ff 150.00 scf sf
2250 450 m
gs 1 -1 sc (1926) col0 sh gr
/Times-Roman ff 150.00 scf sf
3450 450 m
gs 1 -1 sc (1992) col0 sh gr
/Times-Roman ff 150.00 scf sf
4725 1050 m
gs 1 -1 sc (1992) col0 sh gr
/Times-Roman ff 150.00 scf sf
5475 1050 m
gs 1 -1 sc (1995) col0 sh gr
/Times-Roman ff 150.00 scf sf
4350 1050 m
gs 1 -1 sc (1992) col0 sh gr
/Times-Roman ff 150.00 scf sf
3975 1050 m
gs 1 -1 sc (1990) col0 sh gr
/Times-Roman ff 150.00 scf sf
3600 1050 m
gs 1 -1 sc (1984) col0 sh gr
/Times-Roman ff 150.00 scf sf
3225 1050 m
gs 1 -1 sc (1984) col0 sh gr
/Times-Roman ff 150.00 scf sf
2850 1050 m
gs 1 -1 sc (1980) col0 sh gr
/Times-Roman ff 150.00 scf sf
2475 1050 m
gs 1 -1 sc (1979) col0 sh gr
/Times-Roman ff 150.00 scf sf
2100 1050 m
gs 1 -1 sc (1977) col0 sh gr
/Times-Roman ff 150.00 scf sf
300 1050 m
gs 1 -1 sc (1926) col0 sh gr
/Times-Roman ff 150.00 scf sf
1425 1050 m
gs 1 -1 sc (1960) col0 sh gr
/Times-Roman ff 150.00 scf sf
675 1050 m
gs 1 -1 sc (1942) col0 sh gr
/Times-Roman ff 150.00 scf sf
1050 1050 m
gs 1 -1 sc (1958) col0 sh gr
/Times-Roman ff 150.00 scf sf
1800 1050 m
gs 1 -1 sc (1969) col0 sh gr
/Times-Roman ff 150.00 scf sf
5850 1050 m
gs 1 -1 sc (1995) col0 sh gr
$F2psEnd
rs
