#FIG 3.2
Portrait
Center
Inches
A4      
100.00
Single
-2
1200 2
6 4350 1725 6000 2625
2 1 0 1 0 7 50 0 -1 0.000 0 0 -1 0 0 2
	 5325 1725 5325 1950
2 1 0 1 0 7 50 0 -1 0.000 0 0 -1 0 0 2
	 5700 1725 5700 1950
2 1 0 1 0 7 50 0 -1 0.000 0 0 -1 0 0 2
	 5325 1950 5325 2175
2 1 0 1 0 7 50 0 -1 0.000 0 0 -1 0 0 2
	 5700 1950 5700 2175
2 1 0 1 0 7 50 0 -1 0.000 0 0 -1 0 0 2
	 5325 2175 5325 2400
2 1 0 1 0 7 50 0 -1 0.000 0 0 -1 0 0 2
	 5700 2175 5700 2400
2 1 0 1 0 7 50 0 -1 0.000 0 0 -1 0 0 2
	 5325 2400 5325 2625
2 1 0 1 0 7 50 0 -1 0.000 0 0 -1 0 0 2
	 5700 2400 5700 2625
2 2 0 1 0 7 50 0 -1 0.000 0 0 -1 0 0 5
	 4350 1725 6000 1725 6000 1950 4350 1950 4350 1725
2 2 0 1 0 7 50 0 -1 0.000 0 0 -1 0 0 5
	 4350 1950 6000 1950 6000 2175 4350 2175 4350 1950
2 2 0 1 0 7 50 0 -1 0.000 0 0 -1 0 0 5
	 4350 2175 6000 2175 6000 2400 4350 2400 4350 2175
2 2 0 1 0 7 50 0 -1 0.000 0 0 -1 0 0 5
	 4350 2400 6000 2400 6000 2625 4350 2625 4350 2400
4 0 0 50 0 0 10 0.0000 4 15 135 5850 1875 ...\001
4 0 0 50 0 0 10 0.0000 4 15 135 5850 2100 ...\001
4 0 0 50 0 0 10 0.0000 4 15 135 5850 2325 ...\001
4 0 0 50 0 0 10 0.0000 4 15 135 5850 2550 ...\001
4 0 0 50 0 0 10 0.0000 4 105 1065 4500 1875 Smoke            1995\001
4 0 0 50 0 0 10 0.0000 4 105 1125 4500 2100 Twin Peaks    1990\001
4 0 0 50 0 0 10 0.0000 4 135 1140 4500 2325 Undergroun   1995\001
4 0 0 50 0 0 10 0.0000 4 135 1125 4500 2550 Vertigo           1958\001
-6
6 375 1725 2025 2625
2 1 0 1 0 7 50 0 -1 0.000 0 0 -1 0 0 2
	 1350 2400 1350 2625
2 1 0 1 0 7 50 0 -1 0.000 0 0 -1 0 0 2
	 1725 2400 1725 2625
2 1 0 1 0 7 50 0 -1 0.000 0 0 -1 0 0 2
	 1350 2175 1350 2400
2 1 0 1 0 7 50 0 -1 0.000 0 0 -1 0 0 2
	 1725 2175 1725 2400
2 1 0 1 0 7 50 0 -1 0.000 0 0 -1 0 0 2
	 1350 1950 1350 2175
2 1 0 1 0 7 50 0 -1 0.000 0 0 -1 0 0 2
	 1725 1950 1725 2175
2 1 0 1 0 7 50 0 -1 0.000 0 0 -1 0 0 2
	 1350 1725 1350 1950
2 1 0 1 0 7 50 0 -1 0.000 0 0 -1 0 0 2
	 1725 1725 1725 1950
2 2 0 1 0 7 50 0 -1 0.000 0 0 -1 0 0 5
	 375 2400 2025 2400 2025 2625 375 2625 375 2400
2 2 0 1 0 7 50 0 -1 0.000 0 0 -1 0 0 5
	 375 1725 2025 1725 2025 1950 375 1950 375 1725
2 2 0 1 0 7 50 0 -1 0.000 0 0 -1 0 0 5
	 375 1950 2025 1950 2025 2175 375 2175 375 1950
2 2 0 1 0 7 50 0 -1 0.000 0 0 -1 0 0 5
	 375 2175 2025 2175 2025 2400 375 2400 375 2175
4 0 0 50 0 0 11 0.0000 4 15 135 1776 1875 ...\001
4 0 0 50 0 0 10 0.0000 4 15 135 1875 2550 ...\001
4 0 0 50 0 0 10 0.0000 4 15 135 1875 2325 ...\001
4 0 0 50 0 0 10 0.0000 4 15 135 1875 2100 ...\001
4 0 0 50 0 0 10 0.0000 4 15 135 1875 1875 ...\001
4 0 0 50 0 0 10 0.0000 4 105 1155 525 1875 Annie Hall     1977\001
4 0 0 50 0 0 10 0.0000 4 105 1080 525 2100 Brazil             1984\001
4 0 0 50 0 0 10 0.0000 4 105 1125 525 2325 Casablanca     1942\001
4 0 0 50 0 0 10 0.0000 4 135 1140 525 2550 Easy Rider      1969\001
-6
6 1500 2700 3150 3600
2 1 0 1 0 7 50 0 -1 0.000 0 0 -1 0 0 2
	 2475 2925 2475 3150
2 1 0 1 0 7 50 0 -1 0.000 0 0 -1 0 0 2
	 2475 2700 2475 2925
2 1 0 1 0 7 50 0 -1 0.000 0 0 -1 0 0 2
	 2850 2700 2850 2925
2 1 0 1 0 7 50 0 -1 0.000 0 0 -1 0 0 2
	 2850 2925 2850 3150
2 1 0 1 0 7 50 0 -1 0.000 0 0 -1 0 0 2
	 2475 3150 2475 3375
2 1 0 1 0 7 50 0 -1 0.000 0 0 -1 0 0 2
	 2850 3150 2850 3375
2 1 0 1 0 7 50 0 -1 0.000 0 0 -1 0 0 2
	 2475 3375 2475 3600
2 1 0 1 0 7 50 0 -1 0.000 0 0 -1 0 0 2
	 2850 3375 2850 3600
2 2 0 1 0 7 50 0 -1 0.000 0 0 -1 0 0 5
	 1500 2700 3150 2700 3150 2925 1500 2925 1500 2700
2 2 0 1 0 7 50 0 -1 0.000 0 0 -1 0 0 5
	 1500 2925 3150 2925 3150 3150 1500 3150 1500 2925
2 2 0 1 0 7 50 0 -1 0.000 0 0 -1 0 0 5
	 1500 3150 3150 3150 3150 3375 1500 3375 1500 3150
2 2 0 1 0 7 50 0 -1 0.000 0 0 -1 0 0 5
	 1500 3375 3150 3375 3150 3600 1500 3600 1500 3375
4 0 0 50 0 0 10 0.0000 4 15 30 2400 2850  \001
4 0 0 50 0 0 10 0.0000 4 15 135 3000 2850 ...\001
4 0 0 50 0 0 10 0.0000 4 15 135 3000 3075 ...\001
4 0 0 50 0 0 10 0.0000 4 15 135 3000 3300 ...\001
4 0 0 50 0 0 10 0.0000 4 15 30 2325 3600  \001
4 0 0 50 0 0 10 0.0000 4 15 135 3000 3525 ...\001
4 0 0 50 0 0 10 0.0000 4 135 1140 1650 2850 Greystoke       1984\001
4 0 0 50 0 0 10 0.0000 4 105 1155 1650 3075 Jurassic Park  1992\001
4 0 0 50 0 0 10 0.0000 4 135 1185 1650 3300 Impitoyable    1992\001
4 0 0 50 0 0 10 0.0000 4 105 1125 1650 3525 Manhattan     1979\001
-6
6 3675 2700 5325 3600
2 1 0 1 0 7 50 0 -1 0.000 0 0 -1 0 0 2
	 4650 2700 4650 2925
2 1 0 1 0 7 50 0 -1 0.000 0 0 -1 0 0 2
	 5025 2700 5025 2925
2 1 0 1 0 7 50 0 -1 0.000 0 0 -1 0 0 2
	 4650 2925 4650 3150
2 1 0 1 0 7 50 0 -1 0.000 0 0 -1 0 0 2
	 5025 2925 5025 3150
2 1 0 1 0 7 50 0 -1 0.000 0 0 -1 0 0 2
	 4650 3150 4650 3375
2 1 0 1 0 7 50 0 -1 0.000 0 0 -1 0 0 2
	 5025 3150 5025 3375
2 1 0 1 0 7 50 0 -1 0.000 0 0 -1 0 0 2
	 4650 3375 4650 3600
2 1 0 1 0 7 50 0 -1 0.000 0 0 -1 0 0 2
	 5025 3375 5025 3600
2 2 0 1 0 7 50 0 -1 0.000 0 0 -1 0 0 5
	 3675 2700 5325 2700 5325 2925 3675 2925 3675 2700
2 2 0 1 0 7 50 0 -1 0.000 0 0 -1 0 0 5
	 3675 2925 5325 2925 5325 3150 3675 3150 3675 2925
2 2 0 1 0 7 50 0 -1 0.000 0 0 -1 0 0 5
	 3675 3150 5325 3150 5325 3375 3675 3375 3675 3150
2 2 0 1 0 7 50 0 -1 0.000 0 0 -1 0 0 5
	 3675 3375 5325 3375 5325 3600 3675 3600 3675 3375
4 0 0 50 0 0 10 0.0000 4 15 135 5175 2850 ...\001
4 0 0 50 0 0 10 0.0000 4 15 135 5175 3075 ...\001
4 0 0 50 0 0 10 0.0000 4 15 135 5175 3300 ...\001
4 0 0 50 0 0 10 0.0000 4 15 135 5175 3525 ...\001
4 0 0 50 0 0 10 0.0000 4 135 1260 3750 2850 Metropolis        1926\001
4 0 0 50 0 0 10 0.0000 4 135 1185 3750 3075 Psychose           1960\001
4 0 0 50 0 0 10 0.0000 4 135 1275 3750 3300 Reservoir Dogs 1992\001
4 0 0 50 0 0 10 0.0000 4 135 1155 3750 3525 Shining             1980\001
-6
2 1 0 3 0 7 300 0 -1 0.000 0 0 7 0 0 2
	 4800 900 4800 1125
2 1 0 1 0 7 100 0 -1 0.000 0 0 7 1 0 4
	1 1 1.00 60.00 120.00
	 2775 450 2775 750 1950 750 1950 900
2 1 0 1 0 7 100 0 -1 0.000 0 0 7 1 0 4
	1 1 1.00 60.00 120.00
	 2400 450 2400 675 600 675 600 900
2 2 0 1 0 7 100 0 -1 0.000 0 0 7 0 0 5
	 2175 300 3825 300 3825 525 2175 525 2175 300
2 1 0 1 0 7 100 0 -1 0.000 0 0 7 1 0 4
	1 1 1.00 60.00 120.00
	 3225 450 3225 675 3375 675 3375 900
2 1 0 1 0 7 100 0 -1 0.000 0 0 7 1 0 4
	1 1 1.00 60.00 120.00
	 3600 450 3600 600 4425 600 4425 900
2 1 0 1 0 7 100 0 20 0.000 0 0 7 1 0 5
	1 1 1.00 60.00 120.00
	 525 1200 525 1575 3450 1575 3450 2850 3675 2850
2 1 0 1 0 7 100 0 -1 0.000 0 0 7 1 0 5
	1 1 1.00 60.00 120.00
	 825 1200 825 1650 2475 1650 2475 2325 2025 2325
2 1 0 1 0 7 100 0 -1 0.000 0 0 7 1 0 5
	1 1 1.00 60.00 120.00
	 1275 1200 1275 1500 3900 1500 3900 2550 4350 2550
2 1 0 1 0 7 100 0 -1 0.000 0 0 -1 1 0 5
	1 1 1.00 60.00 120.00
	 1575 1200 1575 1425 3300 1425 3300 3075 3675 3075
2 1 0 1 0 7 100 0 -1 0.000 0 0 -1 1 0 3
	1 1 1.00 60.00 120.00
	 3750 1200 3750 2100 2025 2100
2 1 0 1 0 7 100 0 -1 0.000 0 0 -1 1 0 3
	1 1 1.00 60.00 120.00
	 2250 1200 2250 2550 2025 2550
2 1 0 1 0 7 100 0 -1 0.000 0 0 -1 1 0 3
	1 1 1.00 60.00 120.00
	 2400 1125 2400 1875 2025 1875
2 4 0 0 0 7 300 0 20 0.000 0 0 7 0 0 5
	 6150 3675 6150 225 300 225 300 3675 6150 3675
2 1 0 1 0 7 50 0 -1 0.000 0 0 -1 0 0 3
	 2250 1200 2025 1200 2025 1125
2 2 0 1 0 7 50 0 -1 0.000 0 0 -1 0 0 5
	 300 1125 6150 1125 6150 1275 300 1275 300 1125
2 2 0 1 0 7 50 0 -1 0.000 0 0 -1 0 0 5
	 300 900 6150 900 6150 1125 300 1125 300 900
4 0 0 50 0 0 10 0.0000 4 105 300 5100 1050 1992\001
4 0 0 50 0 0 10 0.0000 4 105 300 3075 450 1984\001
4 0 0 50 0 0 10 0.0000 4 105 300 2625 450 1969\001
4 0 0 50 0 0 10 0.0000 4 105 300 2250 450 1926\001
4 0 0 50 0 0 10 0.0000 4 105 300 3450 450 1992\001
4 0 0 50 0 0 10 0.0000 4 105 300 4725 1050 1992\001
4 0 0 50 0 0 10 0.0000 4 105 300 5475 1050 1995\001
4 0 0 50 0 0 10 0.0000 4 105 300 4350 1050 1992\001
4 0 0 50 0 0 10 0.0000 4 105 300 3975 1050 1990\001
4 0 0 50 0 0 10 0.0000 4 105 300 3600 1050 1984\001
4 0 0 50 0 0 10 0.0000 4 105 300 3225 1050 1984\001
4 0 0 50 0 0 10 0.0000 4 105 300 2850 1050 1980\001
4 0 0 50 0 0 10 0.0000 4 105 300 2475 1050 1979\001
4 0 0 50 0 0 10 0.0000 4 105 300 2100 1050 1977\001
4 0 0 50 0 0 10 0.0000 4 105 300 300 1050 1926\001
4 0 0 50 0 0 10 0.0000 4 105 300 1425 1050 1960\001
4 0 0 50 0 0 10 0.0000 4 105 300 675 1050 1942\001
4 0 0 50 0 0 10 0.0000 4 105 300 1050 1050 1958\001
4 0 0 50 0 0 10 0.0000 4 105 300 1800 1050 1969\001
4 0 0 50 0 0 10 0.0000 4 105 300 5850 1050 1995\001
