%!PS-Adobe-2.0 EPSF-2.0
%%Title: rtreeins2.eps
%%Creator: fig2dev Version 3.2 Patchlevel 0-beta3
%%CreationDate: Thu Dec  2 13:31:44 1999
%%For: rigaux@vespucci (Philippe Rigaux)
%%Orientation: Portrait
%%BoundingBox: 0 0 362 130
%%Pages: 0
%%BeginSetup
%%EndSetup
%%Magnification: 1.0000
%%EndComments
/$F2psDict 200 dict def
$F2psDict begin
$F2psDict /mtrx matrix put
/col-1 {0 setgray} bind def
/col0 {0.000 0.000 0.000 srgb} bind def
/col1 {0.000 0.000 1.000 srgb} bind def
/col2 {0.000 1.000 0.000 srgb} bind def
/col3 {0.000 1.000 1.000 srgb} bind def
/col4 {1.000 0.000 0.000 srgb} bind def
/col5 {1.000 0.000 1.000 srgb} bind def
/col6 {1.000 1.000 0.000 srgb} bind def
/col7 {1.000 1.000 1.000 srgb} bind def
/col8 {0.000 0.000 0.560 srgb} bind def
/col9 {0.000 0.000 0.690 srgb} bind def
/col10 {0.000 0.000 0.820 srgb} bind def
/col11 {0.530 0.810 1.000 srgb} bind def
/col12 {0.000 0.560 0.000 srgb} bind def
/col13 {0.000 0.690 0.000 srgb} bind def
/col14 {0.000 0.820 0.000 srgb} bind def
/col15 {0.000 0.560 0.560 srgb} bind def
/col16 {0.000 0.690 0.690 srgb} bind def
/col17 {0.000 0.820 0.820 srgb} bind def
/col18 {0.560 0.000 0.000 srgb} bind def
/col19 {0.690 0.000 0.000 srgb} bind def
/col20 {0.820 0.000 0.000 srgb} bind def
/col21 {0.560 0.000 0.560 srgb} bind def
/col22 {0.690 0.000 0.690 srgb} bind def
/col23 {0.820 0.000 0.820 srgb} bind def
/col24 {0.500 0.190 0.000 srgb} bind def
/col25 {0.630 0.250 0.000 srgb} bind def
/col26 {0.750 0.380 0.000 srgb} bind def
/col27 {1.000 0.500 0.500 srgb} bind def
/col28 {1.000 0.630 0.630 srgb} bind def
/col29 {1.000 0.750 0.750 srgb} bind def
/col30 {1.000 0.880 0.880 srgb} bind def
/col31 {1.000 0.840 0.000 srgb} bind def

end
save
-34.0 162.0 translate
1 -1 scale

/cp {closepath} bind def
/ef {eofill} bind def
/gr {grestore} bind def
/gs {gsave} bind def
/sa {save} bind def
/rs {restore} bind def
/l {lineto} bind def
/m {moveto} bind def
/rm {rmoveto} bind def
/n {newpath} bind def
/s {stroke} bind def
/sh {show} bind def
/slc {setlinecap} bind def
/slj {setlinejoin} bind def
/slw {setlinewidth} bind def
/srgb {setrgbcolor} bind def
/rot {rotate} bind def
/sc {scale} bind def
/sd {setdash} bind def
/ff {findfont} bind def
/sf {setfont} bind def
/scf {scalefont} bind def
/sw {stringwidth} bind def
/tr {translate} bind def
/tnt {dup dup currentrgbcolor
  4 -2 roll dup 1 exch sub 3 -1 roll mul add
  4 -2 roll dup 1 exch sub 3 -1 roll mul add
  4 -2 roll dup 1 exch sub 3 -1 roll mul add srgb}
  bind def
/shd {dup dup currentrgbcolor 4 -2 roll mul 4 -2 roll mul
  4 -2 roll mul srgb} bind def
 /DrawEllipse {
	/endangle exch def
	/startangle exch def
	/yrad exch def
	/xrad exch def
	/y exch def
	/x exch def
	/savematrix mtrx currentmatrix def
	x y tr xrad yrad sc 0 0 1 startangle endangle arc
	closepath
	savematrix setmatrix
	} def

/$F2psBegin {$F2psDict begin /$F2psEnteredState save def} def
/$F2psEnd {$F2psEnteredState restore end} def
%%EndProlog

$F2psBegin
10 setmiterlimit
n -1000 3687 m -1000 -1000 l 7589 -1000 l 7589 3687 l cp clip
 0.06000 0.06000 sc
% Polyline
7.500 slw
n 1967 1524 m 1967 771 l 1732 771 l 1732 1524 l cp gs col7 0.50 shd ef gr gs col0 s gr 
% Polyline
n 2532 1619 m 2532 1336 l 2343 1336 l 2343 1619 l cp gs col7 0.50 shd ef gr gs col0 s gr 
% Polyline
n 2438 1383 m 2438 1195 l 1826 1195 l 1826 1383 l cp gs col7 0.50 shd ef gr gs col0 s gr 
% Polyline
n 2627 1053 m 2627 630 l 2391 630 l 2391 1053 l cp gs col7 0.50 shd ef gr gs col0 s gr 
% Polyline
n 2532 2325 m 2532 1948 l 2297 1948 l 2297 2325 l cp gs col7 0.50 shd ef gr gs col0 s gr 
% Polyline
n 2343 866 m 2343 630 l 2014 630 l 2014 866 l cp gs col7 0.50 shd ef gr gs col0 s gr 
% Polyline
n 1026 1101 m 1026 959 l 743 959 l 743 1101 l cp gs col7 0.50 shd ef gr gs col0 s gr 
% Polyline
n 884 818 m 884 630 l 696 630 l 696 818 l cp gs col7 0.50 shd ef gr gs col0 s gr 
% Polyline
n 1308 818 m 1308 677 l 931 677 l 931 818 l cp gs col7 0.50 shd ef gr gs col0 s gr 
% Polyline
n 1544 2419 m 1544 2230 l 1167 2230 l 1167 2419 l cp gs col7 0.50 shd ef gr gs col0 s gr 
% Polyline
n 931 1619 m 931 1477 l 649 1477 l 649 1619 l cp gs col7 0.50 shd ef gr gs col0 s gr 
% Polyline
n 1213 1430 m 1213 959 l 1073 959 l 1073 1430 l cp gs col7 0.50 shd ef gr gs col0 s gr 
% Polyline
n 2156 2042 m 2156 1901 l 1779 1901 l 1779 2042 l cp gs col7 0.50 shd ef gr gs col0 s gr 
% Polyline
n 2203 1807 m 2203 1619 l 1826 1619 l 1826 1807 l cp gs col7 0.50 shd ef gr gs col0 s gr 
% Polyline
n 1637 959 m 1637 724 l 1402 724 l 1402 959 l cp gs col7 0.50 shd ef gr gs col0 s gr 
% Polyline
n 978 2607 m 978 2466 l 696 2466 l 696 2607 l cp gs col7 0.50 shd ef gr gs col0 s gr 
% Polyline
30.000 slw
 [120] 0 sd
n 2674 2372 m 2674 582 l 1355 582 l 1355 2372 l cp gs col-1 s gr  [] 0 sd
% Polyline
7.500 slw
 [15] 0 sd
n 1544 2607 m 649 2607 l 649 1477 l 1544 1477 l cp gs col-1 s gr  [] 0 sd
% Polyline
 [15] 0 sd
n 2532 2325 m 1779 2325 l 1779 1901 l 2532 1901 l cp gs col-1 s gr  [] 0 sd
% Polyline
 [15] 0 sd
n 1308 1430 m 696 1430 l 696 630 l 1308 630 l cp gs col-1 s gr  [] 0 sd
% Ellipse
n 3370 2286 66 66 0 360 DrawEllipse gs col-1 s gr

% Ellipse
n 6244 2241 66 66 0 360 DrawEllipse gs col-1 s gr

% Ellipse
n 5538 2287 66 66 0 360 DrawEllipse gs col-1 s gr

% Ellipse
n 3748 1581 70 70 0 360 DrawEllipse gs col-1 s gr

% Polyline
 [15] 0 sd
n 1826 1619 m 2627 1619 l 2627 630 l 1826 630 l cp gs col-1 s gr  [] 0 sd
% Polyline
30.000 slw
 [120] 0 sd
n 1590 2654 m 1590 582 l 602 582 l 602 2654 l cp gs col-1 s gr  [] 0 sd
% Polyline
7.500 slw
 [15] 0 sd
n 2195 1800 m 1394 1800 l 1394 717 l 2195 717 l cp gs col-1 s gr  [] 0 sd
% Polyline
15.000 slw
n 2674 2654 m 2674 582 l 602 582 l 602 2654 l cp gs col-1 s gr 
7.500 slw
% Ellipse
n 4832 2269 66 66 0 360 DrawEllipse gs col-1 s gr

% Polyline
gs  clippath
1722 2580 m 1602 2550 l 1722 2520 l 1560 2520 l 1560 2580 l cp
clip
n 1725 2550 m 1575 2550 l gs col7 0.50 shd ef gr gs col0 s gr gr

% arrowhead
n 1722 2580 m 1602 2550 l 1722 2520 l 1722 2550 l 1722 2580 l  cp gs 0.00 setgray ef gr  col0 s
% Polyline
gs  clippath
2520 2547 m 2550 2427 l 2580 2547 l 2580 2385 l 2520 2385 l cp
clip
n 2550 2550 m 2550 2400 l gs col7 0.50 shd ef gr gs col0 s gr gr

% arrowhead
n 2520 2547 m 2550 2427 l 2580 2547 l 2550 2547 l 2520 2547 l  cp gs 0.00 setgray ef gr  col0 s
% Polyline
n 4555 1045 m 3772 1515 l gs col-1 s gr 
% Polyline
n 4695 1040 m 5535 1520 l gs col-1 s gr 
% Polyline
n 3810 1625 m 4020 2220 l gs col-1 s gr 
% Polyline
n 3697 1627 m 3397 2235 l gs col-1 s gr 
% Polyline
n 5475 1597 m 4860 2210 l gs col-1 s gr 
% Polyline
n 5595 1590 m 6247 2168 l gs col-1 s gr 
% Polyline
n 5542 1650 m 5545 2225 l gs col-1 s gr 
% Ellipse
n 5538 1581 66 66 0 360 DrawEllipse gs col-1 s gr

% Ellipse
n 4032 2287 66 66 0 360 DrawEllipse gs col-1 s gr

% Ellipse
n 4625 1045 66 66 0 360 DrawEllipse gs col-1 s gr

/Times-Roman ff 120.00 scf sf
743 2560 m
gs 1 -1 sc (4) col0 sh gr
/Times-Roman ff 120.00 scf sf
1213 2372 m
gs 1 -1 sc (7) col0 sh gr
/Times-Roman ff 120.00 scf sf
743 1571 m
gs 1 -1 sc (3) col0 sh gr
/Times-Roman ff 120.00 scf sf
836 1053 m
gs 1 -1 sc (2) col0 sh gr
/Times-Roman ff 120.00 scf sf
743 771 m
gs 1 -1 sc (1) col0 sh gr
/Times-Roman ff 120.00 scf sf
1072 771 m
gs 1 -1 sc (5) col0 sh gr
/Times-Roman ff 120.00 scf sf
1120 1242 m
gs 1 -1 sc (6) col0 sh gr
/Times-Roman ff 120.00 scf sf
1450 866 m
gs 1 -1 sc (14) col0 sh gr
/Times-Roman ff 120.00 scf sf
2061 818 m
gs 1 -1 sc (11) col0 sh gr
/Times-Roman ff 120.00 scf sf
2485 818 m
gs 1 -1 sc (15) col0 sh gr
/Times-Roman ff 120.00 scf sf
2391 1524 m
gs 1 -1 sc (13) col0 sh gr
/Times-Roman ff 120.00 scf sf
2014 1336 m
gs 1 -1 sc (12) col0 sh gr
/Times-Roman ff 120.00 scf sf
1873 1053 m
gs 1 -1 sc (8) col0 sh gr
/Times-Roman ff 120.00 scf sf
1873 1995 m
gs 1 -1 sc (10) col0 sh gr
/Times-Roman ff 120.00 scf sf
2014 1759 m
gs 1 -1 sc (9) col0 sh gr
/Times-Roman ff 120.00 scf sf
2343 2136 m
gs 1 -1 sc (16) col0 sh gr
/Times-Italic ff 150.00 scf sf
750 2250 m
gs 1 -1 sc (b) col-1 sh gr
/Times-Italic ff 150.00 scf sf
750 1350 m
gs 1 -1 sc (a) col-1 sh gr
/Times-Italic ff 150.00 scf sf
1800 2550 m
gs 1 -1 sc (R) col-1 sh gr
/Times-Italic ff 150.00 scf sf
1500 1350 m
gs 1 -1 sc (c) col-1 sh gr
/Times-Italic ff 150.00 scf sf
2475 1275 m
gs 1 -1 sc (d) col-1 sh gr
/Times-Italic ff 150.00 scf sf
2025 2175 m
gs 1 -1 sc (e) col-1 sh gr
/Times-Italic ff 150.00 scf sf
2775 2625 m
gs 1 -1 sc (R') col-1 sh gr
/Times-Italic ff 150.00 scf sf
2400 2550 m
gs 1 -1 sc (f) col-1 sh gr
/Times-Italic ff 150.00 scf sf
4549 828 m
gs 1 -1 sc (R') col-1 sh gr
/Times-Italic ff 150.00 scf sf
3230 2192 m
gs 1 -1 sc (a) col-1 sh gr
/Times-Italic ff 150.00 scf sf
5349 2147 m
gs 1 -1 sc (c) col-1 sh gr
/Times-Italic ff 150.00 scf sf
3825 2250 m
gs 1 -1 sc (b) col-1 sh gr
/Times-Italic ff 150.00 scf sf
4725 2175 m
gs 1 -1 sc (e) col-1 sh gr
/Times-Italic ff 150.00 scf sf
3600 1500 m
gs 1 -1 sc (R) col-1 sh gr
/Times-Italic ff 150.00 scf sf
5625 1425 m
gs 1 -1 sc (f) col-1 sh gr
/Times-Roman ff 120.00 scf sf
3183 2569 m
gs 1 -1 sc ([1,2,5,6]) col0 sh gr
/Times-Roman ff 120.00 scf sf
3890 2570 m
gs 1 -1 sc ([3,4,7]) col0 sh gr
/Times-Roman ff 120.00 scf sf
4689 2568 m
gs 1 -1 sc ([10,16]) col0 sh gr
/Times-Roman ff 120.00 scf sf
5347 2568 m
gs 1 -1 sc ([8,9,14]) col0 sh gr
/Times-Roman ff 120.00 scf sf
5913 2568 m
gs 1 -1 sc ([11,12,13,15]) col0 sh gr
/Times-Italic ff 150.00 scf sf
6032 2177 m
gs 1 -1 sc (d) col-1 sh gr
$F2psEnd
rs
