#FIG 3.1
Landscape
Center
Inches
1200 2
2 4 0 1 -1 7 0 0 -1 0.000 0 0 7 0 0 5
	 2025 1050 2025 525 600 525 600 1050 2025 1050
2 4 0 1 -1 7 0 0 -1 0.000 0 0 7 0 0 5
	 4950 1050 4950 525 2925 525 2925 1050 4950 1050
2 4 0 1 -1 7 0 0 -1 0.000 0 0 7 0 0 5
	 4950 2700 4950 1650 3075 1650 3075 2700 4950 2700
2 1 0 1 -1 7 0 0 -1 0.000 0 0 -1 0 0 4
	 1275 1050 1275 1275 3225 1275 3225 1050
2 1 0 1 -1 7 0 0 -1 0.000 0 0 -1 0 0 4
	 3300 1050 3300 1350 1200 1350 1200 1050
2 1 0 1 -1 7 0 0 -1 0.000 0 0 -1 1 0 2
	1 1 1.00 60.00 120.00
	 4050 1050 4050 1650
2 1 0 1 -1 7 0 0 -1 0.000 0 0 7 1 0 2
	1 1 1.00 60.00 120.00
	 3600 1650 3600 1050
4 0 -1 0 0 0 10 0.0000000 4 105 1260 675 675 UNITE CENTRALE\001
4 0 -1 0 0 0 10 0.0000000 4 135 390 1050 900 (CPU)\001
4 0 -1 0 0 0 10 0.0000000 4 105 780 3450 975 CENTRALE\001
4 0 -1 0 0 0 10 0.0000000 4 105 705 3450 750 MEMOIRE\001
4 0 -1 0 0 0 10 0.0000000 4 105 945 3525 2400 SECONDAIRE\001
4 0 -1 0 0 0 10 0.0000000 4 105 705 3600 2100 MEMOIRE\001
4 0 -1 0 0 0 10 0.0000000 4 105 285 975 1575 Bus \001
4 0 -1 0 0 0 10 0.0000000 4 105 435 3075 1575 Lecture\001
4 0 -1 0 0 0 10 0.0000000 4 105 465 4200 1575 Ecriture\001
