%!PS-Adobe-2.0 EPSF-2.0
%%Title: nestedloop.eps
%%Creator: fig2dev Version 3.2.3 Patchlevel 
%%CreationDate: Mon May 13 16:57:50 2002
%%For: rigaux@cartier (Philippe Rigaux)
%%BoundingBox: 0 0 250 184
%%Magnification: 1.0000
%%EndComments
/$F2psDict 200 dict def
$F2psDict begin
$F2psDict /mtrx matrix put
/col-1 {0 setgray} bind def
/col0 {0.000 0.000 0.000 srgb} bind def
/col1 {0.000 0.000 1.000 srgb} bind def
/col2 {0.000 1.000 0.000 srgb} bind def
/col3 {0.000 1.000 1.000 srgb} bind def
/col4 {1.000 0.000 0.000 srgb} bind def
/col5 {1.000 0.000 1.000 srgb} bind def
/col6 {1.000 1.000 0.000 srgb} bind def
/col7 {1.000 1.000 1.000 srgb} bind def
/col8 {0.000 0.000 0.560 srgb} bind def
/col9 {0.000 0.000 0.690 srgb} bind def
/col10 {0.000 0.000 0.820 srgb} bind def
/col11 {0.530 0.810 1.000 srgb} bind def
/col12 {0.000 0.560 0.000 srgb} bind def
/col13 {0.000 0.690 0.000 srgb} bind def
/col14 {0.000 0.820 0.000 srgb} bind def
/col15 {0.000 0.560 0.560 srgb} bind def
/col16 {0.000 0.690 0.690 srgb} bind def
/col17 {0.000 0.820 0.820 srgb} bind def
/col18 {0.560 0.000 0.000 srgb} bind def
/col19 {0.690 0.000 0.000 srgb} bind def
/col20 {0.820 0.000 0.000 srgb} bind def
/col21 {0.560 0.000 0.560 srgb} bind def
/col22 {0.690 0.000 0.690 srgb} bind def
/col23 {0.820 0.000 0.820 srgb} bind def
/col24 {0.500 0.190 0.000 srgb} bind def
/col25 {0.630 0.250 0.000 srgb} bind def
/col26 {0.750 0.380 0.000 srgb} bind def
/col27 {1.000 0.500 0.500 srgb} bind def
/col28 {1.000 0.630 0.630 srgb} bind def
/col29 {1.000 0.750 0.750 srgb} bind def
/col30 {1.000 0.880 0.880 srgb} bind def
/col31 {1.000 0.840 0.000 srgb} bind def

end
save
newpath 0 184 moveto 0 0 lineto 250 0 lineto 250 184 lineto closepath clip newpath
-17.0 190.0 translate
1 -1 scale

/cp {closepath} bind def
/ef {eofill} bind def
/gr {grestore} bind def
/gs {gsave} bind def
/sa {save} bind def
/rs {restore} bind def
/l {lineto} bind def
/m {moveto} bind def
/rm {rmoveto} bind def
/n {newpath} bind def
/s {stroke} bind def
/sh {show} bind def
/slc {setlinecap} bind def
/slj {setlinejoin} bind def
/slw {setlinewidth} bind def
/srgb {setrgbcolor} bind def
/rot {rotate} bind def
/sc {scale} bind def
/sd {setdash} bind def
/ff {findfont} bind def
/sf {setfont} bind def
/scf {scalefont} bind def
/sw {stringwidth} bind def
/tr {translate} bind def
/tnt {dup dup currentrgbcolor
  4 -2 roll dup 1 exch sub 3 -1 roll mul add
  4 -2 roll dup 1 exch sub 3 -1 roll mul add
  4 -2 roll dup 1 exch sub 3 -1 roll mul add srgb}
  bind def
/shd {dup dup currentrgbcolor 4 -2 roll mul 4 -2 roll mul
  4 -2 roll mul srgb} bind def
/$F2psBegin {$F2psDict begin /$F2psEnteredState save def} def
/$F2psEnd {$F2psEnteredState restore end} def

$F2psBegin
%%Page: 1 1
10 setmiterlimit
 0.06000 0.06000 sc
/Times-Italic ff 150.00 scf sf
300 225 m
gs 1 -1 sc (Vertigo 1958) col0 sh gr
/Times-Italic ff 150.00 scf sf
300 1500 m
gs 1 -1 sc (Annie Hall 1977) col0 sh gr
/Times-Italic ff 150.00 scf sf
300 2625 m
gs 1 -1 sc (Brazil  1984                      .......) col0 sh gr
/Times-Italic ff 150.00 scf sf
2851 2326 m
gs 1 -1 sc (Kubrik       Shining) col0 sh gr
/Times-Italic ff 150.00 scf sf
2851 2176 m
gs 1 -1 sc (Allen          Annie Hall) col0 sh gr
/Times-Italic ff 150.00 scf sf
2851 2026 m
gs 1 -1 sc (Hitchcock  Vertigo) col0 sh gr
/Times-Italic ff 150.00 scf sf
2851 1876 m
gs 1 -1 sc (Lang          Metropolis) col0 sh gr
/Times-Italic ff 150.00 scf sf
2776 1726 m
gs 1 -1 sc ( Allen           Manhattan) col0 sh gr
/Times-Italic ff 150.00 scf sf
2851 1576 m
gs 1 -1 sc (Hitchcock   Psychose) col0 sh gr
/Times-Italic ff 150.00 scf sf
2854 1428 m
gs 1 -1 sc (Spielberg    Jurassic Park) col0 sh gr
/Times-Italic ff 150.00 scf sf
2851 1125 m
gs 1 -1 sc (Kubrik       Shining) col0 sh gr
/Times-Italic ff 150.00 scf sf
2851 975 m
gs 1 -1 sc (Allen          Annie Hall) col0 sh gr
/Times-Italic ff 150.00 scf sf
2851 825 m
gs 1 -1 sc (Hitchcock  Vertigo) col0 sh gr
/Times-Italic ff 150.00 scf sf
2851 675 m
gs 1 -1 sc (Lang          Metropolis) col0 sh gr
/Times-Italic ff 150.00 scf sf
2776 525 m
gs 1 -1 sc ( Allen           Manhattan) col0 sh gr
/Times-Italic ff 150.00 scf sf
2851 375 m
gs 1 -1 sc (Hitchcock   Psychose) col0 sh gr
/Times-Italic ff 150.00 scf sf
2854 227 m
gs 1 -1 sc (Spielberg    Jurassic Park) col0 sh gr
% Polyline
7.500 slw
gs  clippath
991 3181 m 991 3121 l 840 3121 l 960 3151 l 840 3181 l cp
eoclip
n 301 3151 m
 976 3151 l gs col-1 s gr gr

% arrowhead
n 840 3181 m 960 3151 l 840 3121 l 840 3181 l  cp gs 0.00 setgray ef gr  col-1 s
% Polyline
 [15 45] 45 sd
gs  clippath
991 2956 m 991 2896 l 839 2896 l 959 2926 l 839 2956 l cp
eoclip
n 301 2926 m
 976 2926 l gs col-1 s gr gr
 [] 0 sd
% arrowhead
n 839 2956 m 959 2926 l 839 2896 l  col-1 s
/Times-Roman ff 150.00 scf sf
1126 2926 m
gs 1 -1 sc (Comparaison) col-1 sh gr
/Times-Roman ff 150.00 scf sf
1126 3151 m
gs 1 -1 sc (Association) col-1 sh gr
% Polyline
gs  clippath
2775 2133 m 2801 2079 l 2695 2029 l 2764 2095 l 2669 2083 l cp
eoclip
n 1350 1425 m
 2775 2100 l gs col-1 s gr gr

% arrowhead
n 2669 2083 m 2764 2095 l 2695 2029 l 2655 2043 l 2669 2083 l 
 cp gs 0.00 setgray ef gr  col-1 s
% Polyline
 [15 45] 45 sd
gs  clippath
2790 180 m 2790 120 l 2638 120 l 2758 150 l 2638 180 l cp
eoclip
n 1125 150 m
 2775 150 l gs col-1 s gr gr
 [] 0 sd
% arrowhead
n 2638 180 m 2758 150 l 2638 120 l  col-1 s
% Polyline
 [15 45] 45 sd
gs  clippath
2788 330 m 2791 270 l 2639 263 l 2758 299 l 2636 323 l cp
eoclip
n 1125 225 m
 2775 300 l gs col-1 s gr gr
 [] 0 sd
% arrowhead
n 2636 323 m 2758 299 l 2639 263 l  col-1 s
% Polyline
 [15 45] 45 sd
gs  clippath
2785 481 m 2793 422 l 2644 402 l 2759 448 l 2636 461 l cp
eoclip
n 1125 225 m
 2775 450 l gs col-1 s gr gr
 [] 0 sd
% arrowhead
n 2636 461 m 2759 448 l 2644 402 l  col-1 s
% Polyline
 [15 45] 45 sd
gs  clippath
2782 632 m 2796 574 l 2648 540 l 2759 596 l 2635 598 l cp
eoclip
n 1125 225 m
 2775 600 l gs col-1 s gr gr
 [] 0 sd
% arrowhead
n 2635 598 m 2759 596 l 2648 540 l  col-1 s
% Polyline
 [15 45] 45 sd
gs  clippath
2790 1455 m 2790 1395 l 2638 1395 l 2758 1425 l 2638 1455 l cp
eoclip
n 1350 1425 m
 2775 1425 l gs col-1 s gr gr
 [] 0 sd
% arrowhead
n 2638 1455 m 2758 1425 l 2638 1395 l  col-1 s
% Polyline
 [15 45] 45 sd
gs  clippath
2776 1008 m 2801 953 l 2663 891 l 2760 968 l 2638 945 l cp
eoclip
n 1125 225 m
 2775 975 l gs col-1 s gr gr
 [] 0 sd
% arrowhead
n 2638 945 m 2760 968 l 2663 891 l  col-1 s
% Polyline
 [15 45] 45 sd
gs  clippath
2773 1158 m 2802 1105 l 2669 1033 l 2760 1117 l 2640 1085 l cp
eoclip
n 1125 225 m
 2775 1125 l gs col-1 s gr gr
 [] 0 sd
% arrowhead
n 2640 1085 m 2760 1117 l 2669 1033 l  col-1 s
% Polyline
gs  clippath
2778 858 m 2799 801 l 2657 749 l 2760 819 l 2636 806 l cp
eoclip
n 1125 225 m
 2775 825 l gs col-1 s gr gr

% arrowhead
n 2636 806 m 2760 819 l 2657 749 l 2636 806 l  cp gs 0.00 setgray ef gr  col-1 s
% Polyline
 [15 45] 45 sd
gs  clippath
2783 1757 m 2796 1698 l 2648 1665 l 2759 1721 l 2635 1724 l cp
eoclip
n 1425 1425 m
 2775 1725 l gs col-1 s gr gr
 [] 0 sd
% arrowhead
n 2635 1724 m 2759 1721 l 2648 1665 l  col-1 s
% Polyline
 [15 45] 45 sd
gs  clippath
2779 1908 m 2798 1851 l 2654 1803 l 2759 1870 l 2635 1860 l cp
eoclip
n 1425 1425 m
 2775 1875 l gs col-1 s gr gr
 [] 0 sd
% arrowhead
n 2635 1860 m 2759 1870 l 2654 1803 l  col-1 s
% Polyline
 [15 45] 45 sd
gs  clippath
2778 1983 m 2799 1927 l 2656 1874 l 2759 1944 l 2636 1930 l cp
eoclip
n 1350 1425 m
 2775 1950 l gs col-1 s gr gr
 [] 0 sd
% arrowhead
n 2636 1930 m 2759 1944 l 2656 1874 l  col-1 s
% Polyline
 [15 45] 45 sd
gs  clippath
2771 2358 m 2803 2307 l 2675 2226 l 2761 2316 l 2643 2277 l cp
eoclip
n 1350 1425 m
 2775 2325 l gs col-1 s gr gr
 [] 0 sd
% arrowhead
n 2643 2277 m 2761 2316 l 2675 2226 l  col-1 s
% Polyline
 [15 45] 45 sd
gs  clippath
2786 1606 m 2793 1546 l 2643 1529 l 2759 1573 l 2636 1589 l cp
eoclip
n 1425 1425 m
 2775 1575 l gs col-1 s gr gr
 [] 0 sd
% arrowhead
n 2636 1589 m 2759 1573 l 2643 1529 l  col-1 s
/Times-BoldItalic ff 180.00 scf sf
3602 1427 m
gs 1 -1 sc (    ) col-1 sh gr
/Times-BoldItalic ff 180.00 scf sf
3602 226 m
gs 1 -1 sc (    ) col-1 sh gr
$F2psEnd
rs
