#FIG 3.1

Portrait
Center
Inches
1200 2
6 3074 3600 3674 4050
4 0 -1 0 0 0 10 0.0000000 4 240 870 3075 3751 Niveau\001
4 0 -1 0 0 0 10 0.0000000 4 300 1095 3075 3967 physique\001
-6
6 3075 2925 3600 3375
4 0 -1 0 0 0 10 0.0000000 4 240 870 3076 3076 Niveau\001
4 0 -1 0 0 0 10 0.0000000 4 300 915 3076 3292 logique\001
-6
1 2 0 1 -1 7 0 0 -1 0.0000000 1 0.000 1762 4312 862 112 900 4200 2625 4425
1 2 0 1 -1 7 0 0 -1 0.0000000 1 0.000 1762 5437 862 112 900 5325 2625 5550
2 1 0 1 -1 7 0 0 -1 0.000 0 0 -1 0 0 2
	 150 3450 3675 3450
2 1 0 1 -1 7 0 0 -1 0.000 0 0 -1 0 0 2
	 900 4350 900 5475
2 1 0 1 -1 7 0 0 -1 0.000 0 0 -1 0 0 2
	 2625 4350 2625 5475
2 2 0 1 -1 7 0 0 -1 0.000 0 0 0 0 0 5
	 975 4650 1125 4650 1125 5100 975 5100 975 4650
2 2 0 1 -1 7 0 0 -1 0.000 0 0 0 0 0 5
	 1950 4575 2475 4575 2475 4725 1950 4725 1950 4575
2 2 0 1 -1 7 0 0 -1 0.000 0 0 0 0 0 5
	 1725 5100 2175 5100 2175 5250 1725 5250 1725 5100
2 1 0 1 -1 7 0 0 -1 0.000 0 0 -1 0 0 2
	 975 4725 1125 4725
2 1 0 1 -1 7 0 0 -1 0.000 0 0 -1 0 0 2
	 975 4800 1125 4800
2 1 0 1 -1 7 0 0 -1 0.000 0 0 -1 0 0 2
	 975 4875 1125 4875
2 1 0 1 -1 7 0 0 -1 0.000 0 0 -1 0 0 2
	 975 4950 1125 4950
2 1 0 1 -1 7 0 0 -1 0.000 0 0 -1 0 0 2
	 975 5025 1125 5025
2 1 0 1 -1 7 0 0 -1 0.000 0 0 -1 0 0 2
	 2025 4575 2025 4725
2 1 0 1 -1 7 0 0 -1 0.000 0 0 -1 0 0 2
	 2100 4575 2100 4725
2 1 0 1 -1 7 0 0 -1 0.000 0 0 -1 0 0 2
	 2175 4575 2175 4725
2 1 0 1 -1 7 0 0 -1 0.000 0 0 -1 0 0 2
	 2250 4575 2250 4725
2 1 0 1 -1 7 0 0 -1 0.000 0 0 -1 0 0 2
	 2325 4575 2325 4725
2 1 0 1 -1 7 0 0 -1 0.000 0 0 -1 0 0 2
	 2400 4575 2400 4725
2 1 0 1 -1 7 0 0 -1 0.000 0 0 -1 0 0 2
	 450 3075 450 3600
2 1 0 1 -1 7 0 0 -1 0.000 0 0 -1 1 0 2
	1 1 1.00 60.00 120.00
	 525 3825 1050 4575
2 1 0 1 -1 7 0 0 -1 0.000 0 0 -1 1 0 2
	1 1 1.00 60.00 120.00
	 675 3825 1875 4500
2 1 0 1 -1 7 0 0 -1 0.000 0 0 -1 1 0 2
	1 1 1.00 60.00 120.00
	 600 3825 1725 5025
2 1 0 1 -1 7 0 0 -1 0.000 0 0 -1 1 0 2
	1 1 1.00 60.00 120.00
	 825 5700 1050 5175
2 1 0 1 -1 7 0 0 -1 0.000 0 0 -1 0 1 2
	1 1 1.00 60.00 120.00
	 2475 4650 2850 4650
4 0 -1 0 0 0 10 0.0000000 4 300 1065 300 3750 Segment\001
4 0 -1 0 0 0 10 0.0000000 4 240 690 300 3000 Table\001
4 0 -1 0 0 0 10 0.0000000 4 240 1215 225 5850 Extension\001
4 0 -1 0 0 0 10 0.0000000 4 240 690 2925 4725 Blocs\001
