%!PS-Adobe-2.0 EPSF-2.0
%%Title: oratbspace.fig
%%Creator: fig2dev Version 3.2 Patchlevel 1
%%CreationDate: Fri Jan 19 12:44:59 2001
%%For: amann@magellan (Bernd Amann)
%%Orientation: Portrait
%%BoundingBox: 0 0 293 132
%%Pages: 0
%%BeginSetup
%%EndSetup
%%Magnification: 1.0000
%%EndComments
/$F2psDict 200 dict def
$F2psDict begin
$F2psDict /mtrx matrix put
/col-1 {0 setgray} bind def
/col0 {0.000 0.000 0.000 srgb} bind def
/col1 {0.000 0.000 1.000 srgb} bind def
/col2 {0.000 1.000 0.000 srgb} bind def
/col3 {0.000 1.000 1.000 srgb} bind def
/col4 {1.000 0.000 0.000 srgb} bind def
/col5 {1.000 0.000 1.000 srgb} bind def
/col6 {1.000 1.000 0.000 srgb} bind def
/col7 {1.000 1.000 1.000 srgb} bind def
/col8 {0.000 0.000 0.560 srgb} bind def
/col9 {0.000 0.000 0.690 srgb} bind def
/col10 {0.000 0.000 0.820 srgb} bind def
/col11 {0.530 0.810 1.000 srgb} bind def
/col12 {0.000 0.560 0.000 srgb} bind def
/col13 {0.000 0.690 0.000 srgb} bind def
/col14 {0.000 0.820 0.000 srgb} bind def
/col15 {0.000 0.560 0.560 srgb} bind def
/col16 {0.000 0.690 0.690 srgb} bind def
/col17 {0.000 0.820 0.820 srgb} bind def
/col18 {0.560 0.000 0.000 srgb} bind def
/col19 {0.690 0.000 0.000 srgb} bind def
/col20 {0.820 0.000 0.000 srgb} bind def
/col21 {0.560 0.000 0.560 srgb} bind def
/col22 {0.690 0.000 0.690 srgb} bind def
/col23 {0.820 0.000 0.820 srgb} bind def
/col24 {0.500 0.190 0.000 srgb} bind def
/col25 {0.630 0.250 0.000 srgb} bind def
/col26 {0.750 0.380 0.000 srgb} bind def
/col27 {1.000 0.500 0.500 srgb} bind def
/col28 {1.000 0.630 0.630 srgb} bind def
/col29 {1.000 0.750 0.750 srgb} bind def
/col30 {1.000 0.880 0.880 srgb} bind def
/col31 {1.000 0.840 0.000 srgb} bind def

end
save
-12.0 275.0 translate
1 -1 scale

/cp {closepath} bind def
/ef {eofill} bind def
/gr {grestore} bind def
/gs {gsave} bind def
/sa {save} bind def
/rs {restore} bind def
/l {lineto} bind def
/m {moveto} bind def
/rm {rmoveto} bind def
/n {newpath} bind def
/s {stroke} bind def
/sh {show} bind def
/slc {setlinecap} bind def
/slj {setlinejoin} bind def
/slw {setlinewidth} bind def
/srgb {setrgbcolor} bind def
/rot {rotate} bind def
/sc {scale} bind def
/sd {setdash} bind def
/ff {findfont} bind def
/sf {setfont} bind def
/scf {scalefont} bind def
/sw {stringwidth} bind def
/tr {translate} bind def
/tnt {dup dup currentrgbcolor
  4 -2 roll dup 1 exch sub 3 -1 roll mul add
  4 -2 roll dup 1 exch sub 3 -1 roll mul add
  4 -2 roll dup 1 exch sub 3 -1 roll mul add srgb}
  bind def
/shd {dup dup currentrgbcolor 4 -2 roll mul 4 -2 roll mul
  4 -2 roll mul srgb} bind def
/$F2psBegin {$F2psDict begin /$F2psEnteredState save def} def
/$F2psEnd {$F2psEnteredState restore end} def
%%EndProlog

$F2psBegin
10 setmiterlimit
n -1000 5575 m -1000 -1000 l 6080 -1000 l 6080 5575 l cp clip
 0.06000 0.06000 sc
% Polyline
7.500 slw
n 3225 2850 m 4350 2850 l 4350 3900 l 3225 3900 l cp gs col-1 s gr 
% Polyline
n 1500 2850 m 2625 2850 l 2625 3900 l 1500 3900 l cp gs col-1 s gr 
% Polyline
n 225 2850 m 1350 2850 l 1350 3900 l 225 3900 l cp gs col-1 s gr 
% Polyline
n 225 2775 m 225 2700 l 2625 2700 l 2625 2775 l gs col-1 s gr 
% Polyline
gs  clippath
930 4040 m 825 3975 l 948 3983 l 820 3942 l 802 3999 l cp
clip
n 825 3975 m 2250 4425 l gs col-1 s gr gr

% arrowhead
n 930 4040 m 825 3975 l 948 3983 l 939 4011 l 930 4040 l  cp gs 0.00 setgray ef gr  col-1 s
% Polyline
gs  clippath
2370 4095 m 2400 3975 l 2430 4095 l 2430 3960 l 2370 3960 l cp
clip
n 2400 4425 m 2400 3975 l gs col-1 s gr gr

% arrowhead
n 2370 4095 m 2400 3975 l 2430 4095 l 2400 4095 l 2370 4095 l  cp gs 0.00 setgray ef gr  col-1 s
% Polyline
gs  clippath
3552 3989 m 3675 3975 l 3573 4045 l 3700 3998 l 3679 3942 l cp
clip
n 2475 4425 m 3675 3975 l gs col-1 s gr gr

% arrowhead
n 3552 3989 m 3675 3975 l 3573 4045 l 3563 4017 l 3552 3989 l  cp gs 0.00 setgray ef gr  col-1 s
% Polyline
n 555 3375 m 450 3375 450 3645 105 arcto 4 {pop} repeat
  450 3750 2370 3750 105 arcto 4 {pop} repeat
  2475 3750 2475 3480 105 arcto 4 {pop} repeat
  2475 3375 555 3375 105 arcto 4 {pop} repeat
 cp gs col7 1.00 shd ef gr gs col-1 s gr 
% Polyline
n 1230 2925 m 1125 2925 1125 3045 105 arcto 4 {pop} repeat
  1125 3150 2070 3150 105 arcto 4 {pop} repeat
  2175 3150 2175 3030 105 arcto 4 {pop} repeat
  2175 2925 1230 2925 105 arcto 4 {pop} repeat
 cp gs col7 1.00 shd ef gr gs col-1 s gr 
% Polyline
n 3480 2925 m 3375 2925 3375 3120 105 arcto 4 {pop} repeat
  3375 3225 4170 3225 105 arcto 4 {pop} repeat
  4275 3225 4275 3030 105 arcto 4 {pop} repeat
  4275 2925 3480 2925 105 arcto 4 {pop} repeat
 cp gs col-1 s gr 
% Polyline
n 3480 3375 m 3375 3375 3375 3720 105 arcto 4 {pop} repeat
  3375 3825 4170 3825 105 arcto 4 {pop} repeat
  4275 3825 4275 3480 105 arcto 4 {pop} repeat
  4275 3375 3480 3375 105 arcto 4 {pop} repeat
 cp gs col-1 s gr 
% Polyline
n 480 2925 m 375 2925 375 3045 105 arcto 4 {pop} repeat
  375 3150 945 3150 105 arcto 4 {pop} repeat
  1050 3150 1050 3030 105 arcto 4 {pop} repeat
  1050 2925 480 2925 105 arcto 4 {pop} repeat
 cp gs col7 1.00 shd ef gr gs col-1 s gr 
/Times-Roman ff 150.00 scf sf
1050 2625 m
gs 1 -1 sc (Tablespace 1) col-1 sh gr
/Times-Roman ff 150.00 scf sf
3450 2625 m
gs 1 -1 sc (Tablespace 2) col-1 sh gr
/Times-Roman ff 150.00 scf sf
2100 4575 m
gs 1 -1 sc (Fichiers) col-1 sh gr
/Times-Roman ff 150.00 scf sf
3450 3600 m
gs 1 -1 sc (Dictionnaire) col-1 sh gr
/Times-Roman ff 150.00 scf sf
3600 3075 m
gs 1 -1 sc (Table C) col-1 sh gr
/Times-Roman ff 150.00 scf sf
450 3075 m
gs 1 -1 sc (Table  A) col-1 sh gr
/Times-Roman ff 150.00 scf sf
1125 3600 m
gs 1 -1 sc (Table B) col-1 sh gr
/Times-Roman ff 150.00 scf sf
1425 3075 m
gs 1 -1 sc (Index) col-1 sh gr
$F2psEnd
rs
