#FIG 3.2
Portrait
Center
Inches
A4      
100.00
Single
-2
1200 2
6 825 1275 1875 1725
1 1 0 1 0 7 50 0 20 4.000 1 0.0000 1350 1500 525 225 1350 1500 1875 1725
4 0 0 50 0 0 10 0.0000 4 150 630 1050 1425 Contr\364leur\001
4 0 0 50 0 0 10 0.0000 4 135 390 1050 1620 disque\001
-6
6 4575 0 6000 900
2 4 0 1 0 7 50 0 20 4.000 0 0 7 0 0 5
	 6000 900 6000 0 4575 0 4575 900 6000 900
4 0 0 50 0 0 10 0.0000 4 135 540 4725 225 L(1-17)\001
4 0 0 50 0 0 10 0.0000 4 135 540 5325 225 L(2-23)\001
4 0 0 50 0 0 10 0.0000 4 135 540 4725 525 L(1-18)\001
4 0 0 50 0 0 10 0.0000 4 135 540 5325 525 L(2-24)\001
4 0 0 50 0 0 10 0.0000 4 135 540 5100 750 L(1-16)\001
-6
1 1 0 1 0 7 50 0 20 4.000 1 0.0000 5325 1500 525 225 5325 1500 5850 1725
2 1 0 1 0 7 50 0 20 4.000 0 0 -1 1 0 2
	1 1 1.00 60.00 120.00
	 4800 1500 1875 1500
2 1 0 1 0 7 50 0 20 4.000 0 0 -1 1 0 2
	1 1 1.00 60.00 120.00
	 5325 900 5325 1275
2 1 0 1 0 7 50 0 20 4.000 0 0 -1 1 0 2
	1 1 1.00 60.00 120.00
	 3600 150 4575 150
4 0 0 50 0 0 10 0.0000 4 135 3000 1950 1350 L(1-16), L(1-17), L(1-18), L(2-23), L(2-24)\001
4 0 0 50 0 0 10 0.0000 4 150 660 5025 1500 S\351quenceur\001
4 0 0 50 0 0 10 0.0000 4 135 3000 825 225 L(1-16), L(2-23), L(1-18), L(2-24), L(1-17)\001
4 0 0 50 0 0 10 0.0000 4 150 1005 4800 -75 M\351moire tampon\001
