%!PS-Adobe-2.0 EPSF-2.0
%%Title: /home/philippe/BD/FIGURES/ski.fig
%%Creator: fig2dev Version 3.2 Patchlevel 5-alpha5
%%CreationDate: Tue Nov 30 11:26:09 2004
%%For: philippe@pc (Philippe Rigaux)
%%BoundingBox: 0 0 454 408
%Magnification: 2.0000
%%EndComments
/$F2psDict 200 dict def
$F2psDict begin
$F2psDict /mtrx matrix put
/col-1 {0 setgray} bind def
/col0 {0.000 0.000 0.000 srgb} bind def
/col1 {0.000 0.000 1.000 srgb} bind def
/col2 {0.000 1.000 0.000 srgb} bind def
/col3 {0.000 1.000 1.000 srgb} bind def
/col4 {1.000 0.000 0.000 srgb} bind def
/col5 {1.000 0.000 1.000 srgb} bind def
/col6 {1.000 1.000 0.000 srgb} bind def
/col7 {1.000 1.000 1.000 srgb} bind def
/col8 {0.000 0.000 0.560 srgb} bind def
/col9 {0.000 0.000 0.690 srgb} bind def
/col10 {0.000 0.000 0.820 srgb} bind def
/col11 {0.530 0.810 1.000 srgb} bind def
/col12 {0.000 0.560 0.000 srgb} bind def
/col13 {0.000 0.690 0.000 srgb} bind def
/col14 {0.000 0.820 0.000 srgb} bind def
/col15 {0.000 0.560 0.560 srgb} bind def
/col16 {0.000 0.690 0.690 srgb} bind def
/col17 {0.000 0.820 0.820 srgb} bind def
/col18 {0.560 0.000 0.000 srgb} bind def
/col19 {0.690 0.000 0.000 srgb} bind def
/col20 {0.820 0.000 0.000 srgb} bind def
/col21 {0.560 0.000 0.560 srgb} bind def
/col22 {0.690 0.000 0.690 srgb} bind def
/col23 {0.820 0.000 0.820 srgb} bind def
/col24 {0.500 0.190 0.000 srgb} bind def
/col25 {0.630 0.250 0.000 srgb} bind def
/col26 {0.750 0.380 0.000 srgb} bind def
/col27 {1.000 0.500 0.500 srgb} bind def
/col28 {1.000 0.630 0.630 srgb} bind def
/col29 {1.000 0.750 0.750 srgb} bind def
/col30 {1.000 0.880 0.880 srgb} bind def
/col31 {1.000 0.840 0.000 srgb} bind def

end
save
newpath 0 408 moveto 0 0 lineto 454 0 lineto 454 408 lineto closepath clip newpath
-16.2 415.4 translate
1 -1 scale

/cp {closepath} bind def
/ef {eofill} bind def
/gr {grestore} bind def
/gs {gsave} bind def
/sa {save} bind def
/rs {restore} bind def
/l {lineto} bind def
/m {moveto} bind def
/rm {rmoveto} bind def
/n {newpath} bind def
/s {stroke} bind def
/sh {show} bind def
/slc {setlinecap} bind def
/slj {setlinejoin} bind def
/slw {setlinewidth} bind def
/srgb {setrgbcolor} bind def
/rot {rotate} bind def
/sc {scale} bind def
/sd {setdash} bind def
/ff {findfont} bind def
/sf {setfont} bind def
/scf {scalefont} bind def
/sw {stringwidth} bind def
/tr {translate} bind def
/tnt {dup dup currentrgbcolor
  4 -2 roll dup 1 exch sub 3 -1 roll mul add
  4 -2 roll dup 1 exch sub 3 -1 roll mul add
  4 -2 roll dup 1 exch sub 3 -1 roll mul add srgb}
  bind def
/shd {dup dup currentrgbcolor 4 -2 roll mul 4 -2 roll mul
  4 -2 roll mul srgb} bind def
/reencdict 12 dict def /ReEncode { reencdict begin
/newcodesandnames exch def /newfontname exch def /basefontname exch def
/basefontdict basefontname findfont def /newfont basefontdict maxlength dict def
basefontdict { exch dup /FID ne { dup /Encoding eq
{ exch dup length array copy newfont 3 1 roll put }
{ exch newfont 3 1 roll put } ifelse } { pop pop } ifelse } forall
newfont /FontName newfontname put newcodesandnames aload pop
128 1 255 { newfont /Encoding get exch /.notdef put } for
newcodesandnames length 2 idiv { newfont /Encoding get 3 1 roll put } repeat
newfontname newfont definefont pop end } def
/isovec [
8#055 /minus 8#200 /grave 8#201 /acute 8#202 /circumflex 8#203 /tilde
8#204 /macron 8#205 /breve 8#206 /dotaccent 8#207 /dieresis
8#210 /ring 8#211 /cedilla 8#212 /hungarumlaut 8#213 /ogonek 8#214 /caron
8#220 /dotlessi 8#230 /oe 8#231 /OE
8#240 /space 8#241 /exclamdown 8#242 /cent 8#243 /sterling
8#244 /currency 8#245 /yen 8#246 /brokenbar 8#247 /section 8#250 /dieresis
8#251 /copyright 8#252 /ordfeminine 8#253 /guillemotleft 8#254 /logicalnot
8#255 /hyphen 8#256 /registered 8#257 /macron 8#260 /degree 8#261 /plusminus
8#262 /twosuperior 8#263 /threesuperior 8#264 /acute 8#265 /mu 8#266 /paragraph
8#267 /periodcentered 8#270 /cedilla 8#271 /onesuperior 8#272 /ordmasculine
8#273 /guillemotright 8#274 /onequarter 8#275 /onehalf
8#276 /threequarters 8#277 /questiondown 8#300 /Agrave 8#301 /Aacute
8#302 /Acircumflex 8#303 /Atilde 8#304 /Adieresis 8#305 /Aring
8#306 /AE 8#307 /Ccedilla 8#310 /Egrave 8#311 /Eacute
8#312 /Ecircumflex 8#313 /Edieresis 8#314 /Igrave 8#315 /Iacute
8#316 /Icircumflex 8#317 /Idieresis 8#320 /Eth 8#321 /Ntilde 8#322 /Ograve
8#323 /Oacute 8#324 /Ocircumflex 8#325 /Otilde 8#326 /Odieresis 8#327 /multiply
8#330 /Oslash 8#331 /Ugrave 8#332 /Uacute 8#333 /Ucircumflex
8#334 /Udieresis 8#335 /Yacute 8#336 /Thorn 8#337 /germandbls 8#340 /agrave
8#341 /aacute 8#342 /acircumflex 8#343 /atilde 8#344 /adieresis 8#345 /aring
8#346 /ae 8#347 /ccedilla 8#350 /egrave 8#351 /eacute
8#352 /ecircumflex 8#353 /edieresis 8#354 /igrave 8#355 /iacute
8#356 /icircumflex 8#357 /idieresis 8#360 /eth 8#361 /ntilde 8#362 /ograve
8#363 /oacute 8#364 /ocircumflex 8#365 /otilde 8#366 /odieresis 8#367 /divide
8#370 /oslash 8#371 /ugrave 8#372 /uacute 8#373 /ucircumflex
8#374 /udieresis 8#375 /yacute 8#376 /thorn 8#377 /ydieresis] def
/Times-Roman /Times-Roman-iso isovec ReEncode
/Times-Bold /Times-Bold-iso isovec ReEncode
/$F2psBegin {$F2psDict begin /$F2psEnteredState save def} def
/$F2psEnd {$F2psEnteredState restore end} def

$F2psBegin
10 setmiterlimit
0 slj 0 slc
 0.12000 0.12000 sc
%
% Fig objects follow
%
% 
% here starts figure with depth 100
% Polyline
0 slj
0 slc
7.500 slw
n 825 1725 m 825 2100 l
 1425 2100 l gs col0 s gr 
/Times-Roman-iso ff 166.67 scf sf
1500 1800 m
gs 1 -1 sc (Chambre) col0 sh gr
% here ends figure;
% 
% here starts figure with depth 50
% Polyline
0 slj
0 slc
7.500 slw
n 1425 1875 m
 2250 1875 l gs col0 s gr 
% Polyline
n 3525 1050 m
 3525 1500 l gs col0 s gr 
% Polyline
n 525 1500 m 1125 1500 l 1125 1725 l 525 1725 l
 cp gs col0 s gr 
% Polyline
n 375 2700 m
 1200 2700 l gs col0 s gr 
% Polyline
n 450 1500 m
 450 2475 l gs col0 s gr 
/Times-Roman-iso ff 166.67 scf sf
450 525 m
gs 1 -1 sc (H\364tel) col0 sh gr
/Times-Roman-iso ff 166.67 scf sf
450 1050 m
gs 1 -1 sc (nbEtoiles) col0 sh gr
/Times-Roman-iso ff 166.67 scf sf
1500 2100 m
gs 1 -1 sc (capacit\351) col0 sh gr
/Times-Roman-iso ff 166.67 scf sf
3225 1725 m
gs 1 -1 sc (Skieur) col0 sh gr
/Times-Roman-iso ff 166.67 scf sf
2925 1650 m
gs 1 -1 sc (*) col0 sh gr
/Times-Roman-iso ff 166.67 scf sf
2250 1575 m
gs 1 -1 sc (0..1) col0 sh gr
/Times-Roman-iso ff 166.67 scf sf
1275 2025 m
gs 1 -1 sc (*) col0 sh gr
/Times-Roman-iso ff 166.67 scf sf
3225 2475 m
gs 1 -1 sc (pr\351nom) col0 sh gr
/Times-Roman-iso ff 166.67 scf sf
3225 2250 m
gs 1 -1 sc (nom) col0 sh gr
/Times-Roman-iso ff 166.67 scf sf
3225 300 m
gs 1 -1 sc (Piste) col0 sh gr
/Times-Roman-iso ff 166.67 scf sf
3600 1500 m
gs 1 -1 sc (*) col0 sh gr
/Times-Roman-iso ff 166.67 scf sf
3225 795 m
gs 1 -1 sc (nom) col0 sh gr
/Times-Roman-iso ff 166.67 scf sf
3225 990 m
gs 1 -1 sc (couleur) col0 sh gr
/Times-Bold-iso ff 166.67 scf sf
450 825 m
gs 1 -1 sc (nomH\364tel) col0 sh gr
/Times-Bold-iso ff 166.67 scf sf
3225 600 m
gs 1 -1 sc (id) col0 sh gr
/Times-Bold-iso ff 166.67 scf sf
3225 2025 m
gs 1 -1 sc (id) col0 sh gr
/Times-Roman-iso ff 166.67 scf sf
2700 1800 m
gs 1 -1 sc (loge) col0 sh gr
/Times-Roman-iso ff 166.67 scf sf
3600 1200 m
gs 1 -1 sc (*) col0 sh gr
/Times-Roman-iso ff 166.67 scf sf
2850 1350 m
gs 1 -1 sc (fr\351quente) col0 sh gr
/Times-Roman-iso ff 166.67 scf sf
600 1650 m
gs 1 -1 sc (num\351ro) col0 sh gr
/Times-Roman-iso ff 166.67 scf sf
450 1275 m
gs 1 -1 sc (prixPetitD\351j) col0 sh gr
/Times-Roman-iso ff 166.67 scf sf
1500 2325 m
gs 1 -1 sc (tarif) col0 sh gr
/Times-Roman-iso ff 166.67 scf sf
525 2625 m
gs 1 -1 sc (G\351rant) col0 sh gr
/Times-Bold-iso ff 166.67 scf sf
525 2925 m
gs 1 -1 sc (id) col0 sh gr
/Times-Roman-iso ff 166.67 scf sf
525 3150 m
gs 1 -1 sc (nom) col0 sh gr
/Times-Roman-iso ff 166.67 scf sf
525 3375 m
gs 1 -1 sc (pr\351nom) col0 sh gr
/Times-Roman-iso ff 166.67 scf sf
150 1725 m
gs 1 -1 sc (1..1) col0 sh gr
/Times-Roman-iso ff 166.67 scf sf
300 2475 m
gs 1 -1 sc (*) col0 sh gr
% here ends figure;
% 
% here starts figure with depth 0
% Polyline
0 slj
0 slc
7.500 slw
n 375 600 m
 1275 600 l gs col-1 s gr 
% Polyline
n 2251 1651 m
 3076 1651 l gs col-1 s gr 
% Polyline
n 3075 1800 m
 3900 1800 l gs col-1 s gr 
% Polyline
n 3180 1500 m 3075 1500 3075 2445 105 arcto 4 {pop} repeat
  3075 2550 3795 2550 105 arcto 4 {pop} repeat
  3900 2550 3900 1605 105 arcto 4 {pop} repeat
  3900 1500 3180 1500 105 arcto 4 {pop} repeat
 cp gs col-1 s gr 
% Polyline
n 3075 375 m
 3900 375 l gs col-1 s gr 
% Polyline
n 3180 75 m 3075 75 3075 945 105 arcto 4 {pop} repeat
  3075 1050 3795 1050 105 arcto 4 {pop} repeat
  3900 1050 3900 180 105 arcto 4 {pop} repeat
  3900 75 3180 75 105 arcto 4 {pop} repeat
 cp gs col-1 s gr 
% Polyline
n 480 300 m 375 300 375 1395 105 arcto 4 {pop} repeat
  375 1500 1170 1500 105 arcto 4 {pop} repeat
  1275 1500 1275 405 105 arcto 4 {pop} repeat
  1275 300 480 300 105 arcto 4 {pop} repeat
 cp gs col-1 s gr 
% Polyline
n 1530 1576 m 1425 1576 1425 2295 105 arcto 4 {pop} repeat
  1425 2400 2146 2400 105 arcto 4 {pop} repeat
  2251 2400 2251 1681 105 arcto 4 {pop} repeat
  2251 1576 1530 1576 105 arcto 4 {pop} repeat
 cp gs col-1 s gr 
% Polyline
n 480 2476 m 375 2476 375 3345 105 arcto 4 {pop} repeat
  375 3450 1096 3450 105 arcto 4 {pop} repeat
  1201 3450 1201 2581 105 arcto 4 {pop} repeat
  1201 2476 480 2476 105 arcto 4 {pop} repeat
 cp gs col-1 s gr 
% here ends figure;
$F2psEnd
rs
showpage
%%Trailer
%EOF
