\relax 
\providecommand*\new@tpo@label[2]{}
\catcode `:\active 
\catcode `;\active 
\catcode `!\active 
\catcode `?\active 
\select@language{french}
\@writefile{toc}{\select@language{french}}
\@writefile{lof}{\select@language{french}}
\@writefile{lot}{\select@language{french}}
\@writefile{toc}{\contentsline {section}{\numberline {1}Les \textit  {traps}}{1}}
\@writefile{toc}{\contentsline {section}{\numberline {2}Les interruptions}{2}}
\@writefile{lof}{\contentsline {figure}{\numberline {1}{\ignorespaces La boucle d'interprétation du CPU.}}{4}}
\newlabel{fig:boucleint}{{1}{4}}
\@writefile{lof}{\contentsline {figure}{\numberline {2}{\ignorespaces La boucle d'interprétation du CPU avec gestion des interruptions.}}{5}}
\newlabel{fig:boucleintinter}{{2}{5}}
\@writefile{lof}{\contentsline {figure}{\numberline {3}{\ignorespaces La boucle d'interprétation du CPU avec gestion des interruptions et machine non-interruptible en cas d'interruption.}}{6}}
\newlabel{fig:boucleintinter2}{{3}{6}}
\@writefile{lof}{\contentsline {figure}{\numberline {4}{\ignorespaces Exemple d'interruption (1).}}{7}}
\newlabel{fig:exint1}{{4}{7}}
\@writefile{lof}{\contentsline {figure}{\numberline {5}{\ignorespaces Exemple d'interruption (2).}}{8}}
\newlabel{fig:exint2}{{5}{8}}
\@writefile{lof}{\contentsline {figure}{\numberline {6}{\ignorespaces Exemple d'interruption (3).}}{9}}
\newlabel{fig:exint2bis}{{6}{9}}
\@writefile{lof}{\contentsline {figure}{\numberline {7}{\ignorespaces Exemple d'interruption (4).}}{10}}
\newlabel{fig:exint3}{{7}{10}}
\@writefile{lof}{\contentsline {figure}{\numberline {8}{\ignorespaces Exemple d'interruption (5).}}{11}}
\newlabel{fig:exint4}{{8}{11}}
\@writefile{toc}{\contentsline {paragraph}{\nonumberline Exemple}{12}}
