\relax 
\providecommand\hyper@newdestlabel[2]{}
\providecommand*\new@tpo@label[2]{}
\catcode `"\active 
\providecommand\HyperFirstAtBeginDocument{\AtBeginDocument}
\HyperFirstAtBeginDocument{\ifx\hyper@anchor\@undefined
\global\let\oldcontentsline\contentsline
\gdef\contentsline#1#2#3#4{\oldcontentsline{#1}{#2}{#3}}
\global\let\oldnewlabel\newlabel
\gdef\newlabel#1#2{\newlabelxx{#1}#2}
\gdef\newlabelxx#1#2#3#4#5#6{\oldnewlabel{#1}{{#2}{#3}}}
\AtEndDocument{\ifx\hyper@anchor\@undefined
\let\contentsline\oldcontentsline
\let\newlabel\oldnewlabel
\fi}
\fi}
\global\let\hyper@last\relax 
\gdef\HyperFirstAtBeginDocument#1{#1}
\providecommand*\HyPL@Entry[1]{}
\abx@aux@refcontext{nty/global//global/global}
\HyPL@Entry{0<</S/D>>}
\@writefile{toc}{\boolfalse {citerequest}\boolfalse {citetracker}\boolfalse {pagetracker}\boolfalse {backtracker}\relax }
\@writefile{lof}{\boolfalse {citerequest}\boolfalse {citetracker}\boolfalse {pagetracker}\boolfalse {backtracker}\relax }
\@writefile{lot}{\boolfalse {citerequest}\boolfalse {citetracker}\boolfalse {pagetracker}\boolfalse {backtracker}\relax }
\babel@aux{french}{}
\@input{chapters/00-prelim.aux}
\abx@aux@cite{tanenbaum}
\abx@aux@segm{0}{0}{tanenbaum}
\@writefile{toc}{\contentsline {part}{\numberline {I}Notions de base}{15}{part.1}\protected@file@percent }
\@input{chapters/01-introduction.aux}
\abx@aux@cite{wiki:ordinateur}
\abx@aux@segm{0}{0}{wiki:ordinateur}
\newlabel{part:base}{{I}{17}{Notions de base}{part.1}{}}
\abx@aux@cite{Turing36}
\abx@aux@segm{0}{0}{Turing36}
\abx@aux@cite{wolper06}
\abx@aux@segm{0}{0}{wolper06}
\abx@aux@cite{vn45}
\abx@aux@segm{0}{0}{vn45}
\abx@aux@cite{i486}
\abx@aux@segm{0}{0}{i486}
\abx@aux@segm{0}{0}{i486}
\@input{chapters/02-representation.aux}
\abx@aux@cite{Setun}
\abx@aux@segm{0}{0}{Setun}
\abx@aux@cite{ieeeunits}
\abx@aux@segm{0}{0}{ieeeunits}
\abx@aux@cite{iso}
\abx@aux@segm{0}{0}{iso}
\abx@aux@cite{Cbook}
\abx@aux@segm{0}{0}{Cbook}
\abx@aux@segm{0}{0}{Cbook}
\abx@aux@cite{cppbook}
\abx@aux@segm{0}{0}{cppbook}
\abx@aux@cite{ieee754}
\abx@aux@segm{0}{0}{ieee754}
\abx@aux@segm{0}{0}{i486}
\abx@aux@cite{wiki:cfp737}
\abx@aux@segm{0}{0}{wiki:cfp737}
\abx@aux@segm{0}{0}{wiki:cfp737}
\abx@aux@cite{wiki:tagbanwa}
\abx@aux@segm{0}{0}{wiki:tagbanwa}
\abx@aux@cite{tagbanwa}
\abx@aux@segm{0}{0}{tagbanwa}
\abx@aux@segm{0}{0}{wiki:tagbanwa}
\abx@aux@segm{0}{0}{wiki:tagbanwa}
\abx@aux@cite{iso-jpeg}
\abx@aux@segm{0}{0}{iso-jpeg}
\abx@aux@cite{iso-png}
\abx@aux@segm{0}{0}{iso-png}
\abx@aux@segm{0}{0}{iso-jpeg}
\abx@aux@cite{hamming50}
\abx@aux@segm{0}{0}{hamming50}
\abx@aux@cite{iso-qr}
\abx@aux@segm{0}{0}{iso-qr}
\abx@aux@cite{RS60}
\abx@aux@segm{0}{0}{RS60}
\@input{chapters/03-organisation.aux}
\abx@aux@cite{gulliver}
\abx@aux@segm{0}{0}{gulliver}
\abx@aux@segm{0}{0}{gulliver}
\abx@aux@segm{0}{0}{i486}
\abx@aux@cite{wilkes51}
\abx@aux@segm{0}{0}{wilkes51}
\abx@aux@cite{wilkes86}
\abx@aux@segm{0}{0}{wilkes86}
\abx@aux@cite{vax}
\abx@aux@segm{0}{0}{vax}
\abx@aux@cite{PD80}
\abx@aux@segm{0}{0}{PD80}
\@writefile{toc}{\contentsline {part}{\numberline {II}Les portes logiques}{97}{part.2}\protected@file@percent }
\@input{chapters/04-niveau0.aux}
\abx@aux@cite{Boole}
\abx@aux@segm{0}{0}{Boole}
\abx@aux@cite{Shannon37}
\abx@aux@segm{0}{0}{Shannon37}
\newlabel{part:logique}{{II}{99}{Les portes logiques}{part.2}{}}
\abx@aux@cite{ENIAC}
\abx@aux@segm{0}{0}{ENIAC}
\abx@aux@cite{cpu-fpga}
\abx@aux@segm{0}{0}{cpu-fpga}
\@writefile{toc}{\contentsline {part}{\numberline {III}Le micro-langage}{137}{part.3}\protected@file@percent }
\@input{chapters/05-niveau1.aux}
\abx@aux@segm{0}{0}{wilkes51}
\abx@aux@segm{0}{0}{wilkes86}
\abx@aux@cite{ferrantimark1}
\abx@aux@segm{0}{0}{ferrantimark1}
\abx@aux@segm{0}{0}{wilkes86}
\abx@aux@cite{ibm360}
\abx@aux@segm{0}{0}{ibm360}
\abx@aux@segm{0}{0}{tanenbaum}
\abx@aux@segm{0}{0}{tanenbaum}
\abx@aux@cite{jvm-spec}
\abx@aux@segm{0}{0}{jvm-spec}
\abx@aux@segm{0}{0}{tanenbaum}
\abx@aux@segm{0}{0}{tanenbaum}
\abx@aux@segm{0}{0}{tanenbaum}
\abx@aux@segm{0}{0}{tanenbaum}
\savepointas{P1}{pgfid58}{0pt}{0pt}
\savepicturepage{pgfid58}{151}
\pgfsyspdfmark {pgfid58}{13565611}{29769497}
\savepointas{P2}{pgfid59}{0pt}{0pt}
\savepicturepage{pgfid59}{151}
\pgfsyspdfmark {pgfid59}{16736653}{29769497}
\savepointas{P3}{pgfid60}{0pt}{0pt}
\savepicturepage{pgfid60}{151}
\pgfsyspdfmark {pgfid60}{19838804}{29769497}
\savepointas{A1}{pgfid61}{0pt}{0pt}
\savepicturepage{pgfid61}{151}
\pgfsyspdfmark {pgfid61}{23042139}{29769497}
\savepointas{A2}{pgfid62}{0pt}{0pt}
\savepicturepage{pgfid62}{151}
\pgfsyspdfmark {pgfid62}{24555181}{29769497}
\savepicturepage{pgfid63}{151}
\pgfsyspdfmark {pgfid63}{25473355}{29761889}
\savepointas{I1}{pgfid64}{0pt}{0pt}
\savepicturepage{pgfid64}{151}
\pgfsyspdfmark {pgfid64}{10287283}{13984283}
\savepointas{I2}{pgfid65}{0pt}{0pt}
\savepicturepage{pgfid65}{151}
\pgfsyspdfmark {pgfid65}{14013763}{13984283}
\savepointas{G1}{pgfid66}{0pt}{0pt}
\savepicturepage{pgfid66}{151}
\pgfsyspdfmark {pgfid66}{19441602}{13984283}
\savepointas{G2}{pgfid67}{0pt}{0pt}
\savepicturepage{pgfid67}{151}
\pgfsyspdfmark {pgfid67}{23218315}{13984283}
\savepointas{P}{pgfid68}{0pt}{0pt}
\savepicturepage{pgfid68}{151}
\pgfsyspdfmark {pgfid68}{24381159}{13984283}
\savepointas{N}{pgfid69}{0pt}{0pt}
\savepicturepage{pgfid69}{151}
\pgfsyspdfmark {pgfid69}{28996352}{13984283}
\savepicturepage{pgfid70}{151}
\pgfsyspdfmark {pgfid70}{29914526}{14422320}
\savepointas{I1a}{pgfid71}{0pt}{0pt}
\savepicturepage{pgfid71}{152}
\pgfsyspdfmark {pgfid71}{14203111}{39941802}
\savepointas{I2a}{pgfid72}{0pt}{0pt}
\savepicturepage{pgfid72}{152}
\pgfsyspdfmark {pgfid72}{17929591}{39941802}
\savepointas{G1a}{pgfid73}{0pt}{0pt}
\savepicturepage{pgfid73}{152}
\pgfsyspdfmark {pgfid73}{23357430}{39941802}
\savepointas{G2a}{pgfid74}{0pt}{0pt}
\savepicturepage{pgfid74}{152}
\pgfsyspdfmark {pgfid74}{27134143}{39941802}
\savepointas{Pa}{pgfid75}{0pt}{0pt}
\savepicturepage{pgfid75}{152}
\pgfsyspdfmark {pgfid75}{28296987}{39941802}
\savepointas{Na}{pgfid76}{0pt}{0pt}
\savepicturepage{pgfid76}{152}
\pgfsyspdfmark {pgfid76}{32912180}{39941802}
\savepicturepage{pgfid77}{152}
\pgfsyspdfmark {pgfid77}{33830354}{40379839}
\abx@aux@segm{0}{0}{tanenbaum}
\abx@aux@segm{0}{0}{tanenbaum}
\abx@aux@segm{0}{0}{tanenbaum}
\@writefile{toc}{\contentsline {part}{\numberline {IV}Le langage Machine}{163}{part.4}\protected@file@percent }
\@input{chapters/06-niveau2.aux}
\abx@aux@cite{intel-isa}
\abx@aux@segm{0}{0}{intel-isa}
\abx@aux@cite{6502}
\abx@aux@segm{0}{0}{6502}
\abx@aux@segm{0}{0}{i486}
\abx@aux@segm{0}{0}{i486}
\@input{chapters/07-niveau2-interruptions.aux}
\abx@aux@segm{0}{0}{i486}
\abx@aux@cite{i8259}
\abx@aux@segm{0}{0}{i8259}
\@writefile{toc}{\contentsline {part}{\numberline {V}Le système d'exploitation}{203}{part.5}\protected@file@percent }
\@input{chapters/08-niveau4-OS.aux}
\newlabel{part:le-syst-dexpl}{{V}{205}{Le système d'exploitation}{part.5}{}}
\@input{chapters/09-niveau4-memoire.aux}
\@input{chapters/10-niveau4-processus.aux}
\abx@aux@refcontextdefaultsdone
\abx@aux@defaultrefcontext{0}{i8259}{nty/global//global/global}
\abx@aux@defaultrefcontext{0}{cpu-fpga}{nty/global//global/global}
\abx@aux@defaultrefcontext{0}{Cbook}{nty/global//global/global}
\abx@aux@defaultrefcontext{0}{Boole}{nty/global//global/global}
\abx@aux@defaultrefcontext{0}{wiki:cfp737}{nty/global//global/global}
\abx@aux@defaultrefcontext{0}{hamming50}{nty/global//global/global}
\abx@aux@defaultrefcontext{0}{i486}{nty/global//global/global}
\abx@aux@defaultrefcontext{0}{ibm360}{nty/global//global/global}
\abx@aux@defaultrefcontext{0}{ieee754}{nty/global//global/global}
\abx@aux@defaultrefcontext{0}{iso-qr}{nty/global//global/global}
\abx@aux@defaultrefcontext{0}{iso-png}{nty/global//global/global}
\abx@aux@defaultrefcontext{0}{iso-jpeg}{nty/global//global/global}
\abx@aux@defaultrefcontext{0}{intel-isa}{nty/global//global/global}
\abx@aux@defaultrefcontext{0}{jvm-spec}{nty/global//global/global}
\abx@aux@defaultrefcontext{0}{6502}{nty/global//global/global}
\abx@aux@defaultrefcontext{0}{vn45}{nty/global//global/global}
\abx@aux@defaultrefcontext{0}{wiki:ordinateur}{nty/global//global/global}
\abx@aux@defaultrefcontext{0}{Setun}{nty/global//global/global}
\abx@aux@defaultrefcontext{0}{PD80}{nty/global//global/global}
\abx@aux@defaultrefcontext{0}{ENIAC}{nty/global//global/global}
\abx@aux@defaultrefcontext{0}{iso}{nty/global//global/global}
\abx@aux@defaultrefcontext{0}{RS60}{nty/global//global/global}
\abx@aux@defaultrefcontext{0}{ieeeunits}{nty/global//global/global}
\abx@aux@defaultrefcontext{0}{Shannon37}{nty/global//global/global}
\abx@aux@defaultrefcontext{0}{cppbook}{nty/global//global/global}
\abx@aux@defaultrefcontext{0}{gulliver}{nty/global//global/global}
\abx@aux@defaultrefcontext{0}{tagbanwa}{nty/global//global/global}
\abx@aux@defaultrefcontext{0}{wiki:tagbanwa}{nty/global//global/global}
\abx@aux@defaultrefcontext{0}{tanenbaum}{nty/global//global/global}
\abx@aux@defaultrefcontext{0}{ferrantimark1}{nty/global//global/global}
\abx@aux@defaultrefcontext{0}{Turing36}{nty/global//global/global}
\abx@aux@defaultrefcontext{0}{vax}{nty/global//global/global}
\abx@aux@defaultrefcontext{0}{wilkes51}{nty/global//global/global}
\abx@aux@defaultrefcontext{0}{wilkes86}{nty/global//global/global}
\abx@aux@defaultrefcontext{0}{wolper06}{nty/global//global/global}
\global\csname @altsecnumformattrue\endcsname
\global\@namedef{scr@dte@chapter@lastmaxnumwidth}{20.20866pt}
\global\@namedef{scr@dte@section@lastmaxnumwidth}{25.22871pt}
\global\@namedef{scr@dte@part@lastmaxnumwidth}{21.71268pt}
\global\@namedef{scr@dte@subsection@lastmaxnumwidth}{33.24411pt}
\global\@namedef{scr@dte@table@lastmaxnumwidth}{19.88512pt}
\global\@namedef{scr@dte@figure@lastmaxnumwidth}{25.22871pt}
