\relax 
\providecommand\hyper@newdestlabel[2]{}
\@writefile{toc}{\contentsline {chapter}{\numberline {1}Repr\IeC {\'e}sentation des donn\IeC {\'e}es : type et valeur de base}{1}{chapter.1}\protected@file@percent }
\@writefile{lof}{\addvspace {10\p@ }}
\@writefile{lot}{\addvspace {10\p@ }}
\@writefile{lol}{\addvspace {10\p@ }}
\@writefile{toc}{\contentsline {section}{\numberline {1.1}Repr\IeC {\'e}sentation binaire de l'information}{1}{section.1.1}\protected@file@percent }
\@writefile{toc}{\contentsline {section}{\numberline {1.2}Unit\IeC {\'e}s de quantit\IeC {\'e} d'information}{2}{section.1.2}\protected@file@percent }
\@writefile{toc}{\contentsline {section}{\numberline {1.3}\'Ecriture des nombres dans diff\IeC {\'e}rentes bases}{3}{section.1.3}\protected@file@percent }
\@writefile{toc}{\contentsline {paragraph}{\nonumberline Chiffres de poids fort, de poids faible}{5}{section*.1}\protected@file@percent }
\@writefile{toc}{\contentsline {paragraph}{\nonumberline Ajouts de z\IeC {\'e}ros}{5}{section*.2}\protected@file@percent }
\@writefile{toc}{\contentsline {paragraph}{\nonumberline Multiplier ou diviser par la base}{5}{section*.3}\protected@file@percent }
\@writefile{toc}{\contentsline {paragraph}{\nonumberline Combien de nombres repr\IeC {\'e}sentables sur $n$ chiffres ?}{6}{section*.4}\protected@file@percent }
\@writefile{toc}{\contentsline {subsection}{\numberline {1.3.1}Changements de base}{6}{subsection.1.3.1}\protected@file@percent }
\@writefile{toc}{\contentsline {paragraph}{\nonumberline Cas des nombres entiers}{7}{section*.5}\protected@file@percent }
\@writefile{toc}{\contentsline {paragraph}{\nonumberline Nombres r\IeC {\'e}els}{8}{section*.6}\protected@file@percent }
\@writefile{toc}{\contentsline {subsection}{\numberline {1.3.2}Op\IeC {\'e}rations en base 2}{11}{subsection.1.3.2}\protected@file@percent }
\@writefile{toc}{\contentsline {paragraph}{\nonumberline Op\IeC {\'e}rations arithm\IeC {\'e}tiques}{11}{section*.7}\protected@file@percent }
\@writefile{toc}{\contentsline {paragraph}{\nonumberline Op\IeC {\'e}rations logiques}{11}{section*.8}\protected@file@percent }
\@writefile{toc}{\contentsline {paragraph}{\nonumberline Masques}{12}{section*.9}\protected@file@percent }
\@writefile{toc}{\contentsline {paragraph}{\nonumberline D\IeC {\'e}calages, division et multiplications}{13}{section*.10}\protected@file@percent }
\@writefile{toc}{\contentsline {subsection}{\numberline {1.3.3}Repr\IeC {\'e}sentation des entiers non-sign\IeC {\'e}s}{13}{subsection.1.3.3}\protected@file@percent }
\@writefile{toc}{\contentsline {subsection}{\numberline {1.3.4}Repr\IeC {\'e}sentation des nombres entiers sign\IeC {\'e}s}{14}{subsection.1.3.4}\protected@file@percent }
\@writefile{toc}{\contentsline {paragraph}{\nonumberline Bit de signe}{14}{section*.11}\protected@file@percent }
\@writefile{toc}{\contentsline {paragraph}{\nonumberline Compl\IeC {\'e}ment \IeC {\`a} 1}{14}{section*.12}\protected@file@percent }
\@writefile{toc}{\contentsline {paragraph}{\nonumberline Compl\IeC {\'e}ment \IeC {\`a} 2}{15}{section*.13}\protected@file@percent }
\@writefile{lot}{\contentsline {table}{\numberline {\relax 1.1}{\ignorespaces Comparaison des diff\IeC {\'e}rentes repr\IeC {\'e}sentations (sur $n$ bits).\relax }}{17}{table.caption.16}\protected@file@percent }
\providecommand*\caption@xref[2]{\@setref\relax\@undefined{#1}}
\newlabel{tab:comparaison-repr}{{\relax 1.1}{17}{Comparaison des différentes représentations (sur $n$ bits).\relax }{table.caption.16}{}}
\@writefile{toc}{\contentsline {paragraph}{\nonumberline Exc\IeC {\`e}s \IeC {\`a} $K$}{17}{section*.14}\protected@file@percent }
\@writefile{toc}{\contentsline {paragraph}{\nonumberline Comparaison des diff\IeC {\'e}rentes repr\IeC {\'e}sentation}{17}{section*.15}\protected@file@percent }
\@writefile{toc}{\contentsline {subsection}{\numberline {1.3.5}Repr\IeC {\'e}sentation des nombres <<~r\IeC {\'e}els~>>}{17}{subsection.1.3.5}\protected@file@percent }
\newlabel{sec:repr-ieee754}{{1.3.5}{17}{Représentation des nombres <<~réels~>>}{subsection.1.3.5}{}}
\@writefile{toc}{\contentsline {paragraph}{\nonumberline Une premi\IeC {\`e}re technique: la virgule fixe}{18}{section*.17}\protected@file@percent }
\@writefile{toc}{\contentsline {paragraph}{\nonumberline La virgule flottante: IEEE754}{19}{section*.18}\protected@file@percent }
\@writefile{toc}{\contentsline {section}{\numberline {1.4}Repr\IeC {\'e}sentation des caract\IeC {\`e}res}{21}{section.1.4}\protected@file@percent }
\@writefile{toc}{\contentsline {paragraph}{\nonumberline Codes historiques: \'Emile \textsc  {Baudot} et les t\IeC {\'e}l\IeC {\'e}scripteurs}{21}{section*.20}\protected@file@percent }
\@writefile{toc}{\contentsline {paragraph}{\nonumberline Le code ASCII}{22}{section*.22}\protected@file@percent }
\@writefile{lof}{\contentsline {figure}{\numberline {\relax 1.1}{\ignorespaces Le code Baudot}}{23}{figure.caption.21}\protected@file@percent }
\newlabel{fig:baudot}{{\relax 1.1}{23}{Le code Baudot}{figure.caption.21}{}}
\@writefile{lof}{\contentsline {figure}{\numberline {\relax 1.2}{\ignorespaces Le code ASCII}}{24}{figure.caption.23}\protected@file@percent }
\newlabel{fig:ascii}{{\relax 1.2}{24}{Le code ASCII}{figure.caption.23}{}}
\@writefile{toc}{\contentsline {paragraph}{\nonumberline Unicode}{24}{section*.25}\protected@file@percent }
\@writefile{toc}{\contentsline {section}{\numberline {1.5}Repr\IeC {\'e}sentation d'images}{24}{section.1.5}\protected@file@percent }
\newlabel{RF1}{25}
\@writefile{lof}{\contentsline {figure}{\numberline {\relax 1.3}{\ignorespaces Le {\textit  {Code Page}} 737}}{25}{figure.caption.24}\protected@file@percent }
\newlabel{fig:cp737}{{\relax 1.3}{25}{Le {\textit {Code Page}} 737}{figure.caption.24}{}}
\@writefile{lof}{\contentsline {figure}{\numberline {\relax 1.4}{\ignorespaces Extrait du standard Unicode, alphabet Tagbanwa \cite {wiki:tagbanwa}.\relax }}{26}{figure.caption.26}\protected@file@percent }
\newlabel{fig:unicode}{{\relax 1.4}{26}{Extrait du standard Unicode, alphabet Tagbanwa \cite {wiki:tagbanwa}.\relax }{figure.caption.26}{}}
\@writefile{toc}{\contentsline {section}{\numberline {1.6}D\IeC {\'e}tection et correction d'erreurs}{26}{section.1.6}\protected@file@percent }
\@writefile{toc}{\contentsline {subsection}{\numberline {1.6.1}Bit de parit\IeC {\'e}}{26}{subsection.1.6.1}\protected@file@percent }
\@writefile{toc}{\contentsline {subsection}{\numberline {1.6.2}Code de \textsc  {Hamming}}{27}{subsection.1.6.2}\protected@file@percent }
\@writefile{toc}{\contentsline {subsection}{\numberline {1.6.3}Applications des codes correcteurs d'erreur}{30}{subsection.1.6.3}\protected@file@percent }
\@writefile{lof}{\contentsline {figure}{\numberline {\relax 1.5}{\ignorespaces Un code QR}}{31}{figure.caption.27}\protected@file@percent }
\newlabel{fig:qr-code}{{\relax 1.5}{31}{Un code QR}{figure.caption.27}{}}
\@writefile{toc}{\contentsline {section}{\numberline {1.7}Conclusion: s\IeC {\'e}mantique d'une repr\IeC {\'e}sentation binaire}{31}{section.1.7}\protected@file@percent }
\@writefile{lof}{\contentsline {figure}{\numberline {\relax 1.6}{\ignorespaces Une repr\IeC {\'e}sentation, diff\IeC {\'e}rentes interpr\IeC {\'e}tations}}{33}{figure.caption.28}\protected@file@percent }
\newlabel{fig:prog-repr-cpp}{{\relax 1.6}{33}{Une représentation, différentes interprétations}{figure.caption.28}{}}
\@setckpt{chapters/02-representation}{
\setcounter{page}{34}
\setcounter{equation}{0}
\setcounter{enumi}{2}
\setcounter{enumii}{0}
\setcounter{enumiii}{0}
\setcounter{enumiv}{0}
\setcounter{footnote}{19}
\setcounter{mpfootnote}{0}
\setcounter{part}{0}
\setcounter{chapter}{1}
\setcounter{section}{7}
\setcounter{subsection}{0}
\setcounter{subsubsection}{0}
\setcounter{paragraph}{0}
\setcounter{subparagraph}{0}
\setcounter{figure}{6}
\setcounter{table}{1}
\setcounter{FBcaption@count}{0}
\setcounter{parentequation}{0}
\setcounter{lstnumber}{4}
\setcounter{exo}{0}
\setcounter{exercice}{0}
\setcounter{questnum}{0}
\setcounter{Item}{6}
\setcounter{Hfootnote}{19}
\setcounter{bookmark@seq@number}{0}
\setcounter{r@tfl@t}{1}
\setcounter{tabx@nest}{0}
\setcounter{listtotal}{0}
\setcounter{listcount}{0}
\setcounter{liststart}{0}
\setcounter{liststop}{0}
\setcounter{citecount}{0}
\setcounter{citetotal}{0}
\setcounter{multicitecount}{0}
\setcounter{multicitetotal}{0}
\setcounter{instcount}{0}
\setcounter{maxnames}{3}
\setcounter{minnames}{1}
\setcounter{maxitems}{3}
\setcounter{minitems}{1}
\setcounter{citecounter}{0}
\setcounter{maxcitecounter}{0}
\setcounter{savedcitecounter}{0}
\setcounter{uniquelist}{0}
\setcounter{uniquename}{0}
\setcounter{refsection}{0}
\setcounter{refsegment}{0}
\setcounter{maxextratitle}{0}
\setcounter{maxextratitleyear}{0}
\setcounter{maxextraname}{0}
\setcounter{maxextradate}{0}
\setcounter{maxextraalpha}{0}
\setcounter{abbrvpenalty}{50}
\setcounter{highnamepenalty}{50}
\setcounter{lownamepenalty}{25}
\setcounter{maxparens}{3}
\setcounter{parenlevel}{0}
\setcounter{mincomprange}{10}
\setcounter{maxcomprange}{100000}
\setcounter{mincompwidth}{1}
\setcounter{afterword}{0}
\setcounter{savedafterword}{0}
\setcounter{annotator}{0}
\setcounter{savedannotator}{0}
\setcounter{author}{0}
\setcounter{savedauthor}{0}
\setcounter{bookauthor}{0}
\setcounter{savedbookauthor}{0}
\setcounter{commentator}{0}
\setcounter{savedcommentator}{0}
\setcounter{editor}{0}
\setcounter{savededitor}{0}
\setcounter{editora}{0}
\setcounter{savededitora}{0}
\setcounter{editorb}{0}
\setcounter{savededitorb}{0}
\setcounter{editorc}{0}
\setcounter{savededitorc}{0}
\setcounter{foreword}{0}
\setcounter{savedforeword}{0}
\setcounter{holder}{0}
\setcounter{savedholder}{0}
\setcounter{introduction}{0}
\setcounter{savedintroduction}{0}
\setcounter{namea}{0}
\setcounter{savednamea}{0}
\setcounter{nameb}{0}
\setcounter{savednameb}{0}
\setcounter{namec}{0}
\setcounter{savednamec}{0}
\setcounter{translator}{0}
\setcounter{savedtranslator}{0}
\setcounter{shortauthor}{0}
\setcounter{savedshortauthor}{0}
\setcounter{shorteditor}{0}
\setcounter{savedshorteditor}{0}
\setcounter{labelname}{0}
\setcounter{savedlabelname}{0}
\setcounter{institution}{0}
\setcounter{savedinstitution}{0}
\setcounter{lista}{0}
\setcounter{savedlista}{0}
\setcounter{listb}{0}
\setcounter{savedlistb}{0}
\setcounter{listc}{0}
\setcounter{savedlistc}{0}
\setcounter{listd}{0}
\setcounter{savedlistd}{0}
\setcounter{liste}{0}
\setcounter{savedliste}{0}
\setcounter{listf}{0}
\setcounter{savedlistf}{0}
\setcounter{location}{0}
\setcounter{savedlocation}{0}
\setcounter{organization}{0}
\setcounter{savedorganization}{0}
\setcounter{origlocation}{0}
\setcounter{savedoriglocation}{0}
\setcounter{origpublisher}{0}
\setcounter{savedorigpublisher}{0}
\setcounter{publisher}{0}
\setcounter{savedpublisher}{0}
\setcounter{language}{0}
\setcounter{savedlanguage}{0}
\setcounter{origlanguage}{0}
\setcounter{savedoriglanguage}{0}
\setcounter{pageref}{0}
\setcounter{savedpageref}{0}
\setcounter{textcitecount}{0}
\setcounter{textcitetotal}{0}
\setcounter{textcitemaxnames}{0}
\setcounter{biburlnumpenalty}{0}
\setcounter{biburlucpenalty}{0}
\setcounter{biburllcpenalty}{0}
\setcounter{smartand}{1}
\setcounter{bbx:relatedcount}{0}
\setcounter{bbx:relatedtotal}{0}
\setcounter{ifsymcnt}{0}
\setcounter{caption@flags}{0}
\setcounter{ContinuedFloat}{0}
\setcounter{@todonotes@numberoftodonotes}{0}
\setcounter{tikztiming@nrows}{0}
\setcounter{tikztimingrows}{0}
\setcounter{tikztimingtrans}{0}
\setcounter{tikztimingtranspos}{0}
\setcounter{theorem}{1}
\setcounter{lstlisting}{0}
\setcounter{section@level}{1}
}
